,list,path,output
0,2021-01-01T06:31,data_analysis/QuarkList/2021-01-01T06:31,output/QuarkList/2021-01-01T06:31
1,2021-01-04T02:06,data_analysis/QuarkList/2021-01-04T02:06,output/QuarkList/2021-01-04T02:06
2,2021-01-06T01:35,data_analysis/QuarkList/2021-01-06T01:35,output/QuarkList/2021-01-06T01:35
3,2021-01-07T17:24,data_analysis/QuarkList/2021-01-07T17:24,output/QuarkList/2021-01-07T17:24
4,2021-01-12T00:44,data_analysis/QuarkList/2021-01-12T00:44,output/QuarkList/2021-01-12T00:44
5,2021-01-15T14:53,data_analysis/QuarkList/2021-01-15T14:53,output/QuarkList/2021-01-15T14:53
6,2021-01-25T09:00,data_analysis/QuarkList/2021-01-25T09:00,output/QuarkList/2021-01-25T09:00
7,2021-01-27T20:21,data_analysis/QuarkList/2021-01-27T20:21,output/QuarkList/2021-01-27T20:21
8,2021-03-05T22:32,data_analysis/QuarkList/2021-03-05T22:32,output/QuarkList/2021-03-05T22:32
9,2021-03-22T19:26,data_analysis/QuarkList/2021-03-22T19:26,output/QuarkList/2021-03-22T19:26
10,2021-03-22T19:43,data_analysis/QuarkList/2021-03-22T19:43,output/QuarkList/2021-03-22T19:43
11,2021-03-26T05:24,data_analysis/QuarkList/2021-03-26T05:24,output/QuarkList/2021-03-26T05:24
12,2021-03-26T05:53,data_analysis/QuarkList/2021-03-26T05:53,output/QuarkList/2021-03-26T05:53
13,2021-04-17T16:12,data_analysis/QuarkList/2021-04-17T16:12,output/QuarkList/2021-04-17T16:12
14,2021-05-24T08:51,data_analysis/QuarkList/2021-05-24T08:51,output/QuarkList/2021-05-24T08:51
15,2021-06-06T07:44,data_analysis/QuarkList/2021-06-06T07:44,output/QuarkList/2021-06-06T07:44
16,2021-06-17T14:00,data_analysis/QuarkList/2021-06-17T14:00,output/QuarkList/2021-06-17T14:00
17,2021-07-07T04:01,data_analysis/QuarkList/2021-07-07T04:01,output/QuarkList/2021-07-07T04:01
18,2021-07-12T20:16,data_analysis/QuarkList/2021-07-12T20:16,output/QuarkList/2021-07-12T20:16
19,2021-07-23T07:46,data_analysis/QuarkList/2021-07-23T07:46,output/QuarkList/2021-07-23T07:46
20,2021-09-14T01:18,data_analysis/QuarkList/2021-09-14T01:18,output/QuarkList/2021-09-14T01:18
21,current,data_analysis/QuarkList/current,output/QuarkList/current
