,list,path,output
0,2020-11-25T15:41,data_analysis/Mochi_Filter_Extended/2020-11-25T15:41,output/Mochi_Filter_Extended/2020-11-25T15:41
1,2021-01-26T07:38,data_analysis/Mochi_Filter_Extended/2021-01-26T07:38,output/Mochi_Filter_Extended/2021-01-26T07:38
2,2021-02-27T18:58,data_analysis/Mochi_Filter_Extended/2021-02-27T18:58,output/Mochi_Filter_Extended/2021-02-27T18:58
3,2021-05-16T09:47,data_analysis/Mochi_Filter_Extended/2021-05-16T09:47,output/Mochi_Filter_Extended/2021-05-16T09:47
4,2021-05-23T18:59,data_analysis/Mochi_Filter_Extended/2021-05-23T18:59,output/Mochi_Filter_Extended/2021-05-23T18:59
5,2021-06-08T12:58,data_analysis/Mochi_Filter_Extended/2021-06-08T12:58,output/Mochi_Filter_Extended/2021-06-08T12:58
6,2021-06-12T19:45,data_analysis/Mochi_Filter_Extended/2021-06-12T19:45,output/Mochi_Filter_Extended/2021-06-12T19:45
7,2021-10-05T16:37,data_analysis/Mochi_Filter_Extended/2021-10-05T16:37,output/Mochi_Filter_Extended/2021-10-05T16:37
8,2021-10-15T08:04,data_analysis/Mochi_Filter_Extended/2021-10-15T08:04,output/Mochi_Filter_Extended/2021-10-15T08:04
9,2021-10-31T17:21,data_analysis/Mochi_Filter_Extended/2021-10-31T17:21,output/Mochi_Filter_Extended/2021-10-31T17:21
10,2021-11-27T22:34,data_analysis/Mochi_Filter_Extended/2021-11-27T22:34,output/Mochi_Filter_Extended/2021-11-27T22:34
11,2022-01-04T16:50,data_analysis/Mochi_Filter_Extended/2022-01-04T16:50,output/Mochi_Filter_Extended/2022-01-04T16:50
12,2022-01-12T03:36,data_analysis/Mochi_Filter_Extended/2022-01-12T03:36,output/Mochi_Filter_Extended/2022-01-12T03:36
13,current,data_analysis/Mochi_Filter_Extended/current,output/Mochi_Filter_Extended/current
