,list,path,output
0,2020-09-21T21:10,data_analysis/Fanboy's_Indian/2020-09-21T21:10,output/Fanboy's_Indian/2020-09-21T21:10
1,2020-09-21T21:24,data_analysis/Fanboy's_Indian/2020-09-21T21:24,output/Fanboy's_Indian/2020-09-21T21:24
2,2020-09-22T00:14,data_analysis/Fanboy's_Indian/2020-09-22T00:14,output/Fanboy's_Indian/2020-09-22T00:14
3,2020-10-12T08:59,data_analysis/Fanboy's_Indian/2020-10-12T08:59,output/Fanboy's_Indian/2020-10-12T08:59
4,2020-10-13T22:48,data_analysis/Fanboy's_Indian/2020-10-13T22:48,output/Fanboy's_Indian/2020-10-13T22:48
5,2020-10-18T02:00,data_analysis/Fanboy's_Indian/2020-10-18T02:00,output/Fanboy's_Indian/2020-10-18T02:00
6,2021-01-23T13:56,data_analysis/Fanboy's_Indian/2021-01-23T13:56,output/Fanboy's_Indian/2021-01-23T13:56
7,current,data_analysis/Fanboy's_Indian/current,output/Fanboy's_Indian/current
