,list,path,output
0,current,data_analysis/AdGuard_Dutch_Filter_(uBlock_Origin)/current,output/AdGuard_Dutch_Filter_(uBlock_Origin)/current
1,2022-01-13T20:43,data_analysis/AdGuard_Dutch_Filter_(uBlock_Origin)/2022-01-13T20:43,output/AdGuard_Dutch_Filter_(uBlock_Origin)/2022-01-13T20:43
2,2022-01-15T01:12,data_analysis/AdGuard_Dutch_Filter_(uBlock_Origin)/2022-01-15T01:12,output/AdGuard_Dutch_Filter_(uBlock_Origin)/2022-01-15T01:12
3,2022-01-17T11:34,data_analysis/AdGuard_Dutch_Filter_(uBlock_Origin)/2022-01-17T11:34,output/AdGuard_Dutch_Filter_(uBlock_Origin)/2022-01-17T11:34
4,2022-01-17T18:20,data_analysis/AdGuard_Dutch_Filter_(uBlock_Origin)/2022-01-17T18:20,output/AdGuard_Dutch_Filter_(uBlock_Origin)/2022-01-17T18:20
5,2022-01-20T17:43,data_analysis/AdGuard_Dutch_Filter_(uBlock_Origin)/2022-01-20T17:43,output/AdGuard_Dutch_Filter_(uBlock_Origin)/2022-01-20T17:43
6,2022-02-06T17:40,data_analysis/AdGuard_Dutch_Filter_(uBlock_Origin)/2022-02-06T17:40,output/AdGuard_Dutch_Filter_(uBlock_Origin)/2022-02-06T17:40
7,2022-02-07T18:11,data_analysis/AdGuard_Dutch_Filter_(uBlock_Origin)/2022-02-07T18:11,output/AdGuard_Dutch_Filter_(uBlock_Origin)/2022-02-07T18:11
8,2022-02-10T21:39,data_analysis/AdGuard_Dutch_Filter_(uBlock_Origin)/2022-02-10T21:39,output/AdGuard_Dutch_Filter_(uBlock_Origin)/2022-02-10T21:39
9,2022-02-14T19:39,data_analysis/AdGuard_Dutch_Filter_(uBlock_Origin)/2022-02-14T19:39,output/AdGuard_Dutch_Filter_(uBlock_Origin)/2022-02-14T19:39
10,2022-02-24T16:35,data_analysis/AdGuard_Dutch_Filter_(uBlock_Origin)/2022-02-24T16:35,output/AdGuard_Dutch_Filter_(uBlock_Origin)/2022-02-24T16:35
11,2022-03-02T17:44,data_analysis/AdGuard_Dutch_Filter_(uBlock_Origin)/2022-03-02T17:44,output/AdGuard_Dutch_Filter_(uBlock_Origin)/2022-03-02T17:44
12,2022-03-02T18:16,data_analysis/AdGuard_Dutch_Filter_(uBlock_Origin)/2022-03-02T18:16,output/AdGuard_Dutch_Filter_(uBlock_Origin)/2022-03-02T18:16
13,2022-03-04T17:39,data_analysis/AdGuard_Dutch_Filter_(uBlock_Origin)/2022-03-04T17:39,output/AdGuard_Dutch_Filter_(uBlock_Origin)/2022-03-04T17:39
14,2022-03-09T16:36,data_analysis/AdGuard_Dutch_Filter_(uBlock_Origin)/2022-03-09T16:36,output/AdGuard_Dutch_Filter_(uBlock_Origin)/2022-03-09T16:36
15,2022-03-09T17:33,data_analysis/AdGuard_Dutch_Filter_(uBlock_Origin)/2022-03-09T17:33,output/AdGuard_Dutch_Filter_(uBlock_Origin)/2022-03-09T17:33
16,2022-03-11T17:40,data_analysis/AdGuard_Dutch_Filter_(uBlock_Origin)/2022-03-11T17:40,output/AdGuard_Dutch_Filter_(uBlock_Origin)/2022-03-11T17:40
17,2022-03-14T22:29,data_analysis/AdGuard_Dutch_Filter_(uBlock_Origin)/2022-03-14T22:29,output/AdGuard_Dutch_Filter_(uBlock_Origin)/2022-03-14T22:29
18,2022-03-15T22:10,data_analysis/AdGuard_Dutch_Filter_(uBlock_Origin)/2022-03-15T22:10,output/AdGuard_Dutch_Filter_(uBlock_Origin)/2022-03-15T22:10
19,2022-03-16T18:22,data_analysis/AdGuard_Dutch_Filter_(uBlock_Origin)/2022-03-16T18:22,output/AdGuard_Dutch_Filter_(uBlock_Origin)/2022-03-16T18:22
20,2022-03-16T19:47,data_analysis/AdGuard_Dutch_Filter_(uBlock_Origin)/2022-03-16T19:47,output/AdGuard_Dutch_Filter_(uBlock_Origin)/2022-03-16T19:47
21,2022-03-16T20:43,data_analysis/AdGuard_Dutch_Filter_(uBlock_Origin)/2022-03-16T20:43,output/AdGuard_Dutch_Filter_(uBlock_Origin)/2022-03-16T20:43
22,2022-03-16T21:39,data_analysis/AdGuard_Dutch_Filter_(uBlock_Origin)/2022-03-16T21:39,output/AdGuard_Dutch_Filter_(uBlock_Origin)/2022-03-16T21:39
23,2022-03-17T16:37,data_analysis/AdGuard_Dutch_Filter_(uBlock_Origin)/2022-03-17T16:37,output/AdGuard_Dutch_Filter_(uBlock_Origin)/2022-03-17T16:37
24,2022-03-17T18:16,data_analysis/AdGuard_Dutch_Filter_(uBlock_Origin)/2022-03-17T18:16,output/AdGuard_Dutch_Filter_(uBlock_Origin)/2022-03-17T18:16
