,list,path,output
0,2020-10-11T16:01,data_analysis/Twitter:_Pure_Reading_Experience/2020-10-11T16:01,output/Twitter:_Pure_Reading_Experience/2020-10-11T16:01
1,2020-10-11T16:15,data_analysis/Twitter:_Pure_Reading_Experience/2020-10-11T16:15,output/Twitter:_Pure_Reading_Experience/2020-10-11T16:15
2,2020-10-11T20:17,data_analysis/Twitter:_Pure_Reading_Experience/2020-10-11T20:17,output/Twitter:_Pure_Reading_Experience/2020-10-11T20:17
3,2020-10-12T21:58,data_analysis/Twitter:_Pure_Reading_Experience/2020-10-12T21:58,output/Twitter:_Pure_Reading_Experience/2020-10-12T21:58
4,2020-10-18T22:36,data_analysis/Twitter:_Pure_Reading_Experience/2020-10-18T22:36,output/Twitter:_Pure_Reading_Experience/2020-10-18T22:36
5,2020-10-20T21:23,data_analysis/Twitter:_Pure_Reading_Experience/2020-10-20T21:23,output/Twitter:_Pure_Reading_Experience/2020-10-20T21:23
6,2021-01-25T03:28,data_analysis/Twitter:_Pure_Reading_Experience/2021-01-25T03:28,output/Twitter:_Pure_Reading_Experience/2021-01-25T03:28
7,2021-02-16T19:56,data_analysis/Twitter:_Pure_Reading_Experience/2021-02-16T19:56,output/Twitter:_Pure_Reading_Experience/2021-02-16T19:56
8,2021-03-12T19:53,data_analysis/Twitter:_Pure_Reading_Experience/2021-03-12T19:53,output/Twitter:_Pure_Reading_Experience/2021-03-12T19:53
9,2021-03-27T00:24,data_analysis/Twitter:_Pure_Reading_Experience/2021-03-27T00:24,output/Twitter:_Pure_Reading_Experience/2021-03-27T00:24
10,2021-04-02T22:47,data_analysis/Twitter:_Pure_Reading_Experience/2021-04-02T22:47,output/Twitter:_Pure_Reading_Experience/2021-04-02T22:47
11,2021-04-21T14:57,data_analysis/Twitter:_Pure_Reading_Experience/2021-04-21T14:57,output/Twitter:_Pure_Reading_Experience/2021-04-21T14:57
12,2021-06-08T12:59,data_analysis/Twitter:_Pure_Reading_Experience/2021-06-08T12:59,output/Twitter:_Pure_Reading_Experience/2021-06-08T12:59
13,2022-01-12T03:37,data_analysis/Twitter:_Pure_Reading_Experience/2022-01-12T03:37,output/Twitter:_Pure_Reading_Experience/2022-01-12T03:37
14,current,data_analysis/Twitter:_Pure_Reading_Experience/current,output/Twitter:_Pure_Reading_Experience/current
