,list,path,output
0,2021-04-13T03:15,data_analysis/Anti-'Newsstories_about_celebs_giving_birth'_List/2021-04-13T03:15,output/Anti-'Newsstories_about_celebs_giving_birth'_List/2021-04-13T03:15
1,2021-04-20T13:15,data_analysis/Anti-'Newsstories_about_celebs_giving_birth'_List/2021-04-20T13:15,output/Anti-'Newsstories_about_celebs_giving_birth'_List/2021-04-20T13:15
2,2021-04-23T05:58,data_analysis/Anti-'Newsstories_about_celebs_giving_birth'_List/2021-04-23T05:58,output/Anti-'Newsstories_about_celebs_giving_birth'_List/2021-04-23T05:58
3,2021-04-28T12:04,data_analysis/Anti-'Newsstories_about_celebs_giving_birth'_List/2021-04-28T12:04,output/Anti-'Newsstories_about_celebs_giving_birth'_List/2021-04-28T12:04
4,2021-05-05T01:46,data_analysis/Anti-'Newsstories_about_celebs_giving_birth'_List/2021-05-05T01:46,output/Anti-'Newsstories_about_celebs_giving_birth'_List/2021-05-05T01:46
5,2021-05-09T18:48,data_analysis/Anti-'Newsstories_about_celebs_giving_birth'_List/2021-05-09T18:48,output/Anti-'Newsstories_about_celebs_giving_birth'_List/2021-05-09T18:48
6,2021-06-06T18:53,data_analysis/Anti-'Newsstories_about_celebs_giving_birth'_List/2021-06-06T18:53,output/Anti-'Newsstories_about_celebs_giving_birth'_List/2021-06-06T18:53
7,2021-06-06T22:02,data_analysis/Anti-'Newsstories_about_celebs_giving_birth'_List/2021-06-06T22:02,output/Anti-'Newsstories_about_celebs_giving_birth'_List/2021-06-06T22:02
8,2021-06-08T12:55,data_analysis/Anti-'Newsstories_about_celebs_giving_birth'_List/2021-06-08T12:55,output/Anti-'Newsstories_about_celebs_giving_birth'_List/2021-06-08T12:55
9,2021-06-15T20:30,data_analysis/Anti-'Newsstories_about_celebs_giving_birth'_List/2021-06-15T20:30,output/Anti-'Newsstories_about_celebs_giving_birth'_List/2021-06-15T20:30
10,2021-06-16T00:09,data_analysis/Anti-'Newsstories_about_celebs_giving_birth'_List/2021-06-16T00:09,output/Anti-'Newsstories_about_celebs_giving_birth'_List/2021-06-16T00:09
11,2021-06-17T11:57,data_analysis/Anti-'Newsstories_about_celebs_giving_birth'_List/2021-06-17T11:57,output/Anti-'Newsstories_about_celebs_giving_birth'_List/2021-06-17T11:57
12,2021-06-21T18:36,data_analysis/Anti-'Newsstories_about_celebs_giving_birth'_List/2021-06-21T18:36,output/Anti-'Newsstories_about_celebs_giving_birth'_List/2021-06-21T18:36
13,2021-06-29T01:48,data_analysis/Anti-'Newsstories_about_celebs_giving_birth'_List/2021-06-29T01:48,output/Anti-'Newsstories_about_celebs_giving_birth'_List/2021-06-29T01:48
14,2021-07-02T15:49,data_analysis/Anti-'Newsstories_about_celebs_giving_birth'_List/2021-07-02T15:49,output/Anti-'Newsstories_about_celebs_giving_birth'_List/2021-07-02T15:49
15,2021-07-04T23:47,data_analysis/Anti-'Newsstories_about_celebs_giving_birth'_List/2021-07-04T23:47,output/Anti-'Newsstories_about_celebs_giving_birth'_List/2021-07-04T23:47
16,2021-07-07T10:40,data_analysis/Anti-'Newsstories_about_celebs_giving_birth'_List/2021-07-07T10:40,output/Anti-'Newsstories_about_celebs_giving_birth'_List/2021-07-07T10:40
17,2021-07-17T21:37,data_analysis/Anti-'Newsstories_about_celebs_giving_birth'_List/2021-07-17T21:37,output/Anti-'Newsstories_about_celebs_giving_birth'_List/2021-07-17T21:37
18,2021-07-28T15:37,data_analysis/Anti-'Newsstories_about_celebs_giving_birth'_List/2021-07-28T15:37,output/Anti-'Newsstories_about_celebs_giving_birth'_List/2021-07-28T15:37
19,2021-07-28T18:33,data_analysis/Anti-'Newsstories_about_celebs_giving_birth'_List/2021-07-28T18:33,output/Anti-'Newsstories_about_celebs_giving_birth'_List/2021-07-28T18:33
20,current,data_analysis/Anti-'Newsstories_about_celebs_giving_birth'_List/current,output/Anti-'Newsstories_about_celebs_giving_birth'_List/current
21,2021-09-24T16:14,data_analysis/Anti-'Newsstories_about_celebs_giving_birth'_List/2021-09-24T16:14,output/Anti-'Newsstories_about_celebs_giving_birth'_List/2021-09-24T16:14
22,2021-10-02T19:22,data_analysis/Anti-'Newsstories_about_celebs_giving_birth'_List/2021-10-02T19:22,output/Anti-'Newsstories_about_celebs_giving_birth'_List/2021-10-02T19:22
23,2021-10-05T15:27,data_analysis/Anti-'Newsstories_about_celebs_giving_birth'_List/2021-10-05T15:27,output/Anti-'Newsstories_about_celebs_giving_birth'_List/2021-10-05T15:27
24,2021-10-10T09:17,data_analysis/Anti-'Newsstories_about_celebs_giving_birth'_List/2021-10-10T09:17,output/Anti-'Newsstories_about_celebs_giving_birth'_List/2021-10-10T09:17
