,list,path,output
0,2020-09-19T19:52,data_analysis/Empty_Padding_Remover/2020-09-19T19:52,output/Empty_Padding_Remover/2020-09-19T19:52
1,2020-10-26T09:12,data_analysis/Empty_Padding_Remover/2020-10-26T09:12,output/Empty_Padding_Remover/2020-10-26T09:12
2,2020-10-26T10:22,data_analysis/Empty_Padding_Remover/2020-10-26T10:22,output/Empty_Padding_Remover/2020-10-26T10:22
3,2020-11-12T01:20,data_analysis/Empty_Padding_Remover/2020-11-12T01:20,output/Empty_Padding_Remover/2020-11-12T01:20
4,2020-11-13T09:50,data_analysis/Empty_Padding_Remover/2020-11-13T09:50,output/Empty_Padding_Remover/2020-11-13T09:50
5,2021-01-23T13:14,data_analysis/Empty_Padding_Remover/2021-01-23T13:14,output/Empty_Padding_Remover/2021-01-23T13:14
6,2021-01-30T10:59,data_analysis/Empty_Padding_Remover/2021-01-30T10:59,output/Empty_Padding_Remover/2021-01-30T10:59
7,2021-02-12T01:06,data_analysis/Empty_Padding_Remover/2021-02-12T01:06,output/Empty_Padding_Remover/2021-02-12T01:06
8,2021-04-02T22:45,data_analysis/Empty_Padding_Remover/2021-04-02T22:45,output/Empty_Padding_Remover/2021-04-02T22:45
9,2021-06-08T12:13,data_analysis/Empty_Padding_Remover/2021-06-08T12:13,output/Empty_Padding_Remover/2021-06-08T12:13
10,2021-06-08T12:56,data_analysis/Empty_Padding_Remover/2021-06-08T12:56,output/Empty_Padding_Remover/2021-06-08T12:56
11,2021-06-11T06:12,data_analysis/Empty_Padding_Remover/2021-06-11T06:12,output/Empty_Padding_Remover/2021-06-11T06:12
12,2021-08-30T05:15,data_analysis/Empty_Padding_Remover/2021-08-30T05:15,output/Empty_Padding_Remover/2021-08-30T05:15
13,2021-09-28T19:07,data_analysis/Empty_Padding_Remover/2021-09-28T19:07,output/Empty_Padding_Remover/2021-09-28T19:07
14,2021-10-25T22:26,data_analysis/Empty_Padding_Remover/2021-10-25T22:26,output/Empty_Padding_Remover/2021-10-25T22:26
15,2021-11-24T06:06,data_analysis/Empty_Padding_Remover/2021-11-24T06:06,output/Empty_Padding_Remover/2021-11-24T06:06
16,2022-01-12T03:34,data_analysis/Empty_Padding_Remover/2022-01-12T03:34,output/Empty_Padding_Remover/2022-01-12T03:34
17,current,data_analysis/Empty_Padding_Remover/current,output/Empty_Padding_Remover/current
