,list,path,output
0,2020-11-20T01:01,data_analysis/Feedly_Ads/2020-11-20T01:01,output/Feedly_Ads/2020-11-20T01:01
1,2021-01-13T10:43,data_analysis/Feedly_Ads/2021-01-13T10:43,output/Feedly_Ads/2021-01-13T10:43
2,2021-06-08T12:42,data_analysis/Feedly_Ads/2021-06-08T12:42,output/Feedly_Ads/2021-06-08T12:42
3,current,data_analysis/Feedly_Ads/current,output/Feedly_Ads/current
