,list,path,output
0,2020-12-05T12:58,data_analysis/Greek_AdBlock_Filter/2020-12-05T12:58,output/Greek_AdBlock_Filter/2020-12-05T12:58
1,2020-12-09T11:10,data_analysis/Greek_AdBlock_Filter/2020-12-09T11:10,output/Greek_AdBlock_Filter/2020-12-09T11:10
2,2020-12-09T12:32,data_analysis/Greek_AdBlock_Filter/2020-12-09T12:32,output/Greek_AdBlock_Filter/2020-12-09T12:32
3,2020-12-23T13:22,data_analysis/Greek_AdBlock_Filter/2020-12-23T13:22,output/Greek_AdBlock_Filter/2020-12-23T13:22
4,2020-12-31T09:01,data_analysis/Greek_AdBlock_Filter/2020-12-31T09:01,output/Greek_AdBlock_Filter/2020-12-31T09:01
5,2021-01-04T10:52,data_analysis/Greek_AdBlock_Filter/2021-01-04T10:52,output/Greek_AdBlock_Filter/2021-01-04T10:52
6,2021-01-10T09:45,data_analysis/Greek_AdBlock_Filter/2021-01-10T09:45,output/Greek_AdBlock_Filter/2021-01-10T09:45
7,2021-01-26T19:59,data_analysis/Greek_AdBlock_Filter/2021-01-26T19:59,output/Greek_AdBlock_Filter/2021-01-26T19:59
8,2021-01-27T19:09,data_analysis/Greek_AdBlock_Filter/2021-01-27T19:09,output/Greek_AdBlock_Filter/2021-01-27T19:09
9,2021-01-30T10:04,data_analysis/Greek_AdBlock_Filter/2021-01-30T10:04,output/Greek_AdBlock_Filter/2021-01-30T10:04
10,2021-02-02T20:29,data_analysis/Greek_AdBlock_Filter/2021-02-02T20:29,output/Greek_AdBlock_Filter/2021-02-02T20:29
11,2021-02-02T20:43,data_analysis/Greek_AdBlock_Filter/2021-02-02T20:43,output/Greek_AdBlock_Filter/2021-02-02T20:43
12,2021-02-23T19:28,data_analysis/Greek_AdBlock_Filter/2021-02-23T19:28,output/Greek_AdBlock_Filter/2021-02-23T19:28
13,2021-03-04T20:55,data_analysis/Greek_AdBlock_Filter/2021-03-04T20:55,output/Greek_AdBlock_Filter/2021-03-04T20:55
14,2021-03-11T15:17,data_analysis/Greek_AdBlock_Filter/2021-03-11T15:17,output/Greek_AdBlock_Filter/2021-03-11T15:17
15,2021-03-12T09:30,data_analysis/Greek_AdBlock_Filter/2021-03-12T09:30,output/Greek_AdBlock_Filter/2021-03-12T09:30
16,2021-03-13T19:42,data_analysis/Greek_AdBlock_Filter/2021-03-13T19:42,output/Greek_AdBlock_Filter/2021-03-13T19:42
17,2021-03-21T09:42,data_analysis/Greek_AdBlock_Filter/2021-03-21T09:42,output/Greek_AdBlock_Filter/2021-03-21T09:42
18,2021-04-17T19:48,data_analysis/Greek_AdBlock_Filter/2021-04-17T19:48,output/Greek_AdBlock_Filter/2021-04-17T19:48
19,2021-05-02T20:20,data_analysis/Greek_AdBlock_Filter/2021-05-02T20:20,output/Greek_AdBlock_Filter/2021-05-02T20:20
20,2021-06-08T12:43,data_analysis/Greek_AdBlock_Filter/2021-06-08T12:43,output/Greek_AdBlock_Filter/2021-06-08T12:43
21,2021-09-24T17:02,data_analysis/Greek_AdBlock_Filter/2021-09-24T17:02,output/Greek_AdBlock_Filter/2021-09-24T17:02
22,2021-09-29T23:42,data_analysis/Greek_AdBlock_Filter/2021-09-29T23:42,output/Greek_AdBlock_Filter/2021-09-29T23:42
23,2021-11-27T22:33,data_analysis/Greek_AdBlock_Filter/2021-11-27T22:33,output/Greek_AdBlock_Filter/2021-11-27T22:33
24,current,data_analysis/Greek_AdBlock_Filter/current,output/Greek_AdBlock_Filter/current
