test,entry,type,lists,name,id
,tunelefoliowe.eu##.my-float.fa-whatsapp,addition,,current,0
,delikatesylosos.pl###arlsf-notification,addition,,2021-12-12T20:46,1
,"kompan.pl,lanesta.eu##.b24-widget-button-wrapper",addition,,2021-12-12T20:46,2
,stella.com.pl##.contact__buttonFb,addition,,2021-12-12T20:46,3
,kompan.pl##.b24-widget-button-wrapper,deletion,,2021-12-12T20:46,4
,"sklep.acana.com.pl,szpot.pl##call-us",addition,,2021-12-12T19:19,5
,szpot.pl##call-us,deletion,,2021-12-12T19:19,6
,lan.sklep.pl###chatInCloud.chatInCloud,addition,,2021-12-12T22:26,7
,shopee.pl###shopee-mini-chat-embedded,addition,,2021-12-27T11:19,8
,d24h.pl###chat_container,deletion,,2021-12-20T11:19,9
,d24h.pl###zapytaj_kosmetyczke,deletion,,2021-12-20T11:19,10
,d24h.pl###zaufane_opinie_widget,deletion,,2021-12-20T11:19,11
,jacus.pl###allegro,deletion,,2021-12-28T15:11,12
,"jacus.pl,pupillo.pl###opinie",deletion,,2021-12-28T15:11,13
,kammar24.pl###druga_ikona,deletion,,2021-12-28T15:11,14
,"super-toys.pl,valor-meble.pl###pierwsza_ikona",deletion,,2021-12-28T15:11,15
,"agroalex.pl,aquario.pl,eelektryka.com,flowerstory.pl,shoplet.pl,wildcar.pl###x13callback_button",addition,,2021-12-27T23:49,16
,"agroalex.pl,aquario.pl,flowerstory.pl,shoplet.pl,wildcar.pl###x13callback_button",deletion,,2021-12-27T23:49,17
,blog.gdaq.pl##.ncf_label_visible.ncf_tab.nks_cc_trigger_tabs,deletion,,2022-01-04T11:16,18
,braclowiecka.pl##a.shop:nth-of-type(2),deletion,,2022-01-04T11:16,19
,braclowiecka.pl##.icon-bar > a.shop:nth-of-type(1),deletion,,2022-01-04T11:16,20
,gdaq.pl###continually-container,deletion,,2022-01-04T11:16,21
,modivo.pl##.live-chat-button,addition,,2021-12-30T15:10,22
,braclowiecka.pl##a.shop:nth-of-type(1),addition,,2022-01-04T15:21,23
,braclowiecka.pl##a.shop:nth-of-type(2),addition,,2022-01-04T15:21,24
,gdaq.pl##.ncf_label_visible.ncf_tab.nks_cc_trigger_tabs,addition,,2022-01-04T15:21,25
,gdaq.pl##.new.phone_btn_flat,addition,,2022-01-04T15:21,26
,"eska.pl,optykwnecie.pl##.fb-customerchat",addition,,2022-01-22T22:06,27
,optykwnecie.pl##.whatsappchat-anchor,addition,,2022-01-22T22:06,28
,eska.pl##.fb-customerchat,deletion,,2022-01-22T22:06,29
,"darymex.pl,krukam.pl,sneakerpeeker.pl###edrone--main--chat--container",addition,,2022-01-18T22:53,30
,eska.pl##.fb-customerchat,addition,,2022-01-18T22:53,31
,gdaq.pl##.nks_cc_trigger_tabs,addition,,2022-01-18T22:53,32
,mojeppk.pl###ppk-cx-webchat-chat-button,addition,,2022-01-18T22:53,33
,gdaq.pl##.ncf_label_visible.ncf_tab.nks_cc_trigger_tabs,deletion,,2022-01-18T22:53,34
,"krukam.pl,sneakerpeeker.pl###edrone--main--chat--container",deletion,,2022-01-18T22:53,35
,bigbaddice.pl##.icon-social-whatsapp,addition,,2022-01-23T19:21,36
,"jbzdy.cc,jbzdy.com.pl,jbzdy.pl##.btn-send-messenger, .fb-like",addition,,2022-01-23T19:21,37
,"onet.pl,plejada.pl##.whatsapp",addition,,2022-01-23T19:21,38
<img src='https://oszczedzarka.co.uk.textwidget > p > img[src='/img/ico/skype.png']' style='visibility: hidden' />,oszczedzarka.co.uk.textwidget > p > img[src='/img/ico/skype.png'],addition,,2022-01-23T19:21,39
,pl##a[href^='fb-messenger://share/'],addition,,2022-01-23T19:21,40
,wakacyjnipiraci.pl##.widget-whatsapp__broadcast,addition,,2022-01-23T19:21,41
,virustotal.com##vt-ui-contact-fab,addition,,2022-01-25T11:19,42
,exploringaround.pl##.right.ecp-button,deletion,,2022-01-31T15:10,43
,virustotal.com###walkthrough ~ vt-ui-contact-fab,deletion,,2022-01-31T15:10,44
,"eska.pl,meskiegacie.pl,optykwnecie.pl##.fb-customerchat",addition,,2022-02-03T20:31,45
,"eska.pl,optykwnecie.pl##.fb-customerchat",deletion,,2022-02-03T20:31,46
,allegro.pl###chatPlugin,addition,,2022-02-06T20:32,47
,foxstrategy.pl###fbMsg,addition,,2022-02-06T20:32,48
,pl##.fb_reset,addition,,2022-02-08T16:38,49
,"arenadesign.pl,mtp.pl###mtp-chat",addition,,2022-02-17T16:35,50
,"eska.pl,meskiegacie.pl,optykwnecie.pl,zymetric.pl##.fb-customerchat",addition,,2022-02-17T16:35,51
,"eska.pl,meskiegacie.pl,optykwnecie.pl##.fb-customerchat",deletion,,2022-02-17T16:35,52
,mtp.pl###mtp-chat,deletion,,2022-02-17T16:35,53
,exploringaround.pl##.ecp-button,deletion,,2022-02-20T16:38,54
,foodex24.pl##.ask-consultant,addition,,2022-03-06T20:34,55
,kaktus24.pl###messenger_chat,addition,,2022-03-06T20:34,56
,ukrainashop.com###oiOpinionWidget,addition,,2022-03-06T20:34,57
,dipol.com.pl###.iguider-btn,addition,,2022-03-15T16:40,58
,sklep.zielonyogrodek.pl##.contact-sidebar__btn,addition,,2022-03-15T16:40,59
,hebe.pl##.embeddedServiceHelpButton,addition,,2022-03-14T16:32,60
,sklep.uchowanca.pl###tm-widget-lemur,addition,,2022-03-14T16:32,61
