test,entry,type,lists,name,id
,google.*##.widget-ruler-primary-label > span:has-text(/f[eio]?t/),addition,,2021-01-09T15:15,0
,google.*##.widget-ruler-primary-label > span:has-text(/p[ėē]?d/),addition,,2021-01-09T15:15,1
,google.*##.widget-ruler-primary-label > span:has-text(/фу?т/),addition,,2021-01-09T15:15,2
,google.*##.widget-ruler-primary-label > span:has-text(/[फ़ुफुफूਫੁੱ]ट/),addition,,2021-01-09T15:15,3
,google.*##.widget-ruler-primary-label > span:has-text(ft),deletion,,2021-01-09T15:15,4
,google.*##.widget-ruler-primary-label > span:has-text(fet),deletion,,2021-01-09T15:15,5
,google.*##.widget-ruler-primary-label > span:has-text(fit),deletion,,2021-01-09T15:15,6
,google.*##.widget-ruler-primary-label > span:has-text(fot),deletion,,2021-01-09T15:15,7
,google.*##.widget-ruler-primary-label > span:has-text(pd),deletion,,2021-01-09T15:15,8
,google.*##.widget-ruler-primary-label > span:has-text(pēdas),deletion,,2021-01-09T15:15,9
,google.*##.widget-ruler-primary-label > span:has-text(pėd),deletion,,2021-01-09T15:15,10
,google.*##.widget-ruler-primary-label > span:has-text(фт),deletion,,2021-01-09T15:15,11
,google.*##.widget-ruler-primary-label > span:has-text(фут),deletion,,2021-01-09T15:15,12
,google.*##.widget-ruler-primary-label > span:has-text(फ़ुट),deletion,,2021-01-09T15:15,13
,google.*##.widget-ruler-primary-label > span:has-text(फुट),deletion,,2021-01-09T15:15,14
,google.*##.widget-ruler-primary-label > span:has-text(फूट),deletion,,2021-01-09T15:15,15
,google.*##.widget-ruler-primary-label > span:has-text(ਫੁੱਟ),deletion,,2021-01-09T15:15,16
<img src='https://[Adblock Plus 3.6]' style='visibility: hidden' />,[Adblock Plus 3.6],addition,,2021-04-02T22:46,17
<img src='https://[Adblock Plus 3.4]' style='visibility: hidden' />,[Adblock Plus 3.4],deletion,,2021-04-02T22:46,18
,google.*##div[class^=H6hyle-ruler-]:not([class*=' ']) > span:has-text(mi),addition,,2021-06-28T01:10,19
,google.*##div[class^=H6hyle-ruler-]:not([class*=' ']) > span:has-text(мил),addition,,2021-06-28T01:10,20
,google.*##div[class^=H6hyle-ruler-]:not([class*=' ']) > span:has-text(dặm),addition,,2021-06-28T01:10,21
,google.*##div[class^=H6hyle-ruler-]:not([class*=' ']) > span:has-text(jūdze),addition,,2021-06-28T01:10,22
,google.*##div[class^=H6hyle-ruler-]:not([class*=' ']) > span:has-text(myl),addition,,2021-06-28T01:10,23
,google.*##div[class^=H6hyle-ruler-]:not([class*=' ']) > span:has-text(מייל),addition,,2021-06-28T01:10,24
,google.*##div[class^=H6hyle-ruler-]:not([class*=' ']) > span:has-text(ल),addition,,2021-06-28T01:10,25
,google.*##div[class^=H6hyle-ruler-]:not([class*=' ']) > span:has-text(মাইল),addition,,2021-06-28T01:10,26
,google.*##div[class^=H6hyle-ruler-]:not([class*=' ']) > span:has-text(માઇલ),addition,,2021-06-28T01:10,27
,google.*##div[class^=H6hyle-ruler-]:not([class*=' ']) > span:has-text(மைல்),addition,,2021-06-28T01:10,28
,google.*##div[class^=H6hyle-ruler-]:not([class*=' ']) > span:has-text(మైళ్లు),addition,,2021-06-28T01:10,29
,google.*##div[class^=H6hyle-ruler-]:not([class*=' ']) > span:has-text(ಮೈ),addition,,2021-06-28T01:10,30
,google.*##div[class^=H6hyle-ruler-]:not([class*=' ']) > span:has-text(മൈൽ),addition,,2021-06-28T01:10,31
,google.*##div[class^=H6hyle-ruler-]:not([class*=' ']) > span:has-text(සැ),addition,,2021-06-28T01:10,32
,google.*##div[class^=H6hyle-ruler-]:not([class*=' ']) > span:has-text(ไมล์),addition,,2021-06-28T01:10,33
,google.*##div[class^=H6hyle-ruler-]:not([class*=' ']) > span:has-text(ໄມ),addition,,2021-06-28T01:10,34
,google.*##div[class^=H6hyle-ruler-]:not([class*=' ']) > span:has-text(မိုင်),addition,,2021-06-28T01:10,35
,google.*##div[class^=H6hyle-ruler-]:not([class*=' ']) > span:has-text(მლ),addition,,2021-06-28T01:10,36
,google.*##div[class^=H6hyle-ruler-]:not([class*=' ']) > span:has-text(ማይል),addition,,2021-06-28T01:10,37
,google.*##div[class^=H6hyle-ruler-]:not([class*=' ']) > span:has-text(マイル),addition,,2021-06-28T01:10,38
,google.*##div[class^=H6hyle-ruler-]:not([class*=' ']) > span:has-text(마일),addition,,2021-06-28T01:10,39
,google.*##div[class^=H6hyle-ruler-]:not([class*=' ']) > span:has-text(μίλια),addition,,2021-06-28T01:10,40
,google.*##div[class^=H6hyle-ruler-]:not([class*=' ']) > span:has-text(մղ),addition,,2021-06-28T01:10,41
,google.*##div[class^=H6hyle-ruler-]:not([class*=' ']) > span:has-text(bộ),addition,,2021-06-28T01:10,42
,google.*##div[class^=H6hyle-ruler-]:not([class*=' ']) > span:has-text(/f[eio]?t/),addition,,2021-06-28T01:10,43
,google.*##div[class^=H6hyle-ruler-]:not([class*=' ']) > span:has-text(fod),addition,,2021-06-28T01:10,44
,google.*##div[class^=H6hyle-ruler-]:not([class*=' ']) > span:has-text(jalga),addition,,2021-06-28T01:10,45
,google.*##div[class^=H6hyle-ruler-]:not([class*=' ']) > span:has-text(kaki),addition,,2021-06-28T01:10,46
,google.*##div[class^=H6hyle-ruler-]:not([class*=' ']) > span:has-text(kb),addition,,2021-06-28T01:10,47
,google.*##div[class^=H6hyle-ruler-]:not([class*=' ']) > span:has-text(láb),addition,,2021-06-28T01:10,48
,google.*##div[class^=H6hyle-ruler-]:not([class*=' ']) > span:has-text(/pi?[eéėē][sd]/),addition,,2021-06-28T01:10,49
,google.*##div[class^=H6hyle-ruler-]:not([class*=' ']) > span:has-text(stóp),addition,,2021-06-28T01:10,50
,google.*##div[class^=H6hyle-ruler-]:not([class*=' ']) > span:has-text(vt.),addition,,2021-06-28T01:10,51
,google.*##div[class^=H6hyle-ruler-]:not([class*=' ']) > span:has-text( ka),addition,,2021-06-28T01:10,52
,google.*##div[class^=H6hyle-ruler-]:not([class*=' ']) > span:has-text( st),addition,,2021-06-28T01:10,53
,google.*##div[class^=H6hyle-ruler-]:not([class*=' ']) > span:has-text(πόδια),addition,,2021-06-28T01:10,54
,google.*##div[class^=H6hyle-ruler-]:not([class*=' ']) > span:has-text(ст),addition,,2021-06-28T01:10,55
,google.*##div[class^=H6hyle-ruler-]:not([class*=' ']) > span:has-text(/фу?т/),addition,,2021-06-28T01:10,56
,google.*##div[class^=H6hyle-ruler-]:not([class*=' ']) > span:has-text(ֆտ),addition,,2021-06-28T01:10,57
,google.*##div[class^=H6hyle-ruler-]:not([class*=' ']) > span:has-text(רגל),addition,,2021-06-28T01:10,58
,google.*##div[class^=H6hyle-ruler-]:not([class*=' ']) > span:has-text(/[फ़ुफुफूਫੁੱ]ट/),addition,,2021-06-28T01:10,59
,google.*##div[class^=H6hyle-ruler-]:not([class*=' ']) > span:has-text(ফুট),addition,,2021-06-28T01:10,60
,google.*##div[class^=H6hyle-ruler-]:not([class*=' ']) > span:has-text(ફિટ),addition,,2021-06-28T01:10,61
,google.*##div[class^=H6hyle-ruler-]:not([class*=' ']) > span:has-text(அடி),addition,,2021-06-28T01:10,62
,google.*##div[class^=H6hyle-ruler-]:not([class*=' ']) > span:has-text(అడు),addition,,2021-06-28T01:10,63
,google.*##div[class^=H6hyle-ruler-]:not([class*=' ']) > span:has-text(ಅಡಿ),addition,,2021-06-28T01:10,64
,google.*##div[class^=H6hyle-ruler-]:not([class*=' ']) > span:has-text(അടി),addition,,2021-06-28T01:10,65
,google.*##div[class^=H6hyle-ruler-]:not([class*=' ']) > span:has-text(අඩි),addition,,2021-06-28T01:10,66
,google.*##div[class^=H6hyle-ruler-]:not([class*=' ']) > span:has-text(ฟุต),addition,,2021-06-28T01:10,67
,google.*##div[class^=H6hyle-ruler-]:not([class*=' ']) > span:has-text(ຟ),addition,,2021-06-28T01:10,68
,google.*##div[class^=H6hyle-ruler-]:not([class*=' ']) > span:has-text(ပေ),addition,,2021-06-28T01:10,69
,google.*##div[class^=H6hyle-ruler-]:not([class*=' ']) > span:has-text(ფუტი),addition,,2021-06-28T01:10,70
,google.*##div[class^=H6hyle-ruler-]:not([class*=' ']) > span:has-text(ጫማ),addition,,2021-06-28T01:10,71
,google.*##div[class^=H6hyle-ruler-]:not([class*=' ']) > span:has-text(フィート),addition,,2021-06-28T01:10,72
,google.*##div[class^=H6hyle-ruler-]:not([class*=' ']) > span:has-text(英),addition,,2021-06-28T01:10,73
,google.*##div[class^=H6hyle-ruler-]:not([class*=' ']) > span:has-text(피트),addition,,2021-06-28T01:10,74
,google.*##div[class^=H6hyle-ruler-]:not([class*=' ']) > span:has-text(ل ‏),addition,,2021-06-28T01:10,75
,google.*##div[class^=H6hyle-ruler-]:not([class*=' ']) > span:has-text(فوت),addition,,2021-06-28T01:10,76
,google.*##div[class^=H6hyle-ruler-]:not([class*=' ']) > span:has-text(فٹ),addition,,2021-06-28T01:10,77
,google.*##div[class^=H6hyle-ruler-]:not([class*=' ']) > span:has-text(قدم),addition,,2021-06-28T01:10,78
,google.*##.widget-ruler-primary-label > span:has-text(mi),deletion,,2021-06-28T01:10,79
,google.*##.widget-ruler-primary-label > span:has-text(мил),deletion,,2021-06-28T01:10,80
,google.*##.widget-ruler-primary-label > span:has-text(dặm),deletion,,2021-06-28T01:10,81
,google.*##.widget-ruler-primary-label > span:has-text(jūdze),deletion,,2021-06-28T01:10,82
,google.*##.widget-ruler-primary-label > span:has-text(myl),deletion,,2021-06-28T01:10,83
,google.*##.widget-ruler-primary-label > span:has-text(מייל),deletion,,2021-06-28T01:10,84
,google.*##.widget-ruler-primary-label > span:has-text(ميل),deletion,,2021-06-28T01:10,85
,google.*##.widget-ruler-primary-label > span:has-text(मिल),deletion,,2021-06-28T01:10,86
,google.*##.widget-ruler-primary-label > span:has-text(मील),deletion,,2021-06-28T01:10,87
,google.*##.widget-ruler-primary-label > span:has-text(मैल),deletion,,2021-06-28T01:10,88
,google.*##.widget-ruler-primary-label > span:has-text(মাইল),deletion,,2021-06-28T01:10,89
,google.*##.widget-ruler-primary-label > span:has-text(માઇલ),deletion,,2021-06-28T01:10,90
,google.*##.widget-ruler-primary-label > span:has-text(மைல்),deletion,,2021-06-28T01:10,91
,google.*##.widget-ruler-primary-label > span:has-text(మైళ్లు),deletion,,2021-06-28T01:10,92
,google.*##.widget-ruler-primary-label > span:has-text(ಮೈ),deletion,,2021-06-28T01:10,93
,google.*##.widget-ruler-primary-label > span:has-text(മൈൽ),deletion,,2021-06-28T01:10,94
,google.*##.widget-ruler-primary-label > span:has-text(සැ),deletion,,2021-06-28T01:10,95
,google.*##.widget-ruler-primary-label > span:has-text(ไมล์),deletion,,2021-06-28T01:10,96
,google.*##.widget-ruler-primary-label > span:has-text(ໄມ),deletion,,2021-06-28T01:10,97
,google.*##.widget-ruler-primary-label > span:has-text(မိုင်),deletion,,2021-06-28T01:10,98
,google.*##.widget-ruler-primary-label > span:has-text(მლ),deletion,,2021-06-28T01:10,99
,google.*##.widget-ruler-primary-label > span:has-text(ማይል),deletion,,2021-06-28T01:10,100
,google.*##.widget-ruler-primary-label > span:has-text(マイル),deletion,,2021-06-28T01:10,101
,google.*##.widget-ruler-primary-label > span:has-text(英里),deletion,,2021-06-28T01:10,102
,google.*##.widget-ruler-primary-label > span:has-text(마일),deletion,,2021-06-28T01:10,103
,google.*##.widget-ruler-primary-label > span:has-text(μίλια),deletion,,2021-06-28T01:10,104
,google.*##.widget-ruler-primary-label > span:has-text(مایل),deletion,,2021-06-28T01:10,105
,google.*##.widget-ruler-primary-label > span:has-text(մղ),deletion,,2021-06-28T01:10,106
,google.*##.widget-ruler-primary-label > span:has-text(bộ),deletion,,2021-06-28T01:10,107
,google.*##.widget-ruler-primary-label > span:has-text(/f[eio]?t/),deletion,,2021-06-28T01:10,108
,google.*##.widget-ruler-primary-label > span:has-text(fod),deletion,,2021-06-28T01:10,109
,google.*##.widget-ruler-primary-label > span:has-text(jalga),deletion,,2021-06-28T01:10,110
,google.*##.widget-ruler-primary-label > span:has-text(kaki),deletion,,2021-06-28T01:10,111
,google.*##.widget-ruler-primary-label > span:has-text(kb),deletion,,2021-06-28T01:10,112
,google.*##.widget-ruler-primary-label > span:has-text(láb),deletion,,2021-06-28T01:10,113
,google.*##.widget-ruler-primary-label > span:has-text(pies),deletion,,2021-06-28T01:10,114
,google.*##.widget-ruler-primary-label > span:has-text(pés),deletion,,2021-06-28T01:10,115
,google.*##.widget-ruler-primary-label > span:has-text(/p[ėē]?d/),deletion,,2021-06-28T01:10,116
,google.*##.widget-ruler-primary-label > span:has-text(stóp),deletion,,2021-06-28T01:10,117
,google.*##.widget-ruler-primary-label > span:has-text(vt.),deletion,,2021-06-28T01:10,118
,google.*##.widget-ruler-primary-label > span:has-text( ka),deletion,,2021-06-28T01:10,119
,google.*##.widget-ruler-primary-label > span:has-text( st),deletion,,2021-06-28T01:10,120
,google.*##.widget-ruler-primary-label > span:has-text(πόδια),deletion,,2021-06-28T01:10,121
,google.*##.widget-ruler-primary-label > span:has-text(ст),deletion,,2021-06-28T01:10,122
,google.*##.widget-ruler-primary-label > span:has-text(/фу?т/),deletion,,2021-06-28T01:10,123
,google.*##.widget-ruler-primary-label > span:has-text(ֆտ),deletion,,2021-06-28T01:10,124
,google.*##.widget-ruler-primary-label > span:has-text(רגל),deletion,,2021-06-28T01:10,125
,google.*##.widget-ruler-primary-label > span:has-text(فوت),deletion,,2021-06-28T01:10,126
,google.*##.widget-ruler-primary-label > span:has-text(فٹ),deletion,,2021-06-28T01:10,127
,google.*##.widget-ruler-primary-label > span:has-text(قدم),deletion,,2021-06-28T01:10,128
,google.*##.widget-ruler-primary-label > span:has-text(/[फ़ुफुफूਫੁੱ]ट/),deletion,,2021-06-28T01:10,129
,google.*##.widget-ruler-primary-label > span:has-text(ফুট),deletion,,2021-06-28T01:10,130
,google.*##.widget-ruler-primary-label > span:has-text(ફિટ),deletion,,2021-06-28T01:10,131
,google.*##.widget-ruler-primary-label > span:has-text(அடி),deletion,,2021-06-28T01:10,132
,google.*##.widget-ruler-primary-label > span:has-text(అడు),deletion,,2021-06-28T01:10,133
,google.*##.widget-ruler-primary-label > span:has-text(ಅಡಿ),deletion,,2021-06-28T01:10,134
,google.*##.widget-ruler-primary-label > span:has-text(അടി),deletion,,2021-06-28T01:10,135
,google.*##.widget-ruler-primary-label > span:has-text(අඩි),deletion,,2021-06-28T01:10,136
,google.*##.widget-ruler-primary-label > span:has-text(ฟุต),deletion,,2021-06-28T01:10,137
,google.*##.widget-ruler-primary-label > span:has-text(ຟ),deletion,,2021-06-28T01:10,138
,google.*##.widget-ruler-primary-label > span:has-text(ပေ),deletion,,2021-06-28T01:10,139
,google.*##.widget-ruler-primary-label > span:has-text(ფუტი),deletion,,2021-06-28T01:10,140
,google.*##.widget-ruler-primary-label > span:has-text(ጫማ),deletion,,2021-06-28T01:10,141
,google.*##.widget-ruler-primary-label > span:has-text(フィート),deletion,,2021-06-28T01:10,142
,google.*##.widget-ruler-primary-label > span:has-text(英尺),deletion,,2021-06-28T01:10,143
,google.*##.widget-ruler-primary-label > span:has-text(피트),deletion,,2021-06-28T01:10,144
,google.*##html[lang$=US] #ruler span:first-of-type,addition,,2021-11-18T05:11,145
,google.*##html[lang=en] #ruler span:first-of-type,addition,,2021-11-18T05:11,146
,"google.*##html:not([lang$=US], [lang=en]) #ruler span:nth-of-type(2)",addition,,2021-11-18T05:11,147
,google.*##div[class^=H6hyle-ruler-]:not([class*=' ']) > span:has-text(mi),deletion,,2021-11-18T05:11,148
,google.*##div[class^=H6hyle-ruler-]:not([class*=' ']) > span:has-text(мил),deletion,,2021-11-18T05:11,149
,google.*##div[class^=H6hyle-ruler-]:not([class*=' ']) > span:has-text(dặm),deletion,,2021-11-18T05:11,150
,google.*##div[class^=H6hyle-ruler-]:not([class*=' ']) > span:has-text(jūdze),deletion,,2021-11-18T05:11,151
,google.*##div[class^=H6hyle-ruler-]:not([class*=' ']) > span:has-text(myl),deletion,,2021-11-18T05:11,152
,google.*##div[class^=H6hyle-ruler-]:not([class*=' ']) > span:has-text(מייל),deletion,,2021-11-18T05:11,153
,google.*##div[class^=H6hyle-ruler-]:not([class*=' ']) > span:has-text(ल),deletion,,2021-11-18T05:11,154
,google.*##div[class^=H6hyle-ruler-]:not([class*=' ']) > span:has-text(মাইল),deletion,,2021-11-18T05:11,155
,google.*##div[class^=H6hyle-ruler-]:not([class*=' ']) > span:has-text(માઇલ),deletion,,2021-11-18T05:11,156
,google.*##div[class^=H6hyle-ruler-]:not([class*=' ']) > span:has-text(மைல்),deletion,,2021-11-18T05:11,157
,google.*##div[class^=H6hyle-ruler-]:not([class*=' ']) > span:has-text(మైళ్లు),deletion,,2021-11-18T05:11,158
,google.*##div[class^=H6hyle-ruler-]:not([class*=' ']) > span:has-text(ಮೈ),deletion,,2021-11-18T05:11,159
,google.*##div[class^=H6hyle-ruler-]:not([class*=' ']) > span:has-text(മൈൽ),deletion,,2021-11-18T05:11,160
,google.*##div[class^=H6hyle-ruler-]:not([class*=' ']) > span:has-text(සැ),deletion,,2021-11-18T05:11,161
,google.*##div[class^=H6hyle-ruler-]:not([class*=' ']) > span:has-text(ไมล์),deletion,,2021-11-18T05:11,162
,google.*##div[class^=H6hyle-ruler-]:not([class*=' ']) > span:has-text(ໄມ),deletion,,2021-11-18T05:11,163
,google.*##div[class^=H6hyle-ruler-]:not([class*=' ']) > span:has-text(မိုင်),deletion,,2021-11-18T05:11,164
,google.*##div[class^=H6hyle-ruler-]:not([class*=' ']) > span:has-text(მლ),deletion,,2021-11-18T05:11,165
,google.*##div[class^=H6hyle-ruler-]:not([class*=' ']) > span:has-text(ማይል),deletion,,2021-11-18T05:11,166
,google.*##div[class^=H6hyle-ruler-]:not([class*=' ']) > span:has-text(マイル),deletion,,2021-11-18T05:11,167
,google.*##div[class^=H6hyle-ruler-]:not([class*=' ']) > span:has-text(마일),deletion,,2021-11-18T05:11,168
,google.*##div[class^=H6hyle-ruler-]:not([class*=' ']) > span:has-text(μίλια),deletion,,2021-11-18T05:11,169
,google.*##div[class^=H6hyle-ruler-]:not([class*=' ']) > span:has-text(մղ),deletion,,2021-11-18T05:11,170
,google.*##div[class^=H6hyle-ruler-]:not([class*=' ']) > span:has-text(bộ),deletion,,2021-11-18T05:11,171
,google.*##div[class^=H6hyle-ruler-]:not([class*=' ']) > span:has-text(/f[eio]?t/),deletion,,2021-11-18T05:11,172
,google.*##div[class^=H6hyle-ruler-]:not([class*=' ']) > span:has-text(fod),deletion,,2021-11-18T05:11,173
,google.*##div[class^=H6hyle-ruler-]:not([class*=' ']) > span:has-text(jalga),deletion,,2021-11-18T05:11,174
,google.*##div[class^=H6hyle-ruler-]:not([class*=' ']) > span:has-text(kaki),deletion,,2021-11-18T05:11,175
,google.*##div[class^=H6hyle-ruler-]:not([class*=' ']) > span:has-text(kb),deletion,,2021-11-18T05:11,176
,google.*##div[class^=H6hyle-ruler-]:not([class*=' ']) > span:has-text(láb),deletion,,2021-11-18T05:11,177
,google.*##div[class^=H6hyle-ruler-]:not([class*=' ']) > span:has-text(/pi?[eéėē][sd]/),deletion,,2021-11-18T05:11,178
,google.*##div[class^=H6hyle-ruler-]:not([class*=' ']) > span:has-text(stóp),deletion,,2021-11-18T05:11,179
,google.*##div[class^=H6hyle-ruler-]:not([class*=' ']) > span:has-text(vt.),deletion,,2021-11-18T05:11,180
,google.*##div[class^=H6hyle-ruler-]:not([class*=' ']) > span:has-text( ka),deletion,,2021-11-18T05:11,181
,google.*##div[class^=H6hyle-ruler-]:not([class*=' ']) > span:has-text( st),deletion,,2021-11-18T05:11,182
,google.*##div[class^=H6hyle-ruler-]:not([class*=' ']) > span:has-text(πόδια),deletion,,2021-11-18T05:11,183
,google.*##div[class^=H6hyle-ruler-]:not([class*=' ']) > span:has-text(ст),deletion,,2021-11-18T05:11,184
,google.*##div[class^=H6hyle-ruler-]:not([class*=' ']) > span:has-text(/фу?т/),deletion,,2021-11-18T05:11,185
,google.*##div[class^=H6hyle-ruler-]:not([class*=' ']) > span:has-text(ֆտ),deletion,,2021-11-18T05:11,186
,google.*##div[class^=H6hyle-ruler-]:not([class*=' ']) > span:has-text(רגל),deletion,,2021-11-18T05:11,187
,google.*##div[class^=H6hyle-ruler-]:not([class*=' ']) > span:has-text(/[फ़ुफुफूਫੁੱ]ट/),deletion,,2021-11-18T05:11,188
,google.*##div[class^=H6hyle-ruler-]:not([class*=' ']) > span:has-text(ফুট),deletion,,2021-11-18T05:11,189
,google.*##div[class^=H6hyle-ruler-]:not([class*=' ']) > span:has-text(ફિટ),deletion,,2021-11-18T05:11,190
,google.*##div[class^=H6hyle-ruler-]:not([class*=' ']) > span:has-text(அடி),deletion,,2021-11-18T05:11,191
,google.*##div[class^=H6hyle-ruler-]:not([class*=' ']) > span:has-text(అడు),deletion,,2021-11-18T05:11,192
,google.*##div[class^=H6hyle-ruler-]:not([class*=' ']) > span:has-text(ಅಡಿ),deletion,,2021-11-18T05:11,193
,google.*##div[class^=H6hyle-ruler-]:not([class*=' ']) > span:has-text(അടി),deletion,,2021-11-18T05:11,194
,google.*##div[class^=H6hyle-ruler-]:not([class*=' ']) > span:has-text(අඩි),deletion,,2021-11-18T05:11,195
,google.*##div[class^=H6hyle-ruler-]:not([class*=' ']) > span:has-text(ฟุต),deletion,,2021-11-18T05:11,196
,google.*##div[class^=H6hyle-ruler-]:not([class*=' ']) > span:has-text(ຟ),deletion,,2021-11-18T05:11,197
,google.*##div[class^=H6hyle-ruler-]:not([class*=' ']) > span:has-text(ပေ),deletion,,2021-11-18T05:11,198
,google.*##div[class^=H6hyle-ruler-]:not([class*=' ']) > span:has-text(ფუტი),deletion,,2021-11-18T05:11,199
,google.*##div[class^=H6hyle-ruler-]:not([class*=' ']) > span:has-text(ጫማ),deletion,,2021-11-18T05:11,200
,google.*##div[class^=H6hyle-ruler-]:not([class*=' ']) > span:has-text(フィート),deletion,,2021-11-18T05:11,201
,google.*##div[class^=H6hyle-ruler-]:not([class*=' ']) > span:has-text(英),deletion,,2021-11-18T05:11,202
,google.*##div[class^=H6hyle-ruler-]:not([class*=' ']) > span:has-text(피트),deletion,,2021-11-18T05:11,203
,google.*##div[class^=H6hyle-ruler-]:not([class*=' ']) > span:has-text(ل ‏),deletion,,2021-11-18T05:11,204
,google.*##div[class^=H6hyle-ruler-]:not([class*=' ']) > span:has-text(فوت),deletion,,2021-11-18T05:11,205
,google.*##div[class^=H6hyle-ruler-]:not([class*=' ']) > span:has-text(فٹ),deletion,,2021-11-18T05:11,206
,google.*##div[class^=H6hyle-ruler-]:not([class*=' ']) > span:has-text(قدم),deletion,,2021-11-18T05:11,207
,"bbc.com,s5rhoqqosmcispfb.onion##.wi-toggle-fahrenheit",deletion,,2021-11-18T05:11,208
,"bbc.com,s5rhoqqosmcispfb.onion##.fahrenheit",deletion,,2021-11-18T05:11,209
