test,entry,type,lists,name,id
,qiita.com##.wb-CampaignLink,addition,,2021-01-24T16:32,0
,hosyusokuhou.jp##article.entrybox:has( > .entryheader > a:has-text(/^【PR】/) ),deletion,,2020-11-28T01:12,1
,qiita.com##^.p-home_aside > div[style='margin-bottom: 16px;']:has( > a > img ),addition,,2020-11-25T15:55,2
,qiita.com##div[id^='HomeSidebarAdvertisement-react-component'],addition,,2020-11-25T15:55,3
,qiita.com##^div[id^='HomeSidebarAdvertisement-react-component'],addition,,2020-11-25T15:55,4
,blog.livedoor.jp##a[href^='http://www.dmm.com/'],deletion,,2020-11-25T15:55,5
,blog.livedoor.jp##a[href^='https://www.dmm.com/'],deletion,,2020-11-25T15:55,6
,blog.livedoor.jp##a[href^='http://www.amazon.co.jp/'],deletion,,2020-11-25T15:55,7
,blog.livedoor.jp##a[href^='https://www.amazon.co.jp/'],deletion,,2020-11-25T15:55,8
,@@||j-a-net.jp^$domain=i2i.jp,addition,,2020-11-15T10:54,9
,@@||ad.jp.ap.valuecommerce.com^$domain=i2i.jp,addition,,2020-11-15T10:54,10
,@@||a8.net^$domain=i2i.jp,addition,,2020-11-15T10:54,11
<img src='https://i2i.jp/' style='visibility: hidden' />,||i2i.jp^,deletion,"2020-10-09T08:32,2020-10-30T07:51,2020-11-01T00:24,2020-11-13T17:58,2020-11-14T17:16",2020-11-15T08:24,12
<img src='https://adc.shinobi.jp/' style='visibility: hidden' />,||adc.shinobi.jp^,deletion,"2020-10-09T08:32,2020-10-30T07:51,2020-11-01T00:24,2020-11-13T17:58",2020-11-14T17:16,13
<img src='https://vis1.shinobi.jp/' style='visibility: hidden' />,||vis1.shinobi.jp^,deletion,"2020-10-09T08:32,2020-10-30T07:51,2020-11-01T00:24,2020-11-13T17:58",2020-11-14T17:16,14
,qiita.com##.p-home_aside > div[style='margin-bottom: 16px;']:has( > a > img ),addition,,2020-11-13T17:58,15
,qiita.com##.ac-CampaignLink,addition,,2020-11-13T17:58,16
,||accesstrade.net^$domain=yaraon-blog.com,addition,,2020-11-01T00:24,17
<img src='https://cdn.qiita.com/assets/public/qiita_jobs_qiita_ni_kiita/banner-300x250-' style='visibility: hidden' />,||cdn.qiita.com/assets/public/qiita_jobs_qiita_ni_kiita/banner-300x250-,addition,"2020-11-01T00:24,2020-11-13T17:58,2020-11-14T17:16,2020-11-15T08:24,2020-11-15T10:54,2020-11-25T15:55,2020-11-28T01:12,2021-01-24T16:32,2021-02-22T23:58,2021-06-08T12:43,2021-10-15T08:04,current",2020-11-01T00:24,18
<img src='https://accesstrade.net/' style='visibility: hidden' />,||accesstrade.net^,deletion,"2020-10-09T08:32,2020-10-30T07:51",2020-11-01T00:24,19
<img src='https://d2p8taqyjofgrq.cloudfront.net/' style='visibility: hidden' />,||d2p8taqyjofgrq.cloudfront.net^,deletion,"2020-10-09T08:32,2020-10-30T07:51,2020-11-01T00:24,2020-11-13T17:58,2020-11-14T17:16,2020-11-15T08:24,2020-11-15T10:54,2020-11-25T15:55,2020-11-28T01:12,2021-01-24T16:32",2021-02-22T23:58,20
,hosyusokuhou.jp##article.entrybox > section > a:has-text(/^【PR】/):upward(2),addition,,2020-10-30T07:51,21
,qiita.com##.p-home_aside > a[href^='https://jobs.qiita.com/'],addition,,2020-10-30T07:51,22
<img src='https://iclickcdn.com/' style='visibility: hidden' />,||iclickcdn.com^,addition,"2020-10-09T08:32,2020-10-30T07:51,2020-11-01T00:24,2020-11-13T17:58,2020-11-14T17:16,2020-11-15T08:24,2020-11-15T10:54,2020-11-25T15:55,2020-11-28T01:12,2021-01-24T16:32,2021-02-22T23:58,2021-06-08T12:43,2021-10-15T08:04,current",2020-10-09T08:32,23
