,list,path,output
0,2020-10-20T23:27,data_analysis/Slovenian_List/2020-10-20T23:27,output/Slovenian_List/2020-10-20T23:27
1,2020-12-07T19:25,data_analysis/Slovenian_List/2020-12-07T19:25,output/Slovenian_List/2020-12-07T19:25
2,2020-12-27T20:31,data_analysis/Slovenian_List/2020-12-27T20:31,output/Slovenian_List/2020-12-27T20:31
3,2021-01-01T10:34,data_analysis/Slovenian_List/2021-01-01T10:34,output/Slovenian_List/2021-01-01T10:34
4,2021-01-30T18:53,data_analysis/Slovenian_List/2021-01-30T18:53,output/Slovenian_List/2021-01-30T18:53
5,2021-02-03T23:36,data_analysis/Slovenian_List/2021-02-03T23:36,output/Slovenian_List/2021-02-03T23:36
6,2021-02-06T21:32,data_analysis/Slovenian_List/2021-02-06T21:32,output/Slovenian_List/2021-02-06T21:32
7,2021-02-06T22:13,data_analysis/Slovenian_List/2021-02-06T22:13,output/Slovenian_List/2021-02-06T22:13
8,2021-02-09T14:56,data_analysis/Slovenian_List/2021-02-09T14:56,output/Slovenian_List/2021-02-09T14:56
9,2021-02-13T19:59,data_analysis/Slovenian_List/2021-02-13T19:59,output/Slovenian_List/2021-02-13T19:59
10,2021-02-13T20:41,data_analysis/Slovenian_List/2021-02-13T20:41,output/Slovenian_List/2021-02-13T20:41
11,2021-03-03T17:24,data_analysis/Slovenian_List/2021-03-03T17:24,output/Slovenian_List/2021-03-03T17:24
12,2021-03-17T19:30,data_analysis/Slovenian_List/2021-03-17T19:30,output/Slovenian_List/2021-03-17T19:30
13,2021-04-05T00:24,data_analysis/Slovenian_List/2021-04-05T00:24,output/Slovenian_List/2021-04-05T00:24
14,2021-04-05T01:50,data_analysis/Slovenian_List/2021-04-05T01:50,output/Slovenian_List/2021-04-05T01:50
15,2021-04-17T21:43,data_analysis/Slovenian_List/2021-04-17T21:43,output/Slovenian_List/2021-04-17T21:43
16,2021-05-11T01:07,data_analysis/Slovenian_List/2021-05-11T01:07,output/Slovenian_List/2021-05-11T01:07
17,2021-05-16T19:08,data_analysis/Slovenian_List/2021-05-16T19:08,output/Slovenian_List/2021-05-16T19:08
18,2021-06-08T12:58,data_analysis/Slovenian_List/2021-06-08T12:58,output/Slovenian_List/2021-06-08T12:58
19,2021-08-01T15:12,data_analysis/Slovenian_List/2021-08-01T15:12,output/Slovenian_List/2021-08-01T15:12
20,2021-08-01T16:12,data_analysis/Slovenian_List/2021-08-01T16:12,output/Slovenian_List/2021-08-01T16:12
21,2021-10-30T23:21,data_analysis/Slovenian_List/2021-10-30T23:21,output/Slovenian_List/2021-10-30T23:21
22,2021-11-27T17:47,data_analysis/Slovenian_List/2021-11-27T17:47,output/Slovenian_List/2021-11-27T17:47
23,2022-01-07T19:07,data_analysis/Slovenian_List/2022-01-07T19:07,output/Slovenian_List/2022-01-07T19:07
24,current,data_analysis/Slovenian_List/current,output/Slovenian_List/current
