,list,path,output
0,current,data_analysis/RU_AdList:_Counters/current,output/RU_AdList:_Counters/current
1,2022-02-12T03:03,data_analysis/RU_AdList:_Counters/2022-02-12T03:03,output/RU_AdList:_Counters/2022-02-12T03:03
2,2022-02-12T13:09,data_analysis/RU_AdList:_Counters/2022-02-12T13:09,output/RU_AdList:_Counters/2022-02-12T13:09
3,2022-02-16T20:01,data_analysis/RU_AdList:_Counters/2022-02-16T20:01,output/RU_AdList:_Counters/2022-02-16T20:01
4,2022-02-16T23:33,data_analysis/RU_AdList:_Counters/2022-02-16T23:33,output/RU_AdList:_Counters/2022-02-16T23:33
5,2022-02-17T15:34,data_analysis/RU_AdList:_Counters/2022-02-17T15:34,output/RU_AdList:_Counters/2022-02-17T15:34
6,2022-02-18T16:20,data_analysis/RU_AdList:_Counters/2022-02-18T16:20,output/RU_AdList:_Counters/2022-02-18T16:20
7,2022-02-19T13:38,data_analysis/RU_AdList:_Counters/2022-02-19T13:38,output/RU_AdList:_Counters/2022-02-19T13:38
8,2022-02-24T23:23,data_analysis/RU_AdList:_Counters/2022-02-24T23:23,output/RU_AdList:_Counters/2022-02-24T23:23
9,2022-02-25T11:46,data_analysis/RU_AdList:_Counters/2022-02-25T11:46,output/RU_AdList:_Counters/2022-02-25T11:46
10,2022-02-25T13:26,data_analysis/RU_AdList:_Counters/2022-02-25T13:26,output/RU_AdList:_Counters/2022-02-25T13:26
11,2022-02-25T19:55,data_analysis/RU_AdList:_Counters/2022-02-25T19:55,output/RU_AdList:_Counters/2022-02-25T19:55
12,2022-02-26T14:42,data_analysis/RU_AdList:_Counters/2022-02-26T14:42,output/RU_AdList:_Counters/2022-02-26T14:42
13,2022-02-26T18:48,data_analysis/RU_AdList:_Counters/2022-02-26T18:48,output/RU_AdList:_Counters/2022-02-26T18:48
14,2022-03-02T18:50,data_analysis/RU_AdList:_Counters/2022-03-02T18:50,output/RU_AdList:_Counters/2022-03-02T18:50
15,2022-03-04T18:55,data_analysis/RU_AdList:_Counters/2022-03-04T18:55,output/RU_AdList:_Counters/2022-03-04T18:55
16,2022-03-06T16:20,data_analysis/RU_AdList:_Counters/2022-03-06T16:20,output/RU_AdList:_Counters/2022-03-06T16:20
17,2022-03-06T19:09,data_analysis/RU_AdList:_Counters/2022-03-06T19:09,output/RU_AdList:_Counters/2022-03-06T19:09
18,2022-03-07T15:05,data_analysis/RU_AdList:_Counters/2022-03-07T15:05,output/RU_AdList:_Counters/2022-03-07T15:05
19,2022-03-09T14:02,data_analysis/RU_AdList:_Counters/2022-03-09T14:02,output/RU_AdList:_Counters/2022-03-09T14:02
20,2022-03-10T16:13,data_analysis/RU_AdList:_Counters/2022-03-10T16:13,output/RU_AdList:_Counters/2022-03-10T16:13
21,2022-03-10T17:10,data_analysis/RU_AdList:_Counters/2022-03-10T17:10,output/RU_AdList:_Counters/2022-03-10T17:10
22,2022-03-11T10:07,data_analysis/RU_AdList:_Counters/2022-03-11T10:07,output/RU_AdList:_Counters/2022-03-11T10:07
23,2022-03-13T18:54,data_analysis/RU_AdList:_Counters/2022-03-13T18:54,output/RU_AdList:_Counters/2022-03-13T18:54
24,2022-03-13T19:22,data_analysis/RU_AdList:_Counters/2022-03-13T19:22,output/RU_AdList:_Counters/2022-03-13T19:22
