,list,path,output
0,2021-06-08T12:58,data_analysis/Privacy_Filters/2021-06-08T12:58,output/Privacy_Filters/2021-06-08T12:58
1,2021-10-15T08:04,data_analysis/Privacy_Filters/2021-10-15T08:04,output/Privacy_Filters/2021-10-15T08:04
2,current,data_analysis/Privacy_Filters/current,output/Privacy_Filters/current
