test,entry,type,lists,name,id
<img src='https://harjuelu.ee/wp-content/banners/' style='visibility: hidden' />,||harjuelu.ee/wp-content/banners/,addition,current,current,0
,delfi.ee##.md-banner-placement,addition,,2021-03-13T12:25,1
,postimees.ee##.group-topic-with-custom-header--elu24,addition,,2021-02-20T08:47,2
,postimees.ee##div:has(>div>div>div>article.list-article--commercial),addition,,2021-02-20T08:47,3
<div class='flex--align-items-center' .flex--justify-content-center.flex.section-branding__digipakett-contents></div>,##.flex--align-items-center.flex--justify-content-center.flex.section-branding__digipakett-contents,deletion,,2021-02-20T08:33,4
,kanal2.postimees.ee#@#.afs_ads,deletion,,2021-02-20T08:33,5
,kanal2.postimees.ee#@#.pub_300x250,deletion,,2021-02-20T08:33,6
,kanal2.postimees.ee#@#.pub_300x250m,deletion,,2021-02-20T08:33,7
,kanal2.postimees.ee#@#.pub_728x90,deletion,,2021-02-20T08:33,8
,kanal2.postimees.ee#@#.text-ad,deletion,,2021-02-20T08:33,9
,kanal2.postimees.ee#@#.text-ad-links,deletion,,2021-02-20T08:33,10
,kanal2.postimees.ee#@#.text-ads,deletion,,2021-02-20T08:33,11
,kanal2.postimees.ee#@#.textAd,deletion,,2021-02-20T08:33,12
,kanal2.postimees.ee#@#.text_ad,deletion,,2021-02-20T08:33,13
,kanal2.postimees.ee#@#.text_ads,deletion,,2021-02-20T08:33,14
,postimees.ee##.allepal-barter,deletion,,2021-02-20T08:33,15
,postimees.ee##.article__clearfix,deletion,,2021-02-20T08:33,16
,postimees.ee##.fbLikeBoxOverlay,deletion,,2021-02-20T08:33,17
,postimees.ee##.fbOverlay,deletion,,2021-02-20T08:33,18
,postimees.ee##.group-topic-with-custom-header--tootmine_disain,deletion,,2021-02-20T08:33,19
,delfi.ee###cookie_ribbon,addition,,2021-02-20T08:19,20
,kanal2.postimees.ee##.cookieConsent,addition,,2021-02-20T08:19,21
,delfi.ee##.aside,deletion,,2021-02-20T08:19,22
,delfi.ee##DIV[class$='fb_wall_bg'],deletion,,2021-02-20T08:19,23
,delfi.ee##DIV[id$='_728'],deletion,,2021-02-20T08:19,24
,delfi.ee##div[id^='ab-notify-bar'],deletion,,2021-02-20T08:19,25
,delfi.ee##div[id^='kaup24-fade'],deletion,,2021-02-20T08:19,26
,delfi.ee##iframe[name^='rb_kaup24'],deletion,,2021-02-20T08:19,27
,delfi.ee#$#.article__body>p{margin-left:unset !important},deletion,,2021-02-20T08:19,28
,delfi.ee#$#.article__chunk{margin-left:unset !important},deletion,,2021-02-20T08:19,29
,"delfi.ee, postimees.ee##+js(aeld, copy)",addition,,2021-02-20T08:05,30
<img src='https://ado.delfi.ee' style='visibility: hidden' />,ado.delfi.ee,deletion,"2021-01-05T08:52,2021-01-10T12:18,2021-01-26T17:19,2021-01-27T15:19,2021-01-29T10:51,2021-02-20T07:37,2021-02-20T07:51",2021-02-20T08:05,31
,delfi.ee###ab-notify-ribbon,deletion,,2021-02-20T08:05,32
,delfi.ee###ab-top-bar,deletion,,2021-02-20T08:05,33
,delfi.ee###city24,deletion,,2021-02-20T08:05,34
,delfi.ee###city24_precom,deletion,,2021-02-20T08:05,35
,delfi.ee###cv-online-ad,deletion,,2021-02-20T08:05,36
,delfi.ee###delfi-countdown,deletion,,2021-02-20T08:05,37
,delfi.ee###delfiTopBar,deletion,,2021-02-20T08:05,38
,delfi.ee###dh_middle,deletion,,2021-02-20T08:05,39
,delfi.ee###local_offers,deletion,,2021-02-20T08:05,40
,delfi.ee###pre_footer > div,deletion,,2021-02-20T08:05,41
,delfi.ee###rlmm_banner,deletion,,2021-02-20T08:05,42
,delfi.ee###tb-tv3_delfi,deletion,,2021-02-20T08:05,43
,delfi.ee###tb-zave,deletion,,2021-02-20T08:05,44
,"delfi.ee##+js(aeld.js, copy)",deletion,,2021-02-20T08:05,45
,delfi.ee##.articleCustomEnd > .c-cinema,deletion,,2021-02-20T08:05,46
,delfi.ee##.articleRelated,deletion,,2021-02-20T08:05,47
,delfi.ee##.city24m-banner-container,deletion,,2021-02-20T08:05,48
,delfi.ee##.cxense-news,deletion,,2021-02-20T08:05,49
,delfi.ee##.dbrs-ab,deletion,,2021-02-20T08:05,50
,delfi.ee##.header-top-ribbon.info-ribbon,deletion,,2021-02-20T08:05,51
,delfi.ee##.md-banner-container,deletion,,2021-02-20T08:05,52
,delfi.ee##.notice-sticky>.content:contains(Ajakirjandus sõltub väga palju tellijatest!),deletion,,2021-02-20T08:05,53
,delfi.ee##.notice-sticky>.content:contains(Ajakirjandus sõltub väga palju tellijatest!)::after,deletion,,2021-02-20T08:05,54
,delfi.ee##.zave_r,deletion,,2021-02-20T08:05,55
,"postimees.ee##+js(aeld.js, copy)",deletion,,2021-02-20T08:05,56
,postimees.ee##.digipakett-branding-root-container:style(display: none),addition,,2021-02-20T07:51,57
,postimees.ee##.digipakett-branding-visible .site-header:style(top: 0px !important),addition,,2021-02-20T07:51,58
,delfi.ee##DIV.djoke,deletion,,2021-02-20T07:51,59
,delfi.ee##DIV.eshops,deletion,,2021-02-20T07:51,60
,delfi.ee##DIV.HdBnr,deletion,,2021-02-20T07:51,61
,delfi.ee##DIV.s-ribbon,deletion,,2021-02-20T07:51,62
,delfi.ee##DIV.tgames,deletion,,2021-02-20T07:51,63
,postimees.ee##.digipakett-branding-root-container,deletion,,2021-02-20T07:51,64
,postimees.ee##.adblock-notif,addition,,2021-02-20T07:37,65
,postimees.ee##.cookie-container,addition,,2021-02-20T07:37,66
,"*##html,body:style(overflow:auto !important)",addition,,2021-08-13T07:35,67
,"*##html,body:style(overflow:visible !important)",addition,,2021-08-13T07:35,68
,"@@||mssl.fwmrm.net/libs/adm/*$script,domain=play.tv3.ee",addition,,2021-05-16T14:49,69
,"@@||play.tv3.ee/static/scripts/ima3.js$script,domain=play.tv3.ee",addition,,2021-05-16T14:49,70
,"@@||play.tv3.ee/static/scripts/trackdb/events.gif$image,domain=play.tv3.ee",addition,,2021-05-16T14:49,71
,"@@||static.go3.tv/file/go3/resources/scripts/tv3play/onetrust/lv/onetrust.html$xhr,domain=play.tv3.ee",addition,,2021-05-16T14:49,72
,"*##html,body:style(overflow:visible !important)",deletion,,2021-08-13T07:49,73
,"postimees.ee##html,body:style(overflow:auto !important)",addition,,2021-08-14T02:10,74
,"*##html,body:style(overflow:auto !important)",deletion,,2021-08-14T02:10,75
,delfi.ee##.C-ad-block-layer,addition,,2021-01-29T10:51,76
,delfi.ee##body:style(overflow:visible !important),addition,,2021-01-29T10:51,77
<img src='https://g.nh.ee/m/portal-root/60.aa.js' style='visibility: hidden' />,g.nh.ee/m/portal-root/60.*.js,deletion,2021-01-27T15:19,2021-01-29T10:51,78
<img src='https://g.nh.ee/m/portal-root/60.aa.js' style='visibility: hidden' />,g.nh.ee/m/portal-root/60.*.js,addition,2021-01-27T15:19,2021-01-27T15:19,79
,postimees.ee##.group-topic-with-custom-header--tootmine_disain,addition,,2021-01-26T17:19,80
,postimees.ee##.site-header:style(top: 0 !important),addition,,2021-01-10T12:18,81
,postimees.ee##.structured-content__group:has(.commercial-articles),addition,,2021-01-10T12:18,82
,postimees.ee##.structured-content__group:contains(Teleseriaal «PANK»),deletion,,2021-01-10T12:18,83
,postimees.ee##.structured-content__group:has(.pank-promo-iframe),deletion,,2021-01-10T12:18,84
,postimees.ee##.digipakett-branding-root-container,addition,,2021-01-05T08:52,85
,biker.ee##.viewtopicads.panel,addition,,2021-10-05T14:57,86
,lounaeestlane.ee##.header-banners,addition,,2021-12-28T00:31,87
,lounaeestlane.ee##.widget_sp_image-image-link,addition,,2021-12-28T00:31,88
,annaabi.ee###freefilePopup_background,addition,,2022-02-10T17:50,89
,annaabi.ee###freefilePopup_wrapper,addition,,2022-02-10T17:50,90
,annaabi.ee##.noticeBoxAbs,addition,,2022-02-10T17:50,91
,postimees.ee##.structured-content__group:contains(Sisuturundus),deletion,,2022-02-10T17:50,92
,postimees.ee##.structured-content__group:has(.commercial-articles),deletion,,2022-02-10T17:50,93
,"aripaev.ee,delfi.ee,postimees.ee##+js(aeld, copy)",addition,,2022-03-02T14:16,94
,"delfi.ee, postimees.ee##+js(aeld, copy)",deletion,,2022-03-02T14:16,95
,postimees.ee##.ad-block-notification-overlay,addition,,2022-03-07T08:56,96
