,list,path,output
0,2020-10-31T14:30,data_analysis/Distractions_and_Clickbait_Filter/2020-10-31T14:30,output/Distractions_and_Clickbait_Filter/2020-10-31T14:30
1,2021-01-23T13:14,data_analysis/Distractions_and_Clickbait_Filter/2021-01-23T13:14,output/Distractions_and_Clickbait_Filter/2021-01-23T13:14
2,2021-02-12T01:05,data_analysis/Distractions_and_Clickbait_Filter/2021-02-12T01:05,output/Distractions_and_Clickbait_Filter/2021-02-12T01:05
3,2021-06-08T12:41,data_analysis/Distractions_and_Clickbait_Filter/2021-06-08T12:41,output/Distractions_and_Clickbait_Filter/2021-06-08T12:41
4,current,data_analysis/Distractions_and_Clickbait_Filter/current,output/Distractions_and_Clickbait_Filter/current
