,list,path,output
0,2021-05-02T00:44,data_analysis/M5S_uBlock_Filter/2021-05-02T00:44,output/M5S_uBlock_Filter/2021-05-02T00:44
1,2021-06-08T12:58,data_analysis/M5S_uBlock_Filter/2021-06-08T12:58,output/M5S_uBlock_Filter/2021-06-08T12:58
2,2021-10-15T08:04,data_analysis/M5S_uBlock_Filter/2021-10-15T08:04,output/M5S_uBlock_Filter/2021-10-15T08:04
3,current,data_analysis/M5S_uBlock_Filter/current,output/M5S_uBlock_Filter/current
