,list,path,output
0,current,data_analysis/Anti-'Abuse_porn'_List/current,output/Anti-'Abuse_porn'_List/current
1,2021-11-10T18:43,data_analysis/Anti-'Abuse_porn'_List/2021-11-10T18:43,output/Anti-'Abuse_porn'_List/2021-11-10T18:43
2,2021-11-23T03:02,data_analysis/Anti-'Abuse_porn'_List/2021-11-23T03:02,output/Anti-'Abuse_porn'_List/2021-11-23T03:02
3,2021-11-29T08:26,data_analysis/Anti-'Abuse_porn'_List/2021-11-29T08:26,output/Anti-'Abuse_porn'_List/2021-11-29T08:26
4,2021-11-30T06:46,data_analysis/Anti-'Abuse_porn'_List/2021-11-30T06:46,output/Anti-'Abuse_porn'_List/2021-11-30T06:46
5,2021-12-08T21:15,data_analysis/Anti-'Abuse_porn'_List/2021-12-08T21:15,output/Anti-'Abuse_porn'_List/2021-12-08T21:15
6,2021-12-15T09:20,data_analysis/Anti-'Abuse_porn'_List/2021-12-15T09:20,output/Anti-'Abuse_porn'_List/2021-12-15T09:20
7,2021-12-15T12:40,data_analysis/Anti-'Abuse_porn'_List/2021-12-15T12:40,output/Anti-'Abuse_porn'_List/2021-12-15T12:40
8,2021-12-15T12:54,data_analysis/Anti-'Abuse_porn'_List/2021-12-15T12:54,output/Anti-'Abuse_porn'_List/2021-12-15T12:54
9,2021-12-23T14:35,data_analysis/Anti-'Abuse_porn'_List/2021-12-23T14:35,output/Anti-'Abuse_porn'_List/2021-12-23T14:35
10,2021-12-24T15:11,data_analysis/Anti-'Abuse_porn'_List/2021-12-24T15:11,output/Anti-'Abuse_porn'_List/2021-12-24T15:11
11,2021-12-27T13:30,data_analysis/Anti-'Abuse_porn'_List/2021-12-27T13:30,output/Anti-'Abuse_porn'_List/2021-12-27T13:30
12,2022-01-15T02:41,data_analysis/Anti-'Abuse_porn'_List/2022-01-15T02:41,output/Anti-'Abuse_porn'_List/2022-01-15T02:41
13,2022-01-16T13:55,data_analysis/Anti-'Abuse_porn'_List/2022-01-16T13:55,output/Anti-'Abuse_porn'_List/2022-01-16T13:55
14,2022-01-16T14:09,data_analysis/Anti-'Abuse_porn'_List/2022-01-16T14:09,output/Anti-'Abuse_porn'_List/2022-01-16T14:09
15,2022-01-26T08:27,data_analysis/Anti-'Abuse_porn'_List/2022-01-26T08:27,output/Anti-'Abuse_porn'_List/2022-01-26T08:27
16,2022-02-09T12:42,data_analysis/Anti-'Abuse_porn'_List/2022-02-09T12:42,output/Anti-'Abuse_porn'_List/2022-02-09T12:42
17,2022-02-18T20:19,data_analysis/Anti-'Abuse_porn'_List/2022-02-18T20:19,output/Anti-'Abuse_porn'_List/2022-02-18T20:19
18,2022-02-21T02:03,data_analysis/Anti-'Abuse_porn'_List/2022-02-21T02:03,output/Anti-'Abuse_porn'_List/2022-02-21T02:03
19,2022-02-25T15:33,data_analysis/Anti-'Abuse_porn'_List/2022-02-25T15:33,output/Anti-'Abuse_porn'_List/2022-02-25T15:33
20,2022-03-02T19:01,data_analysis/Anti-'Abuse_porn'_List/2022-03-02T19:01,output/Anti-'Abuse_porn'_List/2022-03-02T19:01
21,2022-03-03T02:59,data_analysis/Anti-'Abuse_porn'_List/2022-03-03T02:59,output/Anti-'Abuse_porn'_List/2022-03-03T02:59
22,2022-03-05T17:16,data_analysis/Anti-'Abuse_porn'_List/2022-03-05T17:16,output/Anti-'Abuse_porn'_List/2022-03-05T17:16
23,2022-03-09T06:29,data_analysis/Anti-'Abuse_porn'_List/2022-03-09T06:29,output/Anti-'Abuse_porn'_List/2022-03-09T06:29
24,2022-03-09T21:37,data_analysis/Anti-'Abuse_porn'_List/2022-03-09T21:37,output/Anti-'Abuse_porn'_List/2022-03-09T21:37
