,list,path,output
0,2020-11-02T10:35,data_analysis/NT_Adblock_List/2020-11-02T10:35,output/NT_Adblock_List/2020-11-02T10:35
1,2020-12-14T02:53,data_analysis/NT_Adblock_List/2020-12-14T02:53,output/NT_Adblock_List/2020-12-14T02:53
2,2021-04-13T01:04,data_analysis/NT_Adblock_List/2021-04-13T01:04,output/NT_Adblock_List/2021-04-13T01:04
3,2021-05-16T00:41,data_analysis/NT_Adblock_List/2021-05-16T00:41,output/NT_Adblock_List/2021-05-16T00:41
4,2021-07-13T16:46,data_analysis/NT_Adblock_List/2021-07-13T16:46,output/NT_Adblock_List/2021-07-13T16:46
5,current,data_analysis/NT_Adblock_List/current,output/NT_Adblock_List/current
