,list,path,output
0,current,data_analysis/Anifiltrs_—_Main/current,output/Anifiltrs_—_Main/current
1,2022-02-01T12:57,data_analysis/Anifiltrs_—_Main/2022-02-01T12:57,output/Anifiltrs_—_Main/2022-02-01T12:57
2,2022-02-05T14:54,data_analysis/Anifiltrs_—_Main/2022-02-05T14:54,output/Anifiltrs_—_Main/2022-02-05T14:54
3,2022-02-06T12:43,data_analysis/Anifiltrs_—_Main/2022-02-06T12:43,output/Anifiltrs_—_Main/2022-02-06T12:43
4,2022-02-08T16:51,data_analysis/Anifiltrs_—_Main/2022-02-08T16:51,output/Anifiltrs_—_Main/2022-02-08T16:51
5,2022-02-10T06:27,data_analysis/Anifiltrs_—_Main/2022-02-10T06:27,output/Anifiltrs_—_Main/2022-02-10T06:27
6,2022-02-12T07:13,data_analysis/Anifiltrs_—_Main/2022-02-12T07:13,output/Anifiltrs_—_Main/2022-02-12T07:13
7,2022-02-13T13:06,data_analysis/Anifiltrs_—_Main/2022-02-13T13:06,output/Anifiltrs_—_Main/2022-02-13T13:06
8,2022-02-21T13:48,data_analysis/Anifiltrs_—_Main/2022-02-21T13:48,output/Anifiltrs_—_Main/2022-02-21T13:48
9,2022-02-23T08:57,data_analysis/Anifiltrs_—_Main/2022-02-23T08:57,output/Anifiltrs_—_Main/2022-02-23T08:57
10,2022-03-03T11:40,data_analysis/Anifiltrs_—_Main/2022-03-03T11:40,output/Anifiltrs_—_Main/2022-03-03T11:40
11,2022-03-03T12:10,data_analysis/Anifiltrs_—_Main/2022-03-03T12:10,output/Anifiltrs_—_Main/2022-03-03T12:10
12,2022-03-03T13:26,data_analysis/Anifiltrs_—_Main/2022-03-03T13:26,output/Anifiltrs_—_Main/2022-03-03T13:26
13,2022-03-04T11:10,data_analysis/Anifiltrs_—_Main/2022-03-04T11:10,output/Anifiltrs_—_Main/2022-03-04T11:10
14,2022-03-04T11:25,data_analysis/Anifiltrs_—_Main/2022-03-04T11:25,output/Anifiltrs_—_Main/2022-03-04T11:25
15,2022-03-04T11:39,data_analysis/Anifiltrs_—_Main/2022-03-04T11:39,output/Anifiltrs_—_Main/2022-03-04T11:39
16,2022-03-05T10:09,data_analysis/Anifiltrs_—_Main/2022-03-05T10:09,output/Anifiltrs_—_Main/2022-03-05T10:09
17,2022-03-05T10:23,data_analysis/Anifiltrs_—_Main/2022-03-05T10:23,output/Anifiltrs_—_Main/2022-03-05T10:23
18,2022-03-05T17:02,data_analysis/Anifiltrs_—_Main/2022-03-05T17:02,output/Anifiltrs_—_Main/2022-03-05T17:02
19,2022-03-06T06:12,data_analysis/Anifiltrs_—_Main/2022-03-06T06:12,output/Anifiltrs_—_Main/2022-03-06T06:12
20,2022-03-09T10:43,data_analysis/Anifiltrs_—_Main/2022-03-09T10:43,output/Anifiltrs_—_Main/2022-03-09T10:43
21,2022-03-12T05:43,data_analysis/Anifiltrs_—_Main/2022-03-12T05:43,output/Anifiltrs_—_Main/2022-03-12T05:43
22,2022-03-12T06:11,data_analysis/Anifiltrs_—_Main/2022-03-12T06:11,output/Anifiltrs_—_Main/2022-03-12T06:11
23,2022-03-17T11:27,data_analysis/Anifiltrs_—_Main/2022-03-17T11:27,output/Anifiltrs_—_Main/2022-03-17T11:27
24,2022-03-17T13:20,data_analysis/Anifiltrs_—_Main/2022-03-17T13:20,output/Anifiltrs_—_Main/2022-03-17T13:20
