test,entry,type,lists,name,id
,"bryla.pl,czterykaty.pl,gazeta.biz,gazeta.pl,gazetapraca.pl,moto.pl,sport.pl,tokfm.pl,ugotuj.to,wyborcza.biz,wyborcza.pl,wysokieobcasy.pl##+js(ra, href, .external_link, stay)",addition,,current,0
,"bryla.pl,czterykaty.pl,gazeta.biz,gazeta.pl,gazetapraca.pl,moto.pl,sport.pl,tokfm.pl,ugotuj.to,wyborcza.biz,wyborcza.pl,wysokieobcasy.pl##.external_link:style(background: none !important;)",addition,,current,1
,"bryla.pl,czterykaty.pl,gazeta.biz,gazeta.pl,gazetapraca.pl,moto.pl,sport.pl,tokfm.pl,ugotuj.to,wyborcza.biz,wyborcza.pl,wysokieobcasy.pl##.external_link[href]:style(pointer-events: none !important; position: unset !important;)",addition,,current,2
,"gazeta.biz,gazeta.pl,gazetapraca.pl,moto.pl,sport.pl,tokfm.pl,ugotuj.to,wyborcza.biz,wyborcza.pl,wysokieobcasy.pl##+js(ra, href, .external_link, stay)",deletion,,current,3
,"gazeta.biz,gazeta.pl,gazetapraca.pl,moto.pl,sport.pl,tokfm.pl,ugotuj.to,wyborcza.biz,wyborcza.pl,wysokieobcasy.pl##.external_link:style(background: none !important;)",deletion,,current,4
,"gazeta.biz,gazeta.pl,gazetapraca.pl,moto.pl,sport.pl,tokfm.pl,ugotuj.to,wyborcza.biz,wyborcza.pl,wysokieobcasy.pl##.external_link[href]:style(pointer-events: none !important; position: unset !important;)",deletion,,current,5
,"dziennikzachodni.pl##+js(ra, href, componentsArticleContent a[href*='&utm_campaign=artykul'])",addition,,2020-11-26T11:15,6
,dziennikzachodni.pl##.componentsArticleContent a[href*='&utm_campaign=artykul']:style(pointer-events: none !important; color: initial !important;),addition,,2020-11-26T11:15,7
,"polishannoyancefilters.netlify.app,polishannoyancefilters.netlify.com###pafadguard",addition,,2020-09-28T16:05,8
,"polishannoyancefilters.netlify.app,polishannoyancefilters.netlify.com##+js(set, pafDetect, true)",addition,,2020-09-28T16:05,9
,"dziennikzachodni.pl##+js(ra, href, componentsArticleContent a[href*='&utm_campaign=artykul'], stay)",addition,,2021-04-11T16:19,10
,"gazeta.pl,gazetapraca.pl,moto.pl,sport.pl,tokfm.pl,ugotuj.to,wyborcza.biz,wyborcza.pl,wysokieobcasy.pl##+js(ra, href, .external_link, stay)",addition,,2021-04-11T16:19,11
,"gazeta.pl,gazetapraca.pl,moto.pl,sport.pl,tokfm.pl,ugotuj.to,wyborcza.biz,wyborcza.pl,wysokieobcasy.pl##.external_link:style(background: none !important;)",addition,,2021-04-11T16:19,12
,"gazeta.pl,gazetapraca.pl,moto.pl,sport.pl,tokfm.pl,ugotuj.to,wyborcza.biz,wyborcza.pl,wysokieobcasy.pl##.external_link[href]:style(pointer-events: none !important; position: unset !important;)",addition,,2021-04-11T16:19,13
,"dziennikzachodni.pl##+js(ra, href, componentsArticleContent a[href*='&utm_campaign=artykul'])",deletion,,2021-04-11T16:19,14
,"gazeta.biz,gazeta.pl,gazetapraca.pl,moto.pl,sport.pl,tokfm.pl,wyborcza.biz,wyborcza.pl,wysokieobcasy.pl##+js(ra, href, .external_link)",deletion,,2021-04-11T16:19,15
,"gazeta.biz,gazeta.pl,gazetapraca.pl,moto.pl,sport.pl,tokfm.pl,wyborcza.biz,wyborcza.pl,wysokieobcasy.pl##.external_link:style(background: none !important;)",deletion,,2021-04-11T16:19,16
,"gazeta.biz,gazeta.pl,gazetapraca.pl,moto.pl,sport.pl,tokfm.pl,wyborcza.biz,wyborcza.pl,wysokieobcasy.pl##.external_link[href]:style(pointer-events: none !important; position: unset !important;)",deletion,,2021-04-11T16:19,17
,"gazeta.biz,gazeta.pl,gazetapraca.pl,moto.pl,sport.pl,tokfm.pl,ugotuj.to,wyborcza.biz,wyborcza.pl,wysokieobcasy.pl##+js(ra, href, .external_link, stay)",addition,,2021-05-03T20:19,18
,"gazeta.biz,gazeta.pl,gazetapraca.pl,moto.pl,sport.pl,tokfm.pl,ugotuj.to,wyborcza.biz,wyborcza.pl,wysokieobcasy.pl##.external_link:style(background: none !important;)",addition,,2021-05-03T20:19,19
,"gazeta.biz,gazeta.pl,gazetapraca.pl,moto.pl,sport.pl,tokfm.pl,ugotuj.to,wyborcza.biz,wyborcza.pl,wysokieobcasy.pl##.external_link[href]:style(pointer-events: none !important; position: unset !important;)",addition,,2021-05-03T20:19,20
,"gazeta.pl,gazetapraca.pl,moto.pl,sport.pl,tokfm.pl,ugotuj.to,wyborcza.biz,wyborcza.pl,wysokieobcasy.pl##+js(ra, href, .external_link, stay)",deletion,,2021-05-03T20:19,21
,"gazeta.pl,gazetapraca.pl,moto.pl,sport.pl,tokfm.pl,ugotuj.to,wyborcza.biz,wyborcza.pl,wysokieobcasy.pl##.external_link:style(background: none !important;)",deletion,,2021-05-03T20:19,22
,"gazeta.pl,gazetapraca.pl,moto.pl,sport.pl,tokfm.pl,ugotuj.to,wyborcza.biz,wyborcza.pl,wysokieobcasy.pl##.external_link[href]:style(pointer-events: none !important; position: unset !important;)",deletion,,2021-05-03T20:19,23
,autokult.pl##a[data-ga360-sa='article-intext'][href*='autokult.pl']:style(pointer-events: none !important; box-shadow: none !important;),addition,,2021-12-07T11:15,24
,fotoblogia.pl##a[data-ga360-sa='article-intext'][href*='fotoblogia.pl']:style(pointer-events: none !important; box-shadow: none !important;),addition,,2021-12-07T11:15,25
,komorkomania.pl##a[data-ga360-sa='article-intext'][href*='komorkomania.pl']:style(pointer-events: none !important; box-shadow: none !important;),addition,,2021-12-07T11:15,26
