,list,path,output
0,2020-09-28T16:05,data_analysis/Polish_Annoyance_Filters_-_Tagged_Internal_Links/2020-09-28T16:05,output/Polish_Annoyance_Filters_-_Tagged_Internal_Links/2020-09-28T16:05
1,2020-11-26T11:15,data_analysis/Polish_Annoyance_Filters_-_Tagged_Internal_Links/2020-11-26T11:15,output/Polish_Annoyance_Filters_-_Tagged_Internal_Links/2020-11-26T11:15
2,2021-04-11T16:19,data_analysis/Polish_Annoyance_Filters_-_Tagged_Internal_Links/2021-04-11T16:19,output/Polish_Annoyance_Filters_-_Tagged_Internal_Links/2021-04-11T16:19
3,2021-05-03T20:19,data_analysis/Polish_Annoyance_Filters_-_Tagged_Internal_Links/2021-05-03T20:19,output/Polish_Annoyance_Filters_-_Tagged_Internal_Links/2021-05-03T20:19
4,2021-06-08T12:29,data_analysis/Polish_Annoyance_Filters_-_Tagged_Internal_Links/2021-06-08T12:29,output/Polish_Annoyance_Filters_-_Tagged_Internal_Links/2021-06-08T12:29
5,2021-06-08T12:58,data_analysis/Polish_Annoyance_Filters_-_Tagged_Internal_Links/2021-06-08T12:58,output/Polish_Annoyance_Filters_-_Tagged_Internal_Links/2021-06-08T12:58
6,2021-10-15T08:04,data_analysis/Polish_Annoyance_Filters_-_Tagged_Internal_Links/2021-10-15T08:04,output/Polish_Annoyance_Filters_-_Tagged_Internal_Links/2021-10-15T08:04
7,2021-12-07T11:15,data_analysis/Polish_Annoyance_Filters_-_Tagged_Internal_Links/2021-12-07T11:15,output/Polish_Annoyance_Filters_-_Tagged_Internal_Links/2021-12-07T11:15
8,2022-01-12T03:36,data_analysis/Polish_Annoyance_Filters_-_Tagged_Internal_Links/2022-01-12T03:36,output/Polish_Annoyance_Filters_-_Tagged_Internal_Links/2022-01-12T03:36
9,current,data_analysis/Polish_Annoyance_Filters_-_Tagged_Internal_Links/current,output/Polish_Annoyance_Filters_-_Tagged_Internal_Links/current
