test,entry,type,lists,name,id
,www.twitch.tv#?#.tw-textarea.tw-textarea--no-resize:style(padding: 1px 35px !important; height: 55px !important),addition,,2021-04-01T06:24,0
,www.twitch.tv#?#.tw-textarea.tw-textarea--no-resize:style(padding: 1px 3px !important; height: 55px !important),deletion,,2021-04-01T06:24,1
,www.twitch.tv#?#.side-nav-section:-abp-has(path[d='M12.002 3.999a2 2 0 012 2v2L18 6v8l-3.998-2v2a2 2 0 01-2 1.999h-8a2 2 0 01-2-2V6a2 2 0 012-2h8zM12 6H4v8h8V6z']),addition,,2020-12-24T09:27,2
,twitch.tv#?#.message > span:-abp-contains(/^ $/),addition,,2020-12-24T09:27,3
,clips.twitch.tv#?#span.text-fragment:not(:-abp-contains(/\S/)),addition,,2020-12-24T09:27,4
,www.twitch.tv##.side-nav-section:-abp-has(path[d='M12.002 3.999a2 2 0 012 2v2L18 6v8l-3.998-2v2a2 2 0 01-2 1.999h-8a2 2 0 01-2-2V6a2 2 0 012-2h8zM12 6H4v8h8V6z']),deletion,,2020-12-24T09:27,5
,twitch.tv##.message > span:-abp-contains(/^ $/),deletion,,2020-12-24T09:27,6
,clips.twitch.tv##span.text-fragment:not(:-abp-contains(/\S/)),deletion,,2020-12-24T09:27,7
,twitch.tv#?#.channel-panels-container div[style^=position]:-abp-has(a[href^='/ext/ro13roxp88918kulntih9uzm7vs9jr']),addition,,2020-11-09T15:54,8
<img src='https://[Adblock Plus 3.6]' style='visibility: hidden' />,[Adblock Plus 3.6],addition,,2021-04-02T22:47,9
<img src='https://[Adblock Plus 3.4]' style='visibility: hidden' />,[Adblock Plus 3.4],deletion,,2021-04-02T22:47,10
,www.twitch.tv##.community-highlight-stack__backlog-card,addition,,2021-05-02T14:35,11
