test,entry,type,lists,name,id
<img src='https://recomendacao.globo.com' style='visibility: hidden' />,||recomendacao.globo.com,addition,"2021-04-08T21:21,2021-04-08T21:36,2021-05-19T05:38,2021-05-24T04:45,2021-06-07T01:26,2021-06-08T12:41,2021-09-04T05:41,current",2021-04-08T21:21,0
<img src='https://globo-ab.globo.com' style='visibility: hidden' />,||globo-ab.globo.com,addition,"2021-04-08T21:21,2021-04-08T21:36,2021-05-19T05:38,2021-05-24T04:45,2021-06-07T01:26,2021-06-08T12:41,2021-09-04T05:41,current",2021-04-08T21:21,1
<img src='https://cocoon.globo.com' style='visibility: hidden' />,||cocoon.globo.com,addition,"2021-04-08T21:21,2021-04-08T21:36,2021-05-19T05:38,2021-05-24T04:45,2021-06-07T01:26,2021-06-08T12:41,2021-09-04T05:41,current",2021-04-08T21:21,2
<img src='https://cocoon.qa.globoi.com' style='visibility: hidden' />,||cocoon.qa.globoi.com,addition,"2021-04-08T21:21,2021-04-08T21:36,2021-05-19T05:38,2021-05-24T04:45,2021-06-07T01:26,2021-06-08T12:41,2021-09-04T05:41,current",2021-04-08T21:21,3
<img src='https://sentry.globoi.com' style='visibility: hidden' />,||sentry.globoi.com,addition,"2021-04-08T21:21,2021-04-08T21:36,2021-05-19T05:38,2021-05-24T04:45,2021-06-07T01:26,2021-06-08T12:41,2021-09-04T05:41,current",2021-04-08T21:21,4
<img src='https://analysis.infoglobo.com.br' style='visibility: hidden' />,||analysis.infoglobo.com.br,addition,"2021-04-08T21:21,2021-04-08T21:36,2021-05-19T05:38,2021-05-24T04:45,2021-06-07T01:26,2021-06-08T12:41,2021-09-04T05:41,current",2021-04-08T21:21,5
<img src='https://glbimg.com/aa/profiling.min.js' style='visibility: hidden' />,||glbimg.com^*/profiling.min.js,addition,"2021-04-08T21:21,2021-04-08T21:36,2021-05-19T05:38,2021-05-24T04:45,2021-06-07T01:26,2021-06-08T12:41,2021-09-04T05:41,current",2021-04-08T21:21,6
<img src='https://glbimg.com/aa/4c1064b084af3049b2b15cc8c22692c4.js' style='visibility: hidden' />,||glbimg.com^*/4c1064b084af3049b2b15cc8c22692c4.js,addition,"2021-04-08T21:21,2021-04-08T21:36,2021-05-19T05:38,2021-05-24T04:45,2021-06-07T01:26,2021-06-08T12:41,2021-09-04T05:41,current",2021-04-08T21:21,7
<img src='https://glbimg.com/aa/globo-ab-v2.min.js' style='visibility: hidden' />,||glbimg.com^*/globo-ab-v2.min.js,addition,"2021-04-08T21:21,2021-04-08T21:36,2021-05-19T05:38,2021-05-24T04:45,2021-06-07T01:26,2021-06-08T12:41,2021-09-04T05:41,current",2021-04-08T21:21,8
<img src='https://glbimg.com/aa/globo-ab.min.js' style='visibility: hidden' />,||glbimg.com^*/globo-ab.min.js,addition,"2021-04-08T21:21,2021-04-08T21:36,2021-05-19T05:38,2021-05-24T04:45,2021-06-07T01:26,2021-06-08T12:41,2021-09-04T05:41,current",2021-04-08T21:21,9
<img src='https://glbimg.com/aa/glb-rt.js' style='visibility: hidden' />,||glbimg.com^*/glb-rt.js,addition,"2021-04-08T21:21,2021-04-08T21:36,2021-05-19T05:38,2021-05-24T04:45,2021-06-07T01:26,2021-06-08T12:41,2021-09-04T05:41,current",2021-04-08T21:21,10
<img src='https://ogjs.infoglobo.com.br/aa/aaobserveraa.js' style='visibility: hidden' />,||ogjs.infoglobo.com.br^*/*observer*.js,addition,"2021-04-08T21:21,2021-04-08T21:36,2021-05-19T05:38,2021-05-24T04:45,2021-06-07T01:26,2021-06-08T12:41,2021-09-04T05:41,current",2021-04-08T21:21,11
<img src='https://ogjs.infoglobo.com.br/aa/aaadvertisingaa.js' style='visibility: hidden' />,||ogjs.infoglobo.com.br^*/*advertising*.js,addition,"2021-04-08T21:21,2021-04-08T21:36,2021-05-19T05:38,2021-05-24T04:45,2021-06-07T01:26,2021-06-08T12:41,2021-09-04T05:41,current",2021-04-08T21:21,12
<img src='https://glbimg.com/aa/growth.min.js' style='visibility: hidden' />,||glbimg.com^*/growth.min.js,addition,"2021-04-08T21:21,2021-04-08T21:36,2021-05-19T05:38,2021-05-24T04:45,2021-06-07T01:26,2021-06-08T12:41,2021-09-04T05:41,current",2021-04-08T21:21,13
<img src='https://glbimg.com/aa/lgpd-lib.min.js' style='visibility: hidden' />,||glbimg.com^*/lgpd-lib.min.js,addition,"2021-04-08T21:21,2021-04-08T21:36,2021-05-19T05:38,2021-05-24T04:45,2021-06-07T01:26,2021-06-08T12:41,2021-09-04T05:41,current",2021-04-08T21:21,14
<img src='https://glbimg.com/aa/tv4.min.js' style='visibility: hidden' />,||glbimg.com^*/tv4.min.js,addition,"2021-04-08T21:21,2021-04-08T21:36,2021-05-19T05:38,2021-05-24T04:45,2021-06-07T01:26,2021-06-08T12:41,2021-09-04T05:41,current",2021-04-08T21:21,15
<img src='https://glbimg.com/aa/video-recommendation-plugin.js' style='visibility: hidden' />,||glbimg.com^*/video-recommendation-plugin.js,addition,"2021-04-08T21:21,2021-04-08T21:36,2021-05-19T05:38,2021-05-24T04:45,2021-06-07T01:26,2021-06-08T12:41,2021-09-04T05:41,current",2021-04-08T21:21,16
<img src='https://glbimg.com/aa/youboralibaa.js' style='visibility: hidden' />,||glbimg.com^*/youboralib*.js,addition,"2021-04-08T21:21,2021-04-08T21:36,2021-05-19T05:38,2021-05-24T04:45,2021-06-07T01:26,2021-06-08T12:41,2021-09-04T05:41,current",2021-04-08T21:21,17
<img src='https://glbimg.com/aa/glbaapvaamin.js' style='visibility: hidden' />,||glbimg.com^*/glb*pv*min.js,addition,"2021-04-08T21:21,2021-04-08T21:36,2021-05-19T05:38,2021-05-24T04:45,2021-06-07T01:26,2021-06-08T12:41,2021-09-04T05:41,current",2021-04-08T21:21,18
<img src='https://glbimg.com/aa/comScoreaa.js' style='visibility: hidden' />,||glbimg.com^*/comScore*.js,addition,"2021-04-08T21:21,2021-04-08T21:36,2021-05-19T05:38,2021-05-24T04:45,2021-06-07T01:26,2021-06-08T12:41,2021-09-04T05:41,current",2021-04-08T21:21,19
<img src='https://glbimg.com/aa/settings.min.js' style='visibility: hidden' />,||glbimg.com^*/settings.min.js,addition,"2021-04-08T21:21,2021-04-08T21:36,2021-05-19T05:38,2021-05-24T04:45,2021-06-07T01:26,2021-06-08T12:41,2021-09-04T05:41,current",2021-04-08T21:21,20
<img src='https://revistaquem.globo.com/one-signal/' style='visibility: hidden' />,||revistaquem.globo.com/one-signal/,addition,"2021-04-08T21:21,2021-04-08T21:36,2021-05-19T05:38,2021-05-24T04:45,2021-06-07T01:26,2021-06-08T12:41,2021-09-04T05:41,current",2021-04-08T21:21,21
<img src='https://ogjs.infoglobo.com.br/aa/aaGTMaajs' style='visibility: hidden' />,||ogjs.infoglobo.com.br^*/*GTM*js,addition,"2021-04-08T21:21,2021-04-08T21:36,2021-05-19T05:38,2021-05-24T04:45,2021-06-07T01:26,2021-06-08T12:41,2021-09-04T05:41,current",2021-04-08T21:21,22
<img src='https://ogjs.infoglobo.com.br/aa/gallery.js' style='visibility: hidden' />,||ogjs.infoglobo.com.br^*/gallery.js,addition,"2021-04-08T21:21,2021-04-08T21:36,2021-05-19T05:38,2021-05-24T04:45,2021-06-07T01:26,2021-06-08T12:41,2021-09-04T05:41,current",2021-04-08T21:21,23
<img src='https://s3.glbimg.com/aa/revistaquem.bundleaa.js' style='visibility: hidden' />,||s3.glbimg.com^*/revistaquem.bundle*.js,addition,"2021-04-08T21:21,2021-04-08T21:36,2021-05-19T05:38,2021-05-24T04:45,2021-06-07T01:26,2021-06-08T12:41,2021-09-04T05:41,current",2021-04-08T21:21,24
<img src='https://static.infoglobo.com.br/aa/tiny.js' style='visibility: hidden' />,||static.infoglobo.com.br^*/tiny.js,addition,"2021-04-08T21:21,2021-04-08T21:36,2021-05-19T05:38,2021-05-24T04:45,2021-06-07T01:26,2021-06-08T12:41,2021-09-04T05:41,current",2021-04-08T21:21,25
<img src='https://static.infoglobo.com.br/aa/tools.js' style='visibility: hidden' />,||static.infoglobo.com.br^*/tools.js,addition,"2021-04-08T21:21,2021-04-08T21:36,2021-05-19T05:38,2021-05-24T04:45,2021-06-07T01:26,2021-06-08T12:41,2021-09-04T05:41,current",2021-04-08T21:21,26
<img src='https://ogjs.infoglobo.com.br/aa/infg_id_globoid.js' style='visibility: hidden' />,||ogjs.infoglobo.com.br^*/infg_id_globoid.js,addition,"2021-04-08T21:21,2021-04-08T21:36,2021-05-19T05:38,2021-05-24T04:45,2021-06-07T01:26,2021-06-08T12:41,2021-09-04T05:41,current",2021-04-08T21:21,27
<img src='https://aa.site/' style='visibility: hidden' />,"||*.site^$third-party,domain=~invidious.site",addition,"2020-10-31T14:30,2020-10-31T14:30,2021-01-23T13:14,2021-01-23T13:14,2021-02-12T01:05,2021-02-12T01:05,2021-04-08T21:21,2021-04-08T21:21,2021-04-08T21:36,2021-04-08T21:36,2021-05-19T05:38,2021-05-19T05:38,2021-05-24T04:45,2021-05-24T04:45,2021-06-07T01:26,2021-06-07T01:26,2021-06-08T12:41,2021-06-08T12:41,2021-09-04T05:41,2021-09-04T05:41,current,current",2021-04-08T21:21,28
<img src='https://aa.xyz/' style='visibility: hidden' />,"||*.xyz^$third-party,domain=~invidious.xyz|invidious.048596.xyz",addition,"2020-10-31T14:30,2020-10-31T14:30,2021-01-23T13:14,2021-01-23T13:14,2021-02-12T01:05,2021-02-12T01:05",2021-04-08T21:21,29
<img src='https://ampproject.org/' style='visibility: hidden' />,||ampproject.org^$third-party,addition,"2021-04-08T21:21,2021-04-08T21:36,2021-05-19T05:38,2021-05-24T04:45,2021-06-07T01:26,2021-06-08T12:41,2021-09-04T05:41,current",2021-04-08T21:21,30
<img src='https://aa.site/' style='visibility: hidden' />,||*.site^$third-party,deletion,"2020-10-31T14:30,2020-10-31T14:30,2021-01-23T13:14,2021-01-23T13:14,2021-02-12T01:05,2021-02-12T01:05,2021-04-08T21:21,2021-04-08T21:21,2021-04-08T21:36,2021-04-08T21:36,2021-05-19T05:38,2021-05-19T05:38,2021-05-24T04:45,2021-05-24T04:45,2021-06-07T01:26,2021-06-07T01:26,2021-06-08T12:41,2021-06-08T12:41,2021-09-04T05:41,2021-09-04T05:41,current,current",2021-04-08T21:21,31
<img src='https://aa.xyz/' style='visibility: hidden' />,||*.xyz^$third-party,deletion,"2020-10-31T14:30,2020-10-31T14:30,2021-01-23T13:14,2021-01-23T13:14,2021-02-12T01:05,2021-02-12T01:05",2021-04-08T21:21,32
<img src='https://ampproject.org/' style='visibility: hidden' />,"||ampproject.org^$third-party,domain=~globo.com",addition,"2021-04-08T21:21,2021-04-08T21:21,2021-04-08T21:36,2021-04-08T21:36,2021-05-19T05:38,2021-05-19T05:38,2021-05-24T04:45,2021-05-24T04:45,2021-06-07T01:26,2021-06-07T01:26,2021-06-08T12:41,2021-06-08T12:41,2021-09-04T05:41,2021-09-04T05:41,current,current",2021-06-07T01:26,33
<img src='https://globo-ab.globo.com/' style='visibility: hidden' />,||globo-ab.globo.com^$domain=~globo.com,addition,"2021-04-08T21:21,2021-04-08T21:36,2021-05-19T05:38,2021-05-24T04:45,2021-06-07T01:26,2021-06-08T12:41,2021-09-04T05:41,current",2021-06-07T01:26,34
<img src='https://ampproject.org/' style='visibility: hidden' />,"||ampproject.org^$third-party,domain=~g1.globo.com",deletion,"2021-04-08T21:21,2021-04-08T21:21,2021-04-08T21:36,2021-04-08T21:36,2021-05-19T05:38,2021-05-19T05:38,2021-05-24T04:45,2021-05-24T04:45,2021-06-07T01:26,2021-06-07T01:26,2021-06-08T12:41,2021-06-08T12:41,2021-09-04T05:41,2021-09-04T05:41,current,current",2021-06-07T01:26,35
<img src='https://globo-ab.globo.com' style='visibility: hidden' />,||globo-ab.globo.com,deletion,"2021-04-08T21:21,2021-04-08T21:36,2021-05-19T05:38,2021-05-24T04:45,2021-06-07T01:26,2021-06-08T12:41,2021-09-04T05:41,current",2021-06-07T01:26,36
<img src='https://ampproject.org/' style='visibility: hidden' />,"||ampproject.org^$third-party,domain=~g1.globo.com",addition,"2021-04-08T21:21,2021-04-08T21:21,2021-04-08T21:36,2021-04-08T21:36,2021-05-19T05:38,2021-05-19T05:38,2021-05-24T04:45,2021-05-24T04:45,2021-06-07T01:26,2021-06-07T01:26,2021-06-08T12:41,2021-06-08T12:41,2021-09-04T05:41,2021-09-04T05:41,current,current",2021-05-24T04:45,37
<img src='https://ampproject.org/' style='visibility: hidden' />,||ampproject.org^$third-party,deletion,"2021-04-08T21:21,2021-04-08T21:21,2021-04-08T21:36,2021-04-08T21:36,2021-05-19T05:38,2021-05-19T05:38,2021-05-24T04:45,2021-05-24T04:45,2021-06-07T01:26,2021-06-07T01:26,2021-06-08T12:41,2021-06-08T12:41,2021-09-04T05:41,2021-09-04T05:41,current,current",2021-05-24T04:45,38
,@@||*/pagead/lvz*^$domain=youtube.com,addition,,2021-05-19T05:38,39
,"||*.xyz^$third-party,domain=invidious.048596.xyz|~invidious.xyz",addition,,2021-04-08T21:36,40
,||http2.mlstatic.com/analytics/$domain=mercadolivre.com.br,addition,,2021-04-08T21:36,41
<img src='https://aa.xyz/' style='visibility: hidden' />,"||*.xyz^$third-party,domain=~invidious.xyz|invidious.048596.xyz",deletion,"2020-10-31T14:30,2021-01-23T13:14,2021-02-12T01:05",2021-04-08T21:36,42
,||http2.mlstatic.com/analytics/*$domain=mercadolivre.com.br,deletion,,2021-04-08T21:36,43
,forums.mydigitallife.net#@#[class*='Pub'],addition,,2021-09-04T05:41,44
