,list,path,output
0,2022-03-13T01:30,data_analysis/Fuck_Fuckadblock/2022-03-13T01:30,output/Fuck_Fuckadblock/2022-03-13T01:30
1,2022-03-13T01:44,data_analysis/Fuck_Fuckadblock/2022-03-13T01:44,output/Fuck_Fuckadblock/2022-03-13T01:44
2,2022-03-13T01:58,data_analysis/Fuck_Fuckadblock/2022-03-13T01:58,output/Fuck_Fuckadblock/2022-03-13T01:58
3,2022-03-13T03:37,data_analysis/Fuck_Fuckadblock/2022-03-13T03:37,output/Fuck_Fuckadblock/2022-03-13T03:37
4,2022-03-13T03:52,data_analysis/Fuck_Fuckadblock/2022-03-13T03:52,output/Fuck_Fuckadblock/2022-03-13T03:52
5,2022-03-13T05:46,data_analysis/Fuck_Fuckadblock/2022-03-13T05:46,output/Fuck_Fuckadblock/2022-03-13T05:46
6,2022-03-13T06:14,data_analysis/Fuck_Fuckadblock/2022-03-13T06:14,output/Fuck_Fuckadblock/2022-03-13T06:14
7,2022-03-13T08:50,data_analysis/Fuck_Fuckadblock/2022-03-13T08:50,output/Fuck_Fuckadblock/2022-03-13T08:50
8,2022-03-13T10:02,data_analysis/Fuck_Fuckadblock/2022-03-13T10:02,output/Fuck_Fuckadblock/2022-03-13T10:02
9,2022-03-13T10:59,data_analysis/Fuck_Fuckadblock/2022-03-13T10:59,output/Fuck_Fuckadblock/2022-03-13T10:59
10,2022-03-13T12:55,data_analysis/Fuck_Fuckadblock/2022-03-13T12:55,output/Fuck_Fuckadblock/2022-03-13T12:55
11,2022-03-13T14:06,data_analysis/Fuck_Fuckadblock/2022-03-13T14:06,output/Fuck_Fuckadblock/2022-03-13T14:06
12,2022-03-14T01:39,data_analysis/Fuck_Fuckadblock/2022-03-14T01:39,output/Fuck_Fuckadblock/2022-03-14T01:39
13,2022-03-14T01:54,data_analysis/Fuck_Fuckadblock/2022-03-14T01:54,output/Fuck_Fuckadblock/2022-03-14T01:54
14,2022-03-14T09:27,data_analysis/Fuck_Fuckadblock/2022-03-14T09:27,output/Fuck_Fuckadblock/2022-03-14T09:27
15,2022-03-14T11:06,data_analysis/Fuck_Fuckadblock/2022-03-14T11:06,output/Fuck_Fuckadblock/2022-03-14T11:06
16,2022-03-14T13:27,data_analysis/Fuck_Fuckadblock/2022-03-14T13:27,output/Fuck_Fuckadblock/2022-03-14T13:27
17,2022-03-16T13:09,data_analysis/Fuck_Fuckadblock/2022-03-16T13:09,output/Fuck_Fuckadblock/2022-03-16T13:09
18,2022-03-16T14:19,data_analysis/Fuck_Fuckadblock/2022-03-16T14:19,output/Fuck_Fuckadblock/2022-03-16T14:19
19,2022-03-17T08:28,data_analysis/Fuck_Fuckadblock/2022-03-17T08:28,output/Fuck_Fuckadblock/2022-03-17T08:28
20,2022-03-17T09:09,data_analysis/Fuck_Fuckadblock/2022-03-17T09:09,output/Fuck_Fuckadblock/2022-03-17T09:09
21,2022-03-17T10:47,data_analysis/Fuck_Fuckadblock/2022-03-17T10:47,output/Fuck_Fuckadblock/2022-03-17T10:47
22,2022-03-17T11:15,data_analysis/Fuck_Fuckadblock/2022-03-17T11:15,output/Fuck_Fuckadblock/2022-03-17T11:15
23,2022-03-17T11:57,data_analysis/Fuck_Fuckadblock/2022-03-17T11:57,output/Fuck_Fuckadblock/2022-03-17T11:57
24,current,data_analysis/Fuck_Fuckadblock/current,output/Fuck_Fuckadblock/current
