,list,path,output
0,2021-03-25T16:51,data_analysis/Anti-'Pork_meat_on_restaurant_menus'_List/2021-03-25T16:51,output/Anti-'Pork_meat_on_restaurant_menus'_List/2021-03-25T16:51
1,2021-03-25T17:49,data_analysis/Anti-'Pork_meat_on_restaurant_menus'_List/2021-03-25T17:49,output/Anti-'Pork_meat_on_restaurant_menus'_List/2021-03-25T17:49
2,2021-04-02T22:44,data_analysis/Anti-'Pork_meat_on_restaurant_menus'_List/2021-04-02T22:44,output/Anti-'Pork_meat_on_restaurant_menus'_List/2021-04-02T22:44
3,2021-05-05T01:46,data_analysis/Anti-'Pork_meat_on_restaurant_menus'_List/2021-05-05T01:46,output/Anti-'Pork_meat_on_restaurant_menus'_List/2021-05-05T01:46
4,2021-05-19T13:49,data_analysis/Anti-'Pork_meat_on_restaurant_menus'_List/2021-05-19T13:49,output/Anti-'Pork_meat_on_restaurant_menus'_List/2021-05-19T13:49
5,2021-05-21T23:30,data_analysis/Anti-'Pork_meat_on_restaurant_menus'_List/2021-05-21T23:30,output/Anti-'Pork_meat_on_restaurant_menus'_List/2021-05-21T23:30
6,2021-05-29T10:35,data_analysis/Anti-'Pork_meat_on_restaurant_menus'_List/2021-05-29T10:35,output/Anti-'Pork_meat_on_restaurant_menus'_List/2021-05-29T10:35
7,2021-06-03T22:42,data_analysis/Anti-'Pork_meat_on_restaurant_menus'_List/2021-06-03T22:42,output/Anti-'Pork_meat_on_restaurant_menus'_List/2021-06-03T22:42
8,2021-06-05T03:20,data_analysis/Anti-'Pork_meat_on_restaurant_menus'_List/2021-06-05T03:20,output/Anti-'Pork_meat_on_restaurant_menus'_List/2021-06-05T03:20
9,2021-06-08T12:55,data_analysis/Anti-'Pork_meat_on_restaurant_menus'_List/2021-06-08T12:55,output/Anti-'Pork_meat_on_restaurant_menus'_List/2021-06-08T12:55
10,2021-06-28T01:22,data_analysis/Anti-'Pork_meat_on_restaurant_menus'_List/2021-06-28T01:22,output/Anti-'Pork_meat_on_restaurant_menus'_List/2021-06-28T01:22
11,2021-08-01T13:50,data_analysis/Anti-'Pork_meat_on_restaurant_menus'_List/2021-08-01T13:50,output/Anti-'Pork_meat_on_restaurant_menus'_List/2021-08-01T13:50
12,2021-10-19T14:27,data_analysis/Anti-'Pork_meat_on_restaurant_menus'_List/2021-10-19T14:27,output/Anti-'Pork_meat_on_restaurant_menus'_List/2021-10-19T14:27
13,2021-11-02T10:20,data_analysis/Anti-'Pork_meat_on_restaurant_menus'_List/2021-11-02T10:20,output/Anti-'Pork_meat_on_restaurant_menus'_List/2021-11-02T10:20
14,2021-11-10T09:05,data_analysis/Anti-'Pork_meat_on_restaurant_menus'_List/2021-11-10T09:05,output/Anti-'Pork_meat_on_restaurant_menus'_List/2021-11-10T09:05
15,2021-11-10T11:00,data_analysis/Anti-'Pork_meat_on_restaurant_menus'_List/2021-11-10T11:00,output/Anti-'Pork_meat_on_restaurant_menus'_List/2021-11-10T11:00
16,2021-11-12T14:16,data_analysis/Anti-'Pork_meat_on_restaurant_menus'_List/2021-11-12T14:16,output/Anti-'Pork_meat_on_restaurant_menus'_List/2021-11-12T14:16
17,2021-11-18T03:15,data_analysis/Anti-'Pork_meat_on_restaurant_menus'_List/2021-11-18T03:15,output/Anti-'Pork_meat_on_restaurant_menus'_List/2021-11-18T03:15
18,2021-11-18T03:30,data_analysis/Anti-'Pork_meat_on_restaurant_menus'_List/2021-11-18T03:30,output/Anti-'Pork_meat_on_restaurant_menus'_List/2021-11-18T03:30
19,2021-11-23T00:33,data_analysis/Anti-'Pork_meat_on_restaurant_menus'_List/2021-11-23T00:33,output/Anti-'Pork_meat_on_restaurant_menus'_List/2021-11-23T00:33
20,2021-11-27T22:30,data_analysis/Anti-'Pork_meat_on_restaurant_menus'_List/2021-11-27T22:30,output/Anti-'Pork_meat_on_restaurant_menus'_List/2021-11-27T22:30
21,2021-12-19T15:24,data_analysis/Anti-'Pork_meat_on_restaurant_menus'_List/2021-12-19T15:24,output/Anti-'Pork_meat_on_restaurant_menus'_List/2021-12-19T15:24
22,2022-02-22T01:12,data_analysis/Anti-'Pork_meat_on_restaurant_menus'_List/2022-02-22T01:12,output/Anti-'Pork_meat_on_restaurant_menus'_List/2022-02-22T01:12
23,2022-02-28T23:21,data_analysis/Anti-'Pork_meat_on_restaurant_menus'_List/2022-02-28T23:21,output/Anti-'Pork_meat_on_restaurant_menus'_List/2022-02-28T23:21
24,current,data_analysis/Anti-'Pork_meat_on_restaurant_menus'_List/current,output/Anti-'Pork_meat_on_restaurant_menus'_List/current
