,list,path,output
0,2020-10-15T00:48,data_analysis/YouTube:_Even_More_Pure_Video_Experience/2020-10-15T00:48,output/YouTube:_Even_More_Pure_Video_Experience/2020-10-15T00:48
1,2020-11-09T15:24,data_analysis/YouTube:_Even_More_Pure_Video_Experience/2020-11-09T15:24,output/YouTube:_Even_More_Pure_Video_Experience/2020-11-09T15:24
2,2021-01-13T14:21,data_analysis/YouTube:_Even_More_Pure_Video_Experience/2021-01-13T14:21,output/YouTube:_Even_More_Pure_Video_Experience/2021-01-13T14:21
3,2021-01-18T04:08,data_analysis/YouTube:_Even_More_Pure_Video_Experience/2021-01-18T04:08,output/YouTube:_Even_More_Pure_Video_Experience/2021-01-18T04:08
4,2021-03-12T19:53,data_analysis/YouTube:_Even_More_Pure_Video_Experience/2021-03-12T19:53,output/YouTube:_Even_More_Pure_Video_Experience/2021-03-12T19:53
5,2021-04-02T22:47,data_analysis/YouTube:_Even_More_Pure_Video_Experience/2021-04-02T22:47,output/YouTube:_Even_More_Pure_Video_Experience/2021-04-02T22:47
6,2021-04-04T13:12,data_analysis/YouTube:_Even_More_Pure_Video_Experience/2021-04-04T13:12,output/YouTube:_Even_More_Pure_Video_Experience/2021-04-04T13:12
7,2021-04-04T14:39,data_analysis/YouTube:_Even_More_Pure_Video_Experience/2021-04-04T14:39,output/YouTube:_Even_More_Pure_Video_Experience/2021-04-04T14:39
8,2021-04-04T15:07,data_analysis/YouTube:_Even_More_Pure_Video_Experience/2021-04-04T15:07,output/YouTube:_Even_More_Pure_Video_Experience/2021-04-04T15:07
9,2021-04-16T15:10,data_analysis/YouTube:_Even_More_Pure_Video_Experience/2021-04-16T15:10,output/YouTube:_Even_More_Pure_Video_Experience/2021-04-16T15:10
10,2021-05-26T06:49,data_analysis/YouTube:_Even_More_Pure_Video_Experience/2021-05-26T06:49,output/YouTube:_Even_More_Pure_Video_Experience/2021-05-26T06:49
11,2021-06-08T12:59,data_analysis/YouTube:_Even_More_Pure_Video_Experience/2021-06-08T12:59,output/YouTube:_Even_More_Pure_Video_Experience/2021-06-08T12:59
12,2021-07-06T19:25,data_analysis/YouTube:_Even_More_Pure_Video_Experience/2021-07-06T19:25,output/YouTube:_Even_More_Pure_Video_Experience/2021-07-06T19:25
13,2021-07-15T07:18,data_analysis/YouTube:_Even_More_Pure_Video_Experience/2021-07-15T07:18,output/YouTube:_Even_More_Pure_Video_Experience/2021-07-15T07:18
14,2021-07-28T18:22,data_analysis/YouTube:_Even_More_Pure_Video_Experience/2021-07-28T18:22,output/YouTube:_Even_More_Pure_Video_Experience/2021-07-28T18:22
15,2021-08-18T00:37,data_analysis/YouTube:_Even_More_Pure_Video_Experience/2021-08-18T00:37,output/YouTube:_Even_More_Pure_Video_Experience/2021-08-18T00:37
16,2021-09-12T03:00,data_analysis/YouTube:_Even_More_Pure_Video_Experience/2021-09-12T03:00,output/YouTube:_Even_More_Pure_Video_Experience/2021-09-12T03:00
17,2021-09-22T19:09,data_analysis/YouTube:_Even_More_Pure_Video_Experience/2021-09-22T19:09,output/YouTube:_Even_More_Pure_Video_Experience/2021-09-22T19:09
18,2021-09-28T17:22,data_analysis/YouTube:_Even_More_Pure_Video_Experience/2021-09-28T17:22,output/YouTube:_Even_More_Pure_Video_Experience/2021-09-28T17:22
19,2021-12-10T12:12,data_analysis/YouTube:_Even_More_Pure_Video_Experience/2021-12-10T12:12,output/YouTube:_Even_More_Pure_Video_Experience/2021-12-10T12:12
20,current,data_analysis/YouTube:_Even_More_Pure_Video_Experience/current,output/YouTube:_Even_More_Pure_Video_Experience/current
