,list,path,output
0,current,data_analysis/EasyList_Polish/current,output/EasyList_Polish/current
1,2022-03-02T05:23,data_analysis/EasyList_Polish/2022-03-02T05:23,output/EasyList_Polish/2022-03-02T05:23
2,2022-03-02T05:38,data_analysis/EasyList_Polish/2022-03-02T05:38,output/EasyList_Polish/2022-03-02T05:38
3,2022-03-02T05:52,data_analysis/EasyList_Polish/2022-03-02T05:52,output/EasyList_Polish/2022-03-02T05:52
4,2022-03-02T06:07,data_analysis/EasyList_Polish/2022-03-02T06:07,output/EasyList_Polish/2022-03-02T06:07
5,2022-03-03T04:56,data_analysis/EasyList_Polish/2022-03-03T04:56,output/EasyList_Polish/2022-03-03T04:56
6,2022-03-03T05:11,data_analysis/EasyList_Polish/2022-03-03T05:11,output/EasyList_Polish/2022-03-03T05:11
7,2022-03-03T05:25,data_analysis/EasyList_Polish/2022-03-03T05:25,output/EasyList_Polish/2022-03-03T05:25
8,2022-03-09T18:32,data_analysis/EasyList_Polish/2022-03-09T18:32,output/EasyList_Polish/2022-03-09T18:32
9,2022-03-09T18:45,data_analysis/EasyList_Polish/2022-03-09T18:45,output/EasyList_Polish/2022-03-09T18:45
10,2022-03-09T19:00,data_analysis/EasyList_Polish/2022-03-09T19:00,output/EasyList_Polish/2022-03-09T19:00
11,2022-03-09T19:14,data_analysis/EasyList_Polish/2022-03-09T19:14,output/EasyList_Polish/2022-03-09T19:14
12,2022-03-09T22:50,data_analysis/EasyList_Polish/2022-03-09T22:50,output/EasyList_Polish/2022-03-09T22:50
13,2022-03-09T23:04,data_analysis/EasyList_Polish/2022-03-09T23:04,output/EasyList_Polish/2022-03-09T23:04
14,2022-03-12T04:48,data_analysis/EasyList_Polish/2022-03-12T04:48,output/EasyList_Polish/2022-03-12T04:48
15,2022-03-12T05:01,data_analysis/EasyList_Polish/2022-03-12T05:01,output/EasyList_Polish/2022-03-12T05:01
16,2022-03-12T05:15,data_analysis/EasyList_Polish/2022-03-12T05:15,output/EasyList_Polish/2022-03-12T05:15
17,2022-03-12T05:29,data_analysis/EasyList_Polish/2022-03-12T05:29,output/EasyList_Polish/2022-03-12T05:29
18,2022-03-16T18:23,data_analysis/EasyList_Polish/2022-03-16T18:23,output/EasyList_Polish/2022-03-16T18:23
19,2022-03-16T18:37,data_analysis/EasyList_Polish/2022-03-16T18:37,output/EasyList_Polish/2022-03-16T18:37
20,2022-03-17T06:06,data_analysis/EasyList_Polish/2022-03-17T06:06,output/EasyList_Polish/2022-03-17T06:06
21,2022-03-17T06:20,data_analysis/EasyList_Polish/2022-03-17T06:20,output/EasyList_Polish/2022-03-17T06:20
22,2022-03-17T06:34,data_analysis/EasyList_Polish/2022-03-17T06:34,output/EasyList_Polish/2022-03-17T06:34
23,2022-03-17T06:48,data_analysis/EasyList_Polish/2022-03-17T06:48,output/EasyList_Polish/2022-03-17T06:48
24,2022-03-17T07:02,data_analysis/EasyList_Polish/2022-03-17T07:02,output/EasyList_Polish/2022-03-17T07:02
