test,entry,type,lists,name,id
<img src='https:// Reference: https://twitter.com/sansecio/status/1502322526709551104' style='visibility: hidden' />,# Reference: https://twitter.com/sansecio/status/1502322526709551104,addition,,current,0
<img src='https://stylesfound.com' style='visibility: hidden' />,stylesfound.com,addition,current,current,1
<img src='https:// Reference: https://www.virustotal.com/gui/ip-address/6.9.3.11/relations' style='visibility: hidden' />,# Reference: https://www.virustotal.com/gui/ip-address/6.9.3.11/relations,addition,,2022-01-17T19:51,2
<img src='https://cdne.site' style='visibility: hidden' />,cdne.site,addition,"current,2022-01-17T19:51,2022-01-17T20:35,2022-01-23T16:30,2022-01-24T01:04,2022-01-24T14:09,2022-01-26T00:18,2022-01-26T10:21,2022-01-26T20:51,2022-01-27T12:07,2022-01-31T15:53,2022-01-31T21:38,2022-02-01T07:21,2022-02-01T22:08,2022-02-01T22:23,2022-02-01T23:07,2022-02-02T20:37,2022-02-02T23:57,2022-02-03T00:11,2022-02-13T19:21,2022-02-27T23:19,2022-03-07T20:33",2022-01-17T19:51,3
<img src='https://cooogle.net' style='visibility: hidden' />,cooogle.net,addition,"current,2022-01-15T18:38,2022-01-17T19:51,2022-01-17T20:35,2022-01-23T16:30,2022-01-24T01:04,2022-01-24T14:09,2022-01-26T00:18,2022-01-26T10:21,2022-01-26T20:51,2022-01-27T12:07,2022-01-31T15:53,2022-01-31T21:38,2022-02-01T07:21,2022-02-01T22:08,2022-02-01T22:23,2022-02-01T23:07,2022-02-02T20:37,2022-02-02T23:57,2022-02-03T00:11,2022-02-13T19:21,2022-02-27T23:19,2022-03-07T20:33",2022-01-15T18:38,4
<img src='https:// Reference: https://www.virustotal.com/gui/ip-address/190.2.139.23/relations' style='visibility: hidden' />,# Reference: https://www.virustotal.com/gui/ip-address/190.2.139.23/relations,addition,,2022-01-15T18:23,5
<img src='https://cdn-binteractive.com' style='visibility: hidden' />,cdn-binteractive.com,addition,"current,2022-01-15T18:23,2022-01-15T18:38,2022-01-17T19:51,2022-01-17T20:35,2022-01-23T16:30,2022-01-24T01:04,2022-01-24T14:09,2022-01-26T00:18,2022-01-26T10:21,2022-01-26T20:51,2022-01-27T12:07,2022-01-31T15:53,2022-01-31T21:38,2022-02-01T07:21,2022-02-01T22:08,2022-02-01T22:23,2022-02-01T23:07,2022-02-02T20:37,2022-02-02T23:57,2022-02-03T00:11,2022-02-13T19:21,2022-02-27T23:19,2022-03-07T20:33",2022-01-15T18:23,6
<img src='https://cdn1-comingsoon.net' style='visibility: hidden' />,cdn1-comingsoon.net,addition,"current,2022-01-15T18:23,2022-01-15T18:38,2022-01-17T19:51,2022-01-17T20:35,2022-01-23T16:30,2022-01-24T01:04,2022-01-24T14:09,2022-01-26T00:18,2022-01-26T10:21,2022-01-26T20:51,2022-01-27T12:07,2022-01-31T15:53,2022-01-31T21:38,2022-02-01T07:21,2022-02-01T22:08,2022-02-01T22:23,2022-02-01T23:07,2022-02-02T20:37,2022-02-02T23:57,2022-02-03T00:11,2022-02-13T19:21,2022-02-27T23:19,2022-03-07T20:33",2022-01-15T18:23,7
<img src='https://cdn8.info' style='visibility: hidden' />,cdn8.info,addition,"current,2022-01-15T18:23,2022-01-15T18:38,2022-01-17T19:51,2022-01-17T20:35,2022-01-23T16:30,2022-01-24T01:04,2022-01-24T14:09,2022-01-26T00:18,2022-01-26T10:21,2022-01-26T20:51,2022-01-27T12:07,2022-01-31T15:53,2022-01-31T21:38,2022-02-01T07:21,2022-02-01T22:08,2022-02-01T22:23,2022-02-01T23:07,2022-02-02T20:37,2022-02-02T23:57,2022-02-03T00:11,2022-02-13T19:21,2022-02-27T23:19,2022-03-07T20:33",2022-01-15T18:23,8
<img src='https://cdndore.com' style='visibility: hidden' />,cdndore.com,addition,"current,2022-01-15T18:23,2022-01-15T18:38,2022-01-17T19:51,2022-01-17T20:35,2022-01-23T16:30,2022-01-24T01:04,2022-01-24T14:09,2022-01-26T00:18,2022-01-26T10:21,2022-01-26T20:51,2022-01-27T12:07,2022-01-31T15:53,2022-01-31T21:38,2022-02-01T07:21,2022-02-01T22:08,2022-02-01T22:23,2022-02-01T23:07,2022-02-02T20:37,2022-02-02T23:57,2022-02-03T00:11,2022-02-13T19:21,2022-02-27T23:19,2022-03-07T20:33",2022-01-15T18:23,9
<img src='https://cdnpage.net' style='visibility: hidden' />,cdnpage.net,addition,"current,2022-01-15T18:23,2022-01-15T18:38,2022-01-17T19:51,2022-01-17T20:35,2022-01-23T16:30,2022-01-24T01:04,2022-01-24T14:09,2022-01-26T00:18,2022-01-26T10:21,2022-01-26T20:51,2022-01-27T12:07,2022-01-31T15:53,2022-01-31T21:38,2022-02-01T07:21,2022-02-01T22:08,2022-02-01T22:23,2022-02-01T23:07,2022-02-02T20:37,2022-02-02T23:57,2022-02-03T00:11,2022-02-13T19:21,2022-02-27T23:19,2022-03-07T20:33",2022-01-15T18:23,10
<img src='https://cloud-info.email' style='visibility: hidden' />,cloud-info.email,addition,"current,2022-01-15T18:23,2022-01-15T18:38,2022-01-17T19:51,2022-01-17T20:35,2022-01-23T16:30,2022-01-24T01:04,2022-01-24T14:09,2022-01-26T00:18,2022-01-26T10:21,2022-01-26T20:51,2022-01-27T12:07,2022-01-31T15:53,2022-01-31T21:38,2022-02-01T07:21,2022-02-01T22:08,2022-02-01T22:23,2022-02-01T23:07,2022-02-02T20:37,2022-02-02T23:57,2022-02-03T00:11,2022-02-13T19:21,2022-02-27T23:19,2022-03-07T20:33",2022-01-15T18:23,11
<img src='https://cloud-info.express' style='visibility: hidden' />,cloud-info.express,addition,"current,2022-01-15T18:23,2022-01-15T18:38,2022-01-17T19:51,2022-01-17T20:35,2022-01-23T16:30,2022-01-24T01:04,2022-01-24T14:09,2022-01-26T00:18,2022-01-26T10:21,2022-01-26T20:51,2022-01-27T12:07,2022-01-31T15:53,2022-01-31T21:38,2022-02-01T07:21,2022-02-01T22:08,2022-02-01T22:23,2022-02-01T23:07,2022-02-02T20:37,2022-02-02T23:57,2022-02-03T00:11,2022-02-13T19:21,2022-02-27T23:19,2022-03-07T20:33",2022-01-15T18:23,12
<img src='https://clodoudfront.net' style='visibility: hidden' />,clodoudfront.net,addition,"current,2022-01-15T18:23,2022-01-15T18:38,2022-01-17T19:51,2022-01-17T20:35,2022-01-23T16:30,2022-01-24T01:04,2022-01-24T14:09,2022-01-26T00:18,2022-01-26T10:21,2022-01-26T20:51,2022-01-27T12:07,2022-01-31T15:53,2022-01-31T21:38,2022-02-01T07:21,2022-02-01T22:08,2022-02-01T22:23,2022-02-01T23:07,2022-02-02T20:37,2022-02-02T23:57,2022-02-03T00:11,2022-02-13T19:21,2022-02-27T23:19,2022-03-07T20:33",2022-01-15T18:23,13
<img src='https://clusterscloud.com' style='visibility: hidden' />,clusterscloud.com,addition,"current,2022-01-15T18:23,2022-01-15T18:38,2022-01-17T19:51,2022-01-17T20:35,2022-01-23T16:30,2022-01-24T01:04,2022-01-24T14:09,2022-01-26T00:18,2022-01-26T10:21,2022-01-26T20:51,2022-01-27T12:07,2022-01-31T15:53,2022-01-31T21:38,2022-02-01T07:21,2022-02-01T22:08,2022-02-01T22:23,2022-02-01T23:07,2022-02-02T20:37,2022-02-02T23:57,2022-02-03T00:11,2022-02-13T19:21,2022-02-27T23:19,2022-03-07T20:33",2022-01-15T18:23,14
<img src='https://g00glestatic.com' style='visibility: hidden' />,g00glestatic.com,addition,"current,2022-01-15T18:09,2022-01-15T18:23,2022-01-15T18:38,2022-01-17T19:51,2022-01-17T20:35,2022-01-23T16:30,2022-01-24T01:04,2022-01-24T14:09,2022-01-26T00:18,2022-01-26T10:21,2022-01-26T20:51,2022-01-27T12:07,2022-01-31T15:53,2022-01-31T21:38,2022-02-01T07:21,2022-02-01T22:08,2022-02-01T22:23,2022-02-01T23:07,2022-02-02T20:37,2022-02-02T23:57,2022-02-03T00:11,2022-02-13T19:21,2022-02-27T23:19,2022-03-07T20:33",2022-01-15T18:09,15
<img src='https://gaelytics.com' style='visibility: hidden' />,gaelytics.com,addition,"current,2022-01-15T18:09,2022-01-15T18:23,2022-01-15T18:38,2022-01-17T19:51,2022-01-17T20:35,2022-01-23T16:30,2022-01-24T01:04,2022-01-24T14:09,2022-01-26T00:18,2022-01-26T10:21,2022-01-26T20:51,2022-01-27T12:07,2022-01-31T15:53,2022-01-31T21:38,2022-02-01T07:21,2022-02-01T22:08,2022-02-01T22:23,2022-02-01T23:07,2022-02-02T20:37,2022-02-02T23:57,2022-02-03T00:11,2022-02-13T19:21,2022-02-27T23:19,2022-03-07T20:33",2022-01-15T18:09,16
<img src='https:// Reference: https://www.virustotal.com/gui/ip-address/47.251.42.9/relations' style='visibility: hidden' />,# Reference: https://www.virustotal.com/gui/ip-address/47.251.42.9/relations,addition,,2022-01-24T01:04,17
<img src='https:// Reference: https://www.virustotal.com/gui/ip-address/8.218.22.193/relations' style='visibility: hidden' />,# Reference: https://www.virustotal.com/gui/ip-address/8.218.22.193/relations,addition,,2022-01-24T01:04,18
<img src='https://jquerylab.com' style='visibility: hidden' />,jquerylab.com,addition,"current,2022-01-24T01:04,2022-01-24T14:09,2022-01-26T00:18,2022-01-26T10:21,2022-01-26T20:51,2022-01-27T12:07,2022-01-31T15:53,2022-01-31T21:38,2022-02-01T07:21,2022-02-01T22:08,2022-02-01T22:23,2022-02-01T23:07,2022-02-02T20:37,2022-02-02T23:57,2022-02-03T00:11,2022-02-13T19:21,2022-02-27T23:19,2022-03-07T20:33",2022-01-24T01:04,19
<img src='https://jquerymedia.com' style='visibility: hidden' />,jquerymedia.com,addition,"current,2022-01-24T01:04,2022-01-24T14:09,2022-01-26T00:18,2022-01-26T10:21,2022-01-26T20:51,2022-01-27T12:07,2022-01-31T15:53,2022-01-31T21:38,2022-02-01T07:21,2022-02-01T22:08,2022-02-01T22:23,2022-02-01T23:07,2022-02-02T20:37,2022-02-02T23:57,2022-02-03T00:11,2022-02-13T19:21,2022-02-27T23:19,2022-03-07T20:33",2022-01-24T01:04,20
<img src='https://jquerypulse.com' style='visibility: hidden' />,jquerypulse.com,addition,"current,2022-01-24T01:04,2022-01-24T14:09,2022-01-26T00:18,2022-01-26T10:21,2022-01-26T20:51,2022-01-27T12:07,2022-01-31T15:53,2022-01-31T21:38,2022-02-01T07:21,2022-02-01T22:08,2022-02-01T22:23,2022-02-01T23:07,2022-02-02T20:37,2022-02-02T23:57,2022-02-03T00:11,2022-02-13T19:21,2022-02-27T23:19,2022-03-07T20:33",2022-01-24T01:04,21
<img src='https://jqueryspace.com' style='visibility: hidden' />,jqueryspace.com,addition,"current,2022-01-24T01:04,2022-01-24T14:09,2022-01-26T00:18,2022-01-26T10:21,2022-01-26T20:51,2022-01-27T12:07,2022-01-31T15:53,2022-01-31T21:38,2022-02-01T07:21,2022-02-01T22:08,2022-02-01T22:23,2022-02-01T23:07,2022-02-02T20:37,2022-02-02T23:57,2022-02-03T00:11,2022-02-13T19:21,2022-02-27T23:19,2022-03-07T20:33",2022-01-24T01:04,22
<img src='https://staticpolars.com' style='visibility: hidden' />,staticpolars.com,addition,"current,2022-01-24T01:04,2022-01-24T14:09,2022-01-26T00:18,2022-01-26T10:21,2022-01-26T20:51,2022-01-27T12:07,2022-01-31T15:53,2022-01-31T21:38,2022-02-01T07:21,2022-02-01T22:08,2022-02-01T22:23,2022-02-01T23:07,2022-02-02T20:37,2022-02-02T23:57,2022-02-03T00:11,2022-02-13T19:21,2022-02-27T23:19,2022-03-07T20:33",2022-01-24T01:04,23
<img src='https:// Reference: https://www.virustotal.com/gui/ip-address/179.177.63.84/relations' style='visibility: hidden' />,# Reference: https://www.virustotal.com/gui/ip-address/179.177.63.84/relations,addition,,2022-01-23T16:30,24
<img src='https://jquerypure.com' style='visibility: hidden' />,jquerypure.com,addition,"current,2022-01-23T16:30,2022-01-24T01:04,2022-01-24T14:09,2022-01-26T00:18,2022-01-26T10:21,2022-01-26T20:51,2022-01-27T12:07,2022-01-31T15:53,2022-01-31T21:38,2022-02-01T07:21,2022-02-01T22:08,2022-02-01T22:23,2022-02-01T23:07,2022-02-02T20:37,2022-02-02T23:57,2022-02-03T00:11,2022-02-13T19:21,2022-02-27T23:19,2022-03-07T20:33",2022-01-23T16:30,25
<img src='https://cdnb.site' style='visibility: hidden' />,cdnb.site,addition,"current,2022-01-17T20:35,2022-01-23T16:30,2022-01-24T01:04,2022-01-24T14:09,2022-01-26T00:18,2022-01-26T10:21,2022-01-26T20:51,2022-01-27T12:07,2022-01-31T15:53,2022-01-31T21:38,2022-02-01T07:21,2022-02-01T22:08,2022-02-01T22:23,2022-02-01T23:07,2022-02-02T20:37,2022-02-02T23:57,2022-02-03T00:11,2022-02-13T19:21,2022-02-27T23:19,2022-03-07T20:33",2022-01-17T20:35,26
<img src='https://cdnb.space' style='visibility: hidden' />,cdnb.space,addition,"current,2022-01-17T20:35,2022-01-23T16:30,2022-01-24T01:04,2022-01-24T14:09,2022-01-26T00:18,2022-01-26T10:21,2022-01-26T20:51,2022-01-27T12:07,2022-01-31T15:53,2022-01-31T21:38,2022-02-01T07:21,2022-02-01T22:08,2022-02-01T22:23,2022-02-01T23:07,2022-02-02T20:37,2022-02-02T23:57,2022-02-03T00:11,2022-02-13T19:21,2022-02-27T23:19,2022-03-07T20:33",2022-01-17T20:35,27
<img src='https://cdnc.site' style='visibility: hidden' />,cdnc.site,addition,"current,2022-01-17T20:35,2022-01-23T16:30,2022-01-24T01:04,2022-01-24T14:09,2022-01-26T00:18,2022-01-26T10:21,2022-01-26T20:51,2022-01-27T12:07,2022-01-31T15:53,2022-01-31T21:38,2022-02-01T07:21,2022-02-01T22:08,2022-02-01T22:23,2022-02-01T23:07,2022-02-02T20:37,2022-02-02T23:57,2022-02-03T00:11,2022-02-13T19:21,2022-02-27T23:19,2022-03-07T20:33",2022-01-17T20:35,28
<img src='https://cdng.space' style='visibility: hidden' />,cdng.space,addition,"current,2022-01-17T20:35,2022-01-23T16:30,2022-01-24T01:04,2022-01-24T14:09,2022-01-26T00:18,2022-01-26T10:21,2022-01-26T20:51,2022-01-27T12:07,2022-01-31T15:53,2022-01-31T21:38,2022-02-01T07:21,2022-02-01T22:08,2022-02-01T22:23,2022-02-01T23:07,2022-02-02T20:37,2022-02-02T23:57,2022-02-03T00:11,2022-02-13T19:21,2022-02-27T23:19,2022-03-07T20:33",2022-01-17T20:35,29
<img src='https://cdnh.space' style='visibility: hidden' />,cdnh.space,addition,"current,2022-01-17T20:35,2022-01-23T16:30,2022-01-24T01:04,2022-01-24T14:09,2022-01-26T00:18,2022-01-26T10:21,2022-01-26T20:51,2022-01-27T12:07,2022-01-31T15:53,2022-01-31T21:38,2022-02-01T07:21,2022-02-01T22:08,2022-02-01T22:23,2022-02-01T23:07,2022-02-02T20:37,2022-02-02T23:57,2022-02-03T00:11,2022-02-13T19:21,2022-02-27T23:19,2022-03-07T20:33",2022-01-17T20:35,30
<img src='https://cdni.space' style='visibility: hidden' />,cdni.space,addition,"current,2022-01-17T20:35,2022-01-23T16:30,2022-01-24T01:04,2022-01-24T14:09,2022-01-26T00:18,2022-01-26T10:21,2022-01-26T20:51,2022-01-27T12:07,2022-01-31T15:53,2022-01-31T21:38,2022-02-01T07:21,2022-02-01T22:08,2022-02-01T22:23,2022-02-01T23:07,2022-02-02T20:37,2022-02-02T23:57,2022-02-03T00:11,2022-02-13T19:21,2022-02-27T23:19,2022-03-07T20:33",2022-01-17T20:35,31
<img src='https://cdnj.space' style='visibility: hidden' />,cdnj.space,addition,"current,2022-01-17T20:35,2022-01-23T16:30,2022-01-24T01:04,2022-01-24T14:09,2022-01-26T00:18,2022-01-26T10:21,2022-01-26T20:51,2022-01-27T12:07,2022-01-31T15:53,2022-01-31T21:38,2022-02-01T07:21,2022-02-01T22:08,2022-02-01T22:23,2022-02-01T23:07,2022-02-02T20:37,2022-02-02T23:57,2022-02-03T00:11,2022-02-13T19:21,2022-02-27T23:19,2022-03-07T20:33",2022-01-17T20:35,32
<img src='https://cdnk.site' style='visibility: hidden' />,cdnk.site,addition,"current,2022-01-17T20:35,2022-01-23T16:30,2022-01-24T01:04,2022-01-24T14:09,2022-01-26T00:18,2022-01-26T10:21,2022-01-26T20:51,2022-01-27T12:07,2022-01-31T15:53,2022-01-31T21:38,2022-02-01T07:21,2022-02-01T22:08,2022-02-01T22:23,2022-02-01T23:07,2022-02-02T20:37,2022-02-02T23:57,2022-02-03T00:11,2022-02-13T19:21,2022-02-27T23:19,2022-03-07T20:33",2022-01-17T20:35,33
<img src='https://cdnk.space' style='visibility: hidden' />,cdnk.space,addition,"current,2022-01-17T20:35,2022-01-23T16:30,2022-01-24T01:04,2022-01-24T14:09,2022-01-26T00:18,2022-01-26T10:21,2022-01-26T20:51,2022-01-27T12:07,2022-01-31T15:53,2022-01-31T21:38,2022-02-01T07:21,2022-02-01T22:08,2022-02-01T22:23,2022-02-01T23:07,2022-02-02T20:37,2022-02-02T23:57,2022-02-03T00:11,2022-02-13T19:21,2022-02-27T23:19,2022-03-07T20:33",2022-01-17T20:35,34
<img src='https://cdnl.site' style='visibility: hidden' />,cdnl.site,addition,"current,2022-01-17T20:35,2022-01-23T16:30,2022-01-24T01:04,2022-01-24T14:09,2022-01-26T00:18,2022-01-26T10:21,2022-01-26T20:51,2022-01-27T12:07,2022-01-31T15:53,2022-01-31T21:38,2022-02-01T07:21,2022-02-01T22:08,2022-02-01T22:23,2022-02-01T23:07,2022-02-02T20:37,2022-02-02T23:57,2022-02-03T00:11,2022-02-13T19:21,2022-02-27T23:19,2022-03-07T20:33",2022-01-17T20:35,35
<img src='https://cdnl.space' style='visibility: hidden' />,cdnl.space,addition,"current,2022-01-17T20:35,2022-01-23T16:30,2022-01-24T01:04,2022-01-24T14:09,2022-01-26T00:18,2022-01-26T10:21,2022-01-26T20:51,2022-01-27T12:07,2022-01-31T15:53,2022-01-31T21:38,2022-02-01T07:21,2022-02-01T22:08,2022-02-01T22:23,2022-02-01T23:07,2022-02-02T20:37,2022-02-02T23:57,2022-02-03T00:11,2022-02-13T19:21,2022-02-27T23:19,2022-03-07T20:33",2022-01-17T20:35,36
<img src='https://cdnm.space' style='visibility: hidden' />,cdnm.space,addition,"current,2022-01-17T20:35,2022-01-23T16:30,2022-01-24T01:04,2022-01-24T14:09,2022-01-26T00:18,2022-01-26T10:21,2022-01-26T20:51,2022-01-27T12:07,2022-01-31T15:53,2022-01-31T21:38,2022-02-01T07:21,2022-02-01T22:08,2022-02-01T22:23,2022-02-01T23:07,2022-02-02T20:37,2022-02-02T23:57,2022-02-03T00:11,2022-02-13T19:21,2022-02-27T23:19,2022-03-07T20:33",2022-01-17T20:35,37
<img src='https://cdnn.site' style='visibility: hidden' />,cdnn.site,addition,"current,2022-01-17T20:35,2022-01-23T16:30,2022-01-24T01:04,2022-01-24T14:09,2022-01-26T00:18,2022-01-26T10:21,2022-01-26T20:51,2022-01-27T12:07,2022-01-31T15:53,2022-01-31T21:38,2022-02-01T07:21,2022-02-01T22:08,2022-02-01T22:23,2022-02-01T23:07,2022-02-02T20:37,2022-02-02T23:57,2022-02-03T00:11,2022-02-13T19:21,2022-02-27T23:19,2022-03-07T20:33",2022-01-17T20:35,38
<img src='https://cdnn.space' style='visibility: hidden' />,cdnn.space,addition,"current,2022-01-17T20:35,2022-01-23T16:30,2022-01-24T01:04,2022-01-24T14:09,2022-01-26T00:18,2022-01-26T10:21,2022-01-26T20:51,2022-01-27T12:07,2022-01-31T15:53,2022-01-31T21:38,2022-02-01T07:21,2022-02-01T22:08,2022-02-01T22:23,2022-02-01T23:07,2022-02-02T20:37,2022-02-02T23:57,2022-02-03T00:11,2022-02-13T19:21,2022-02-27T23:19,2022-03-07T20:33",2022-01-17T20:35,39
<img src='https://cdno.space' style='visibility: hidden' />,cdno.space,addition,"current,2022-01-17T20:35,2022-01-23T16:30,2022-01-24T01:04,2022-01-24T14:09,2022-01-26T00:18,2022-01-26T10:21,2022-01-26T20:51,2022-01-27T12:07,2022-01-31T15:53,2022-01-31T21:38,2022-02-01T07:21,2022-02-01T22:08,2022-02-01T22:23,2022-02-01T23:07,2022-02-02T20:37,2022-02-02T23:57,2022-02-03T00:11,2022-02-13T19:21,2022-02-27T23:19,2022-03-07T20:33",2022-01-17T20:35,40
<img src='https://cdnp.space' style='visibility: hidden' />,cdnp.space,addition,"current,2022-01-17T20:35,2022-01-23T16:30,2022-01-24T01:04,2022-01-24T14:09,2022-01-26T00:18,2022-01-26T10:21,2022-01-26T20:51,2022-01-27T12:07,2022-01-31T15:53,2022-01-31T21:38,2022-02-01T07:21,2022-02-01T22:08,2022-02-01T22:23,2022-02-01T23:07,2022-02-02T20:37,2022-02-02T23:57,2022-02-03T00:11,2022-02-13T19:21,2022-02-27T23:19,2022-03-07T20:33",2022-01-17T20:35,41
<img src='https://cdnr.site' style='visibility: hidden' />,cdnr.site,addition,"current,2022-01-17T20:35,2022-01-23T16:30,2022-01-24T01:04,2022-01-24T14:09,2022-01-26T00:18,2022-01-26T10:21,2022-01-26T20:51,2022-01-27T12:07,2022-01-31T15:53,2022-01-31T21:38,2022-02-01T07:21,2022-02-01T22:08,2022-02-01T22:23,2022-02-01T23:07,2022-02-02T20:37,2022-02-02T23:57,2022-02-03T00:11,2022-02-13T19:21,2022-02-27T23:19,2022-03-07T20:33",2022-01-17T20:35,42
<img src='https://cdns.site' style='visibility: hidden' />,cdns.site,addition,"current,2022-01-17T20:35,2022-01-23T16:30,2022-01-24T01:04,2022-01-24T14:09,2022-01-26T00:18,2022-01-26T10:21,2022-01-26T20:51,2022-01-27T12:07,2022-01-31T15:53,2022-01-31T21:38,2022-02-01T07:21,2022-02-01T22:08,2022-02-01T22:23,2022-02-01T23:07,2022-02-02T20:37,2022-02-02T23:57,2022-02-03T00:11,2022-02-13T19:21,2022-02-27T23:19,2022-03-07T20:33",2022-01-17T20:35,43
<img src='https://cdnt.site' style='visibility: hidden' />,cdnt.site,addition,"current,2022-01-17T20:35,2022-01-23T16:30,2022-01-24T01:04,2022-01-24T14:09,2022-01-26T00:18,2022-01-26T10:21,2022-01-26T20:51,2022-01-27T12:07,2022-01-31T15:53,2022-01-31T21:38,2022-02-01T07:21,2022-02-01T22:08,2022-02-01T22:23,2022-02-01T23:07,2022-02-02T20:37,2022-02-02T23:57,2022-02-03T00:11,2022-02-13T19:21,2022-02-27T23:19,2022-03-07T20:33",2022-01-17T20:35,44
<img src='https://cdnt.space' style='visibility: hidden' />,cdnt.space,addition,"current,2022-01-17T20:35,2022-01-23T16:30,2022-01-24T01:04,2022-01-24T14:09,2022-01-26T00:18,2022-01-26T10:21,2022-01-26T20:51,2022-01-27T12:07,2022-01-31T15:53,2022-01-31T21:38,2022-02-01T07:21,2022-02-01T22:08,2022-02-01T22:23,2022-02-01T23:07,2022-02-02T20:37,2022-02-02T23:57,2022-02-03T00:11,2022-02-13T19:21,2022-02-27T23:19,2022-03-07T20:33",2022-01-17T20:35,45
<img src='https://cdnu.site' style='visibility: hidden' />,cdnu.site,addition,"current,2022-01-17T20:35,2022-01-23T16:30,2022-01-24T01:04,2022-01-24T14:09,2022-01-26T00:18,2022-01-26T10:21,2022-01-26T20:51,2022-01-27T12:07,2022-01-31T15:53,2022-01-31T21:38,2022-02-01T07:21,2022-02-01T22:08,2022-02-01T22:23,2022-02-01T23:07,2022-02-02T20:37,2022-02-02T23:57,2022-02-03T00:11,2022-02-13T19:21,2022-02-27T23:19,2022-03-07T20:33",2022-01-17T20:35,46
<img src='https://cdnu.space' style='visibility: hidden' />,cdnu.space,addition,"current,2022-01-17T20:35,2022-01-23T16:30,2022-01-24T01:04,2022-01-24T14:09,2022-01-26T00:18,2022-01-26T10:21,2022-01-26T20:51,2022-01-27T12:07,2022-01-31T15:53,2022-01-31T21:38,2022-02-01T07:21,2022-02-01T22:08,2022-02-01T22:23,2022-02-01T23:07,2022-02-02T20:37,2022-02-02T23:57,2022-02-03T00:11,2022-02-13T19:21,2022-02-27T23:19,2022-03-07T20:33",2022-01-17T20:35,47
<img src='https://cdnw.site' style='visibility: hidden' />,cdnw.site,addition,"current,2022-01-17T20:35,2022-01-23T16:30,2022-01-24T01:04,2022-01-24T14:09,2022-01-26T00:18,2022-01-26T10:21,2022-01-26T20:51,2022-01-27T12:07,2022-01-31T15:53,2022-01-31T21:38,2022-02-01T07:21,2022-02-01T22:08,2022-02-01T22:23,2022-02-01T23:07,2022-02-02T20:37,2022-02-02T23:57,2022-02-03T00:11,2022-02-13T19:21,2022-02-27T23:19,2022-03-07T20:33",2022-01-17T20:35,48
<img src='https://cdnx.site' style='visibility: hidden' />,cdnx.site,addition,"current,2022-01-17T20:35,2022-01-23T16:30,2022-01-24T01:04,2022-01-24T14:09,2022-01-26T00:18,2022-01-26T10:21,2022-01-26T20:51,2022-01-27T12:07,2022-01-31T15:53,2022-01-31T21:38,2022-02-01T07:21,2022-02-01T22:08,2022-02-01T22:23,2022-02-01T23:07,2022-02-02T20:37,2022-02-02T23:57,2022-02-03T00:11,2022-02-13T19:21,2022-02-27T23:19,2022-03-07T20:33",2022-01-17T20:35,49
<img src='https://cdny.site' style='visibility: hidden' />,cdny.site,addition,"current,2022-01-17T20:35,2022-01-23T16:30,2022-01-24T01:04,2022-01-24T14:09,2022-01-26T00:18,2022-01-26T10:21,2022-01-26T20:51,2022-01-27T12:07,2022-01-31T15:53,2022-01-31T21:38,2022-02-01T07:21,2022-02-01T22:08,2022-02-01T22:23,2022-02-01T23:07,2022-02-02T20:37,2022-02-02T23:57,2022-02-03T00:11,2022-02-13T19:21,2022-02-27T23:19,2022-03-07T20:33",2022-01-17T20:35,50
<img src='https://cdny.space' style='visibility: hidden' />,cdny.space,addition,"current,2022-01-17T20:35,2022-01-23T16:30,2022-01-24T01:04,2022-01-24T14:09,2022-01-26T00:18,2022-01-26T10:21,2022-01-26T20:51,2022-01-27T12:07,2022-01-31T15:53,2022-01-31T21:38,2022-02-01T07:21,2022-02-01T22:08,2022-02-01T22:23,2022-02-01T23:07,2022-02-02T20:37,2022-02-02T23:57,2022-02-03T00:11,2022-02-13T19:21,2022-02-27T23:19,2022-03-07T20:33",2022-01-17T20:35,51
<img src='https:// Reference: https://www.virustotal.com/gui/ip-address/45.32.178.26/relations' style='visibility: hidden' />,# Reference: https://www.virustotal.com/gui/ip-address/45.32.178.26/relations,addition,,2022-01-17T20:35,52
<img src='https://acache.pw' style='visibility: hidden' />,acache.pw,addition,"current,2022-01-17T20:35,2022-01-23T16:30,2022-01-24T01:04,2022-01-24T14:09,2022-01-26T00:18,2022-01-26T10:21,2022-01-26T20:51,2022-01-27T12:07,2022-01-31T15:53,2022-01-31T21:38,2022-02-01T07:21,2022-02-01T22:08,2022-02-01T22:23,2022-02-01T23:07,2022-02-02T20:37,2022-02-02T23:57,2022-02-03T00:11,2022-02-13T19:21,2022-02-27T23:19,2022-03-07T20:33",2022-01-17T20:35,53
<img src='https://adev.pw' style='visibility: hidden' />,adev.pw,addition,"current,2022-01-17T20:35,2022-01-23T16:30,2022-01-24T01:04,2022-01-24T14:09,2022-01-26T00:18,2022-01-26T10:21,2022-01-26T20:51,2022-01-27T12:07,2022-01-31T15:53,2022-01-31T21:38,2022-02-01T07:21,2022-02-01T22:08,2022-02-01T22:23,2022-02-01T23:07,2022-02-02T20:37,2022-02-02T23:57,2022-02-03T00:11,2022-02-13T19:21,2022-02-27T23:19,2022-03-07T20:33",2022-01-17T20:35,54
<img src='https://asite.pw' style='visibility: hidden' />,asite.pw,addition,"current,2022-01-17T20:35,2022-01-23T16:30,2022-01-24T01:04,2022-01-24T14:09,2022-01-26T00:18,2022-01-26T10:21,2022-01-26T20:51,2022-01-27T12:07,2022-01-31T15:53,2022-01-31T21:38,2022-02-01T07:21,2022-02-01T22:08,2022-02-01T22:23,2022-02-01T23:07,2022-02-02T20:37,2022-02-02T23:57,2022-02-03T00:11,2022-02-13T19:21,2022-02-27T23:19,2022-03-07T20:33",2022-01-17T20:35,55
<img src='https:// Reference: https://twitter.com/rootprivilege/status/1486419929720967168' style='visibility: hidden' />,# Reference: https://twitter.com/rootprivilege/status/1486419929720967168,addition,,2022-01-26T20:51,56
<img src='https:// Reference: https://www.virustotal.com/gui/ip-address/212.224.124.86/relations' style='visibility: hidden' />,# Reference: https://www.virustotal.com/gui/ip-address/212.224.124.86/relations,addition,,2022-01-26T20:51,57
<img src='https:// Reference: https://www.virustotal.com/gui/ip-address/54.86.140.52/relations' style='visibility: hidden' />,# Reference: https://www.virustotal.com/gui/ip-address/54.86.140.52/relations,addition,,2022-01-26T20:51,58
<img src='https:// Reference: https://lukeleal.com/research/posts/tracking-pixel-phishing-countermeasure/' style='visibility: hidden' />,# Reference: https://lukeleal.com/research/posts/tracking-pixel-phishing-countermeasure/,addition,,2022-01-26T20:51,59
<img src='https://content-cdn.com' style='visibility: hidden' />,content-cdn.com,addition,"current,2022-01-26T20:51,2022-01-27T12:07,2022-01-31T15:53,2022-01-31T21:38,2022-02-01T07:21,2022-02-01T22:08,2022-02-01T22:23,2022-02-01T23:07,2022-02-02T20:37,2022-02-02T23:57,2022-02-03T00:11,2022-02-13T19:21,2022-02-27T23:19,2022-03-07T20:33",2022-01-26T20:51,60
<img src='https://images-cdn.info' style='visibility: hidden' />,images-cdn.info,addition,"current,2022-01-26T20:51,2022-01-27T12:07,2022-01-31T15:53,2022-01-31T21:38,2022-02-01T07:21,2022-02-01T22:08,2022-02-01T22:23,2022-02-01T23:07,2022-02-02T20:37,2022-02-02T23:57,2022-02-03T00:11,2022-02-13T19:21,2022-02-27T23:19,2022-03-07T20:33",2022-01-26T20:51,61
<img src='https://nextstatic-cdn.com' style='visibility: hidden' />,nextstatic-cdn.com,addition,"current,2022-01-26T20:51,2022-01-27T12:07,2022-01-31T15:53,2022-01-31T21:38,2022-02-01T07:21,2022-02-01T22:08,2022-02-01T22:23,2022-02-01T23:07,2022-02-02T20:37,2022-02-02T23:57,2022-02-03T00:11,2022-02-13T19:21,2022-02-27T23:19,2022-03-07T20:33",2022-01-26T20:51,62
<img src='https://trans-cdn.com' style='visibility: hidden' />,trans-cdn.com,addition,"current,2022-01-26T20:51,2022-01-27T12:07,2022-01-31T15:53,2022-01-31T21:38,2022-02-01T07:21,2022-02-01T22:08,2022-02-01T22:23,2022-02-01T23:07,2022-02-02T20:37,2022-02-02T23:57,2022-02-03T00:11,2022-02-13T19:21,2022-02-27T23:19,2022-03-07T20:33",2022-01-26T20:51,63
<img src='https:// Reference: https://twitter.com/sansecio/status/1486000220647444491' style='visibility: hidden' />,# Reference: https://twitter.com/sansecio/status/1486000220647444491,addition,,2022-01-26T10:21,64
<img src='https:// Reference: https://twitter.com/sansecio/status/1486258634409623552' style='visibility: hidden' />,# Reference: https://twitter.com/sansecio/status/1486258634409623552,addition,,2022-01-26T10:21,65
<img src='https://naturalfreshmall.com/image/pixel.js' style='visibility: hidden' />,naturalfreshmall.com/image/pixel.js,addition,"current,2022-01-26T10:21,2022-01-26T20:51,2022-01-27T12:07,2022-01-31T15:53,2022-01-31T21:38,2022-02-01T07:21,2022-02-01T22:08,2022-02-01T22:23,2022-02-01T23:07,2022-02-02T20:37,2022-02-02T23:57,2022-02-03T00:11,2022-02-13T19:21,2022-02-27T23:19,2022-03-07T20:33",2022-01-26T10:21,66
<img src='https://naturalfreshmall.com/payment/Payment.php' style='visibility: hidden' />,naturalfreshmall.com/payment/Payment.php,addition,"current,2022-01-26T10:21,2022-01-26T20:51,2022-01-27T12:07,2022-01-31T15:53,2022-01-31T21:38,2022-02-01T07:21,2022-02-01T22:08,2022-02-01T22:23,2022-02-01T23:07,2022-02-02T20:37,2022-02-02T23:57,2022-02-03T00:11,2022-02-13T19:21,2022-02-27T23:19,2022-03-07T20:33",2022-01-26T10:21,67
<img src='https:// Reference: https://www.virustotal.com/gui/ip-address/47.88.27.175/relations' style='visibility: hidden' />,# Reference: https://www.virustotal.com/gui/ip-address/47.88.27.175/relations,addition,,2022-01-26T00:18,68
<img src='https:// Reference: https://www.virustotal.com/gui/ip-address/5.53.125.150/relations' style='visibility: hidden' />,# Reference: https://www.virustotal.com/gui/ip-address/5.53.125.150/relations,addition,,2022-01-26T00:18,69
<img src='https:// Reference: https://www.virustotal.com/gui/ip-address/8.209.77.82/relations' style='visibility: hidden' />,# Reference: https://www.virustotal.com/gui/ip-address/8.209.77.82/relations,addition,,2022-01-26T00:18,70
<img src='https://assets-protect.com' style='visibility: hidden' />,assets-protect.com,addition,"current,2022-01-26T00:18,2022-01-26T10:21,2022-01-26T20:51,2022-01-27T12:07,2022-01-31T15:53,2022-01-31T21:38,2022-02-01T07:21,2022-02-01T22:08,2022-02-01T22:23,2022-02-01T23:07,2022-02-02T20:37,2022-02-02T23:57,2022-02-03T00:11,2022-02-13T19:21,2022-02-27T23:19,2022-03-07T20:33",2022-01-26T00:18,71
<img src='https://google-analuzing.com' style='visibility: hidden' />,google-analuzing.com,addition,"current,2022-01-26T00:18,2022-01-26T10:21,2022-01-26T20:51,2022-01-27T12:07,2022-01-31T15:53,2022-01-31T21:38,2022-02-01T07:21,2022-02-01T22:08,2022-02-01T22:23,2022-02-01T23:07,2022-02-02T20:37,2022-02-02T23:57,2022-02-03T00:11,2022-02-13T19:21,2022-02-27T23:19,2022-03-07T20:33",2022-01-26T00:18,72
<img src='https://google-boom.com' style='visibility: hidden' />,google-boom.com,addition,"current,2022-01-26T00:18,2022-01-26T10:21,2022-01-26T20:51,2022-01-27T12:07,2022-01-31T15:53,2022-01-31T21:38,2022-02-01T07:21,2022-02-01T22:08,2022-02-01T22:23,2022-02-01T23:07,2022-02-02T20:37,2022-02-02T23:57,2022-02-03T00:11,2022-02-13T19:21,2022-02-27T23:19,2022-03-07T20:33",2022-01-26T00:18,73
<img src='https://google-globals.com' style='visibility: hidden' />,google-globals.com,addition,"current,2022-01-26T00:18,2022-01-26T10:21,2022-01-26T20:51,2022-01-27T12:07,2022-01-31T15:53,2022-01-31T21:38,2022-02-01T07:21,2022-02-01T22:08,2022-02-01T22:23,2022-02-01T23:07,2022-02-02T20:37,2022-02-02T23:57,2022-02-03T00:11,2022-02-13T19:21,2022-02-27T23:19,2022-03-07T20:33",2022-01-26T00:18,74
<img src='https:// Reference: https://twitter.com/sansecio/status/1485598267975114762' style='visibility: hidden' />,# Reference: https://twitter.com/sansecio/status/1485598267975114762,addition,,2022-01-24T14:09,75
<img src='https:// Reference: https://twitter.com/sansecio/status/1485598270554529794' style='visibility: hidden' />,# Reference: https://twitter.com/sansecio/status/1485598270554529794,addition,,2022-01-24T14:09,76
<img src='https://jsallow.com' style='visibility: hidden' />,jsallow.com,addition,"current,2022-01-24T14:09,2022-01-26T00:18,2022-01-26T10:21,2022-01-26T20:51,2022-01-27T12:07,2022-01-31T15:53,2022-01-31T21:38,2022-02-01T07:21,2022-02-01T22:08,2022-02-01T22:23,2022-02-01T23:07,2022-02-02T20:37,2022-02-02T23:57,2022-02-03T00:11,2022-02-13T19:21,2022-02-27T23:19,2022-03-07T20:33",2022-01-24T14:09,77
<img src='https://reqsolutions.org' style='visibility: hidden' />,reqsolutions.org,addition,"current,2022-01-24T14:09,2022-01-26T00:18,2022-01-26T10:21,2022-01-26T20:51,2022-01-27T12:07,2022-01-31T15:53,2022-01-31T21:38,2022-02-01T07:21,2022-02-01T22:08,2022-02-01T22:23,2022-02-01T23:07,2022-02-02T20:37,2022-02-02T23:57,2022-02-03T00:11,2022-02-13T19:21,2022-02-27T23:19,2022-03-07T20:33",2022-01-24T14:09,78
<img src='https:// Reference: https://twitter.com/AffableKraut/status/1487939215774081026' style='visibility: hidden' />,# Reference: https://twitter.com/AffableKraut/status/1487939215774081026,addition,,2022-01-31T15:53,79
<img src='https:// Reference: https://twitter.com/AffableKraut/status/1487939224145993730' style='visibility: hidden' />,# Reference: https://twitter.com/AffableKraut/status/1487939224145993730,addition,,2022-01-31T15:53,80
<img src='https://chaosfab.com/2020/data1/images/data/ppbtns.html' style='visibility: hidden' />,chaosfab.com/2020/data1/images/data/ppbtns.html,addition,"current,2022-01-31T15:53,2022-01-31T21:38,2022-02-01T07:21,2022-02-01T22:08,2022-02-01T22:23,2022-02-01T23:07,2022-02-02T20:37,2022-02-02T23:57,2022-02-03T00:11,2022-02-13T19:21,2022-02-27T23:19,2022-03-07T20:33",2022-01-31T15:53,81
<img src='https://fraudlabpros.at' style='visibility: hidden' />,fraudlabpros.at,addition,"current,2022-01-31T15:53,2022-01-31T21:38,2022-02-01T07:21,2022-02-01T22:08,2022-02-01T22:23,2022-02-01T23:07,2022-02-02T20:37,2022-02-02T23:57,2022-02-03T00:11,2022-02-13T19:21,2022-02-27T23:19,2022-03-07T20:33",2022-01-31T15:53,82
<img src='https://paymentssecured.com' style='visibility: hidden' />,paymentssecured.com,addition,"current,2022-01-27T12:07,2022-01-31T15:53,2022-01-31T21:38,2022-02-01T07:21,2022-02-01T22:08,2022-02-01T22:23,2022-02-01T23:07,2022-02-02T20:37,2022-02-02T23:57,2022-02-03T00:11,2022-02-13T19:21,2022-02-27T23:19,2022-03-07T20:33",2022-01-27T12:07,83
<img src='https:// Reference: https://twitter.com/MBThreatIntel/status/1489007692240752641' style='visibility: hidden' />,# Reference: https://twitter.com/MBThreatIntel/status/1489007692240752641,addition,,2022-02-02T23:57,84
<img src='https://cdn-cloudmedia.com' style='visibility: hidden' />,cdn-cloudmedia.com,addition,"current,2022-02-02T23:57,2022-02-03T00:11,2022-02-13T19:21,2022-02-27T23:19,2022-03-07T20:33",2022-02-02T23:57,85
<img src='https:// Reference: https://twitter.com/MBThreatIntel/status/1488954638103547904' style='visibility: hidden' />,# Reference: https://twitter.com/MBThreatIntel/status/1488954638103547904,addition,,2022-02-02T20:37,86
<img src='https:// Reference: https://www.virustotal.com/gui/ip-address/78.47.155.179/relations' style='visibility: hidden' />,# Reference: https://www.virustotal.com/gui/ip-address/78.47.155.179/relations,addition,,2022-02-02T20:37,87
<img src='https://analiticash.com' style='visibility: hidden' />,analiticash.com,addition,"current,2022-02-02T20:37,2022-02-02T23:57,2022-02-03T00:11,2022-02-13T19:21,2022-02-27T23:19,2022-03-07T20:33",2022-02-02T20:37,88
<img src='https://analiticmanager.com' style='visibility: hidden' />,analiticmanager.com,addition,"current,2022-02-02T20:37,2022-02-02T23:57,2022-02-03T00:11,2022-02-13T19:21,2022-02-27T23:19,2022-03-07T20:33",2022-02-02T20:37,89
<img src='https://analiticsstat.com' style='visibility: hidden' />,analiticsstat.com,addition,"current,2022-02-02T20:37,2022-02-02T23:57,2022-02-03T00:11,2022-02-13T19:21,2022-02-27T23:19,2022-03-07T20:33",2022-02-02T20:37,90
<img src='https://cashgooglestat.com' style='visibility: hidden' />,cashgooglestat.com,addition,"current,2022-02-02T20:37,2022-02-02T23:57,2022-02-03T00:11,2022-02-13T19:21,2022-02-27T23:19,2022-03-07T20:33",2022-02-02T20:37,91
<img src='https://cdncashcontent.com' style='visibility: hidden' />,cdncashcontent.com,addition,"current,2022-02-02T20:37,2022-02-02T23:57,2022-02-03T00:11,2022-02-13T19:21,2022-02-27T23:19,2022-03-07T20:33",2022-02-02T20:37,92
<img src='https://cdncashcontents.com' style='visibility: hidden' />,cdncashcontents.com,addition,"current,2022-02-02T20:37,2022-02-02T23:57,2022-02-03T00:11,2022-02-13T19:21,2022-02-27T23:19,2022-03-07T20:33",2022-02-02T20:37,93
<img src='https://cdncssontents.com' style='visibility: hidden' />,cdncssontents.com,addition,"current,2022-02-02T20:37,2022-02-02T23:57,2022-02-03T00:11,2022-02-13T19:21,2022-02-27T23:19,2022-03-07T20:33",2022-02-02T20:37,94
<img src='https://cdnfastcss.com' style='visibility: hidden' />,cdnfastcss.com,addition,"current,2022-02-02T20:37,2022-02-02T23:57,2022-02-03T00:11,2022-02-13T19:21,2022-02-27T23:19,2022-03-07T20:33",2022-02-02T20:37,95
<img src='https://cdngcontents.com' style='visibility: hidden' />,cdngcontents.com,addition,"current,2022-02-02T20:37,2022-02-02T23:57,2022-02-03T00:11,2022-02-13T19:21,2022-02-27T23:19,2022-03-07T20:33",2022-02-02T20:37,96
<img src='https://cdngconts.com' style='visibility: hidden' />,cdngconts.com,addition,"current,2022-02-02T20:37,2022-02-02T23:57,2022-02-03T00:11,2022-02-13T19:21,2022-02-27T23:19,2022-03-07T20:33",2022-02-02T20:37,97
<img src='https://cdnjsontents.com' style='visibility: hidden' />,cdnjsontents.com,addition,"current,2022-02-02T20:37,2022-02-02T23:57,2022-02-03T00:11,2022-02-13T19:21,2022-02-27T23:19,2022-03-07T20:33",2022-02-02T20:37,98
<img src='https://cssdataf.com' style='visibility: hidden' />,cssdataf.com,addition,"current,2022-02-02T20:37,2022-02-02T23:57,2022-02-03T00:11,2022-02-13T19:21,2022-02-27T23:19,2022-03-07T20:33",2022-02-02T20:37,99
<img src='https://cssimghost.com' style='visibility: hidden' />,cssimghost.com,addition,"current,2022-02-02T20:37,2022-02-02T23:57,2022-02-03T00:11,2022-02-13T19:21,2022-02-27T23:19,2022-03-07T20:33",2022-02-02T20:37,100
<img src='https://googlestatanal.com' style='visibility: hidden' />,googlestatanal.com,addition,"current,2022-02-02T20:37,2022-02-02T23:57,2022-02-03T00:11,2022-02-13T19:21,2022-02-27T23:19,2022-03-07T20:33",2022-02-02T20:37,101
<img src='https://googlestatanale.com' style='visibility: hidden' />,googlestatanale.com,addition,"current,2022-02-02T20:37,2022-02-02T23:57,2022-02-03T00:11,2022-02-13T19:21,2022-02-27T23:19,2022-03-07T20:33",2022-02-02T20:37,102
<img src='https://imagescdns.com' style='visibility: hidden' />,imagescdns.com,addition,"current,2022-02-02T20:37,2022-02-02T23:57,2022-02-03T00:11,2022-02-13T19:21,2022-02-27T23:19,2022-03-07T20:33",2022-02-02T20:37,103
<img src='https://imgcssnet.com' style='visibility: hidden' />,imgcssnet.com,addition,"current,2022-02-02T20:37,2022-02-02T23:57,2022-02-03T00:11,2022-02-13T19:21,2022-02-27T23:19,2022-03-07T20:33",2022-02-02T20:37,104
<img src='https://jsdataf.com' style='visibility: hidden' />,jsdataf.com,addition,"current,2022-02-02T20:37,2022-02-02T23:57,2022-02-03T00:11,2022-02-13T19:21,2022-02-27T23:19,2022-03-07T20:33",2022-02-02T20:37,105
<img src='https://jsdatastat.com' style='visibility: hidden' />,jsdatastat.com,addition,"current,2022-02-02T20:37,2022-02-02T23:57,2022-02-03T00:11,2022-02-13T19:21,2022-02-27T23:19,2022-03-07T20:33",2022-02-02T20:37,106
<img src='https://mediasdnb.com' style='visibility: hidden' />,mediasdnb.com,addition,"current,2022-02-02T20:37,2022-02-02T23:57,2022-02-03T00:11,2022-02-13T19:21,2022-02-27T23:19,2022-03-07T20:33",2022-02-02T20:37,107
<img src='https://mediasdnnet.com' style='visibility: hidden' />,mediasdnnet.com,addition,"current,2022-02-02T20:37,2022-02-02T23:57,2022-02-03T00:11,2022-02-13T19:21,2022-02-27T23:19,2022-03-07T20:33",2022-02-02T20:37,108
<img src='https://mediasdnnets.com' style='visibility: hidden' />,mediasdnnets.com,addition,"current,2022-02-02T20:37,2022-02-02T23:57,2022-02-03T00:11,2022-02-13T19:21,2022-02-27T23:19,2022-03-07T20:33",2022-02-02T20:37,109
<img src='https://mtdnsstatic.icu' style='visibility: hidden' />,mtdnsstatic.icu,addition,"current,2022-02-02T20:37,2022-02-02T23:57,2022-02-03T00:11,2022-02-13T19:21,2022-02-27T23:19,2022-03-07T20:33",2022-02-02T20:37,110
<img src='https://mtndnsstaticser.com' style='visibility: hidden' />,mtndnsstaticser.com,addition,"current,2022-02-02T20:37,2022-02-02T23:57,2022-02-03T00:11,2022-02-13T19:21,2022-02-27T23:19,2022-03-07T20:33",2022-02-02T20:37,111
<img src='https://mtndnsstaticx.com' style='visibility: hidden' />,mtndnsstaticx.com,addition,"current,2022-02-02T20:37,2022-02-02T23:57,2022-02-03T00:11,2022-02-13T19:21,2022-02-27T23:19,2022-03-07T20:33",2022-02-02T20:37,112
<img src='https://mxdnsstateces.icu' style='visibility: hidden' />,mxdnsstateces.icu,addition,"current,2022-02-02T20:37,2022-02-02T23:57,2022-02-03T00:11,2022-02-13T19:21,2022-02-27T23:19,2022-03-07T20:33",2022-02-02T20:37,113
<img src='https://mxdnsstatecs.icu' style='visibility: hidden' />,mxdnsstatecs.icu,addition,"current,2022-02-02T20:37,2022-02-02T23:57,2022-02-03T00:11,2022-02-13T19:21,2022-02-27T23:19,2022-03-07T20:33",2022-02-02T20:37,114
<img src='https://nnetsmedias.com' style='visibility: hidden' />,nnetsmedias.com,addition,"current,2022-02-02T20:37,2022-02-02T23:57,2022-02-03T00:11,2022-02-13T19:21,2022-02-27T23:19,2022-03-07T20:33",2022-02-02T20:37,115
<img src='https://ntnpstatica.com' style='visibility: hidden' />,ntnpstatica.com,addition,"current,2022-02-02T20:37,2022-02-02T23:57,2022-02-03T00:11,2022-02-13T19:21,2022-02-27T23:19,2022-03-07T20:33",2022-02-02T20:37,116
<img src='https://ntpstatica.com' style='visibility: hidden' />,ntpstatica.com,addition,"current,2022-02-02T20:37,2022-02-02T23:57,2022-02-03T00:11,2022-02-13T19:21,2022-02-27T23:19,2022-03-07T20:33",2022-02-02T20:37,117
<img src='https://ntsndnsstatics.com' style='visibility: hidden' />,ntsndnsstatics.com,addition,"current,2022-02-02T20:37,2022-02-02T23:57,2022-02-03T00:11,2022-02-13T19:21,2022-02-27T23:19,2022-03-07T20:33",2022-02-02T20:37,118
<img src='https://ntxndnsstatics.com' style='visibility: hidden' />,ntxndnsstatics.com,addition,"current,2022-02-02T20:37,2022-02-02T23:57,2022-02-03T00:11,2022-02-13T19:21,2022-02-27T23:19,2022-03-07T20:33",2022-02-02T20:37,119
<img src='https://pagofacily.com' style='visibility: hidden' />,pagofacily.com,addition,"current,2022-02-02T20:37,2022-02-02T23:57,2022-02-03T00:11,2022-02-13T19:21,2022-02-27T23:19,2022-03-07T20:33",2022-02-02T20:37,120
<img src='https://statetsmedias.com' style='visibility: hidden' />,statetsmedias.com,addition,"current,2022-02-02T20:37,2022-02-02T23:57,2022-02-03T00:11,2022-02-13T19:21,2022-02-27T23:19,2022-03-07T20:33",2022-02-02T20:37,121
<img src='https://staticcash.com' style='visibility: hidden' />,staticcash.com,addition,"current,2022-02-02T20:37,2022-02-02T23:57,2022-02-03T00:11,2022-02-13T19:21,2022-02-27T23:19,2022-03-07T20:33",2022-02-02T20:37,122
<img src='https://staticocontents.com' style='visibility: hidden' />,staticocontents.com,addition,"current,2022-02-02T20:37,2022-02-02T23:57,2022-02-03T00:11,2022-02-13T19:21,2022-02-27T23:19,2022-03-07T20:33",2022-02-02T20:37,123
<img src='https://js.analiticash.com' style='visibility: hidden' />,js.analiticash.com,addition,"current,2022-02-02T20:37,2022-02-02T23:57,2022-02-03T00:11,2022-02-13T19:21,2022-02-27T23:19,2022-03-07T20:33",2022-02-02T20:37,124
<img src='https://js.analiticmanager.com' style='visibility: hidden' />,js.analiticmanager.com,addition,"current,2022-02-02T20:37,2022-02-02T23:57,2022-02-03T00:11,2022-02-13T19:21,2022-02-27T23:19,2022-03-07T20:33",2022-02-02T20:37,125
<img src='https://js.analiticsstat.com' style='visibility: hidden' />,js.analiticsstat.com,addition,"current,2022-02-02T20:37,2022-02-02T23:57,2022-02-03T00:11,2022-02-13T19:21,2022-02-27T23:19,2022-03-07T20:33",2022-02-02T20:37,126
<img src='https://js.cashgooglestat.com' style='visibility: hidden' />,js.cashgooglestat.com,addition,"current,2022-02-02T20:37,2022-02-02T23:57,2022-02-03T00:11,2022-02-13T19:21,2022-02-27T23:19,2022-03-07T20:33",2022-02-02T20:37,127
<img src='https://js.cdncashcontent.com' style='visibility: hidden' />,js.cdncashcontent.com,addition,"current,2022-02-02T20:37,2022-02-02T23:57,2022-02-03T00:11,2022-02-13T19:21,2022-02-27T23:19,2022-03-07T20:33",2022-02-02T20:37,128
<img src='https://js.cdncashcontents.com' style='visibility: hidden' />,js.cdncashcontents.com,addition,"current,2022-02-02T20:37,2022-02-02T23:57,2022-02-03T00:11,2022-02-13T19:21,2022-02-27T23:19,2022-03-07T20:33",2022-02-02T20:37,129
<img src='https://js.cdncssontents.com' style='visibility: hidden' />,js.cdncssontents.com,addition,"current,2022-02-02T20:37,2022-02-02T23:57,2022-02-03T00:11,2022-02-13T19:21,2022-02-27T23:19,2022-03-07T20:33",2022-02-02T20:37,130
<img src='https://js.cdngcontents.com' style='visibility: hidden' />,js.cdngcontents.com,addition,"current,2022-02-02T20:37,2022-02-02T23:57,2022-02-03T00:11,2022-02-13T19:21,2022-02-27T23:19,2022-03-07T20:33",2022-02-02T20:37,131
<img src='https://js.cdngconts.com' style='visibility: hidden' />,js.cdngconts.com,addition,"current,2022-02-02T20:37,2022-02-02T23:57,2022-02-03T00:11,2022-02-13T19:21,2022-02-27T23:19,2022-03-07T20:33",2022-02-02T20:37,132
<img src='https://js.cdnjsontents.com' style='visibility: hidden' />,js.cdnjsontents.com,addition,"current,2022-02-02T20:37,2022-02-02T23:57,2022-02-03T00:11,2022-02-13T19:21,2022-02-27T23:19,2022-03-07T20:33",2022-02-02T20:37,133
<img src='https://js.cssdataf.com' style='visibility: hidden' />,js.cssdataf.com,addition,"current,2022-02-02T20:37,2022-02-02T23:57,2022-02-03T00:11,2022-02-13T19:21,2022-02-27T23:19,2022-03-07T20:33",2022-02-02T20:37,134
<img src='https://js.cssimghost.com' style='visibility: hidden' />,js.cssimghost.com,addition,"current,2022-02-02T20:37,2022-02-02T23:57,2022-02-03T00:11,2022-02-13T19:21,2022-02-27T23:19,2022-03-07T20:33",2022-02-02T20:37,135
<img src='https://js.googlestatanal.com' style='visibility: hidden' />,js.googlestatanal.com,addition,"current,2022-02-02T20:37,2022-02-02T23:57,2022-02-03T00:11,2022-02-13T19:21,2022-02-27T23:19,2022-03-07T20:33",2022-02-02T20:37,136
<img src='https://js.googlestatanale.com' style='visibility: hidden' />,js.googlestatanale.com,addition,"current,2022-02-02T20:37,2022-02-02T23:57,2022-02-03T00:11,2022-02-13T19:21,2022-02-27T23:19,2022-03-07T20:33",2022-02-02T20:37,137
<img src='https://js.imagescdns.com' style='visibility: hidden' />,js.imagescdns.com,addition,"current,2022-02-02T20:37,2022-02-02T23:57,2022-02-03T00:11,2022-02-13T19:21,2022-02-27T23:19,2022-03-07T20:33",2022-02-02T20:37,138
<img src='https://js.imgcssnet.com' style='visibility: hidden' />,js.imgcssnet.com,addition,"current,2022-02-02T20:37,2022-02-02T23:57,2022-02-03T00:11,2022-02-13T19:21,2022-02-27T23:19,2022-03-07T20:33",2022-02-02T20:37,139
<img src='https://js.jsdataf.com' style='visibility: hidden' />,js.jsdataf.com,addition,"current,2022-02-02T20:37,2022-02-02T23:57,2022-02-03T00:11,2022-02-13T19:21,2022-02-27T23:19,2022-03-07T20:33",2022-02-02T20:37,140
<img src='https://js.jsdatastat.com' style='visibility: hidden' />,js.jsdatastat.com,addition,"current,2022-02-02T20:37,2022-02-02T23:57,2022-02-03T00:11,2022-02-13T19:21,2022-02-27T23:19,2022-03-07T20:33",2022-02-02T20:37,141
<img src='https://js.mediasdnb.com' style='visibility: hidden' />,js.mediasdnb.com,addition,"current,2022-02-02T20:37,2022-02-02T23:57,2022-02-03T00:11,2022-02-13T19:21,2022-02-27T23:19,2022-03-07T20:33",2022-02-02T20:37,142
<img src='https://js.mediasdnnet.com' style='visibility: hidden' />,js.mediasdnnet.com,addition,"current,2022-02-02T20:37,2022-02-02T23:57,2022-02-03T00:11,2022-02-13T19:21,2022-02-27T23:19,2022-03-07T20:33",2022-02-02T20:37,143
<img src='https://js.mediasdnnets.com' style='visibility: hidden' />,js.mediasdnnets.com,addition,"current,2022-02-02T20:37,2022-02-02T23:57,2022-02-03T00:11,2022-02-13T19:21,2022-02-27T23:19,2022-03-07T20:33",2022-02-02T20:37,144
<img src='https://js.mtdnsstatic.icu' style='visibility: hidden' />,js.mtdnsstatic.icu,addition,"current,2022-02-02T20:37,2022-02-02T23:57,2022-02-03T00:11,2022-02-13T19:21,2022-02-27T23:19,2022-03-07T20:33",2022-02-02T20:37,145
<img src='https://js.mtndnsstaticser.com' style='visibility: hidden' />,js.mtndnsstaticser.com,addition,"current,2022-02-02T20:37,2022-02-02T23:57,2022-02-03T00:11,2022-02-13T19:21,2022-02-27T23:19,2022-03-07T20:33",2022-02-02T20:37,146
<img src='https://js.mtndnsstaticx.com' style='visibility: hidden' />,js.mtndnsstaticx.com,addition,"current,2022-02-02T20:37,2022-02-02T23:57,2022-02-03T00:11,2022-02-13T19:21,2022-02-27T23:19,2022-03-07T20:33",2022-02-02T20:37,147
<img src='https://js.mxdnsstateces.icu' style='visibility: hidden' />,js.mxdnsstateces.icu,addition,"current,2022-02-02T20:37,2022-02-02T23:57,2022-02-03T00:11,2022-02-13T19:21,2022-02-27T23:19,2022-03-07T20:33",2022-02-02T20:37,148
<img src='https://js.mxdnsstatecs.icu' style='visibility: hidden' />,js.mxdnsstatecs.icu,addition,"current,2022-02-02T20:37,2022-02-02T23:57,2022-02-03T00:11,2022-02-13T19:21,2022-02-27T23:19,2022-03-07T20:33",2022-02-02T20:37,149
<img src='https://js.nnetsmedias.com' style='visibility: hidden' />,js.nnetsmedias.com,addition,"current,2022-02-02T20:37,2022-02-02T23:57,2022-02-03T00:11,2022-02-13T19:21,2022-02-27T23:19,2022-03-07T20:33",2022-02-02T20:37,150
<img src='https://js.ntnpstatica.com' style='visibility: hidden' />,js.ntnpstatica.com,addition,"current,2022-02-02T20:37,2022-02-02T23:57,2022-02-03T00:11,2022-02-13T19:21,2022-02-27T23:19,2022-03-07T20:33",2022-02-02T20:37,151
<img src='https://js.ntpstatica.com' style='visibility: hidden' />,js.ntpstatica.com,addition,"current,2022-02-02T20:37,2022-02-02T23:57,2022-02-03T00:11,2022-02-13T19:21,2022-02-27T23:19,2022-03-07T20:33",2022-02-02T20:37,152
<img src='https://js.ntsndnsstatics.com' style='visibility: hidden' />,js.ntsndnsstatics.com,addition,"current,2022-02-02T20:37,2022-02-02T23:57,2022-02-03T00:11,2022-02-13T19:21,2022-02-27T23:19,2022-03-07T20:33",2022-02-02T20:37,153
<img src='https://js.ntxndnsstatics.com' style='visibility: hidden' />,js.ntxndnsstatics.com,addition,"current,2022-02-02T20:37,2022-02-02T23:57,2022-02-03T00:11,2022-02-13T19:21,2022-02-27T23:19,2022-03-07T20:33",2022-02-02T20:37,154
<img src='https://js.statetsmedias.com' style='visibility: hidden' />,js.statetsmedias.com,addition,"current,2022-02-02T20:37,2022-02-02T23:57,2022-02-03T00:11,2022-02-13T19:21,2022-02-27T23:19,2022-03-07T20:33",2022-02-02T20:37,155
<img src='https://js.staticcash.com' style='visibility: hidden' />,js.staticcash.com,addition,"current,2022-02-02T20:37,2022-02-02T23:57,2022-02-03T00:11,2022-02-13T19:21,2022-02-27T23:19,2022-03-07T20:33",2022-02-02T20:37,156
<img src='https://js.staticocontents.com' style='visibility: hidden' />,js.staticocontents.com,addition,"current,2022-02-02T20:37,2022-02-02T23:57,2022-02-03T00:11,2022-02-13T19:21,2022-02-27T23:19,2022-03-07T20:33",2022-02-02T20:37,157
<img src='https:// Reference: https://www.virustotal.com/gui/ip-address/37.120.234.105/relations' style='visibility: hidden' />,# Reference: https://www.virustotal.com/gui/ip-address/37.120.234.105/relations,addition,,2022-02-01T23:07,158
<img src='https://seoanalitycs.com' style='visibility: hidden' />,seoanalitycs.com,addition,"current,2022-02-01T23:07,2022-02-02T20:37,2022-02-02T23:57,2022-02-03T00:11,2022-02-13T19:21,2022-02-27T23:19,2022-03-07T20:33",2022-02-01T23:07,159
<img src='https:// Reference: https://twitter.com/AffableKraut/status/1488375539421306882' style='visibility: hidden' />,# Reference: https://twitter.com/AffableKraut/status/1488375539421306882,addition,,2022-02-01T22:23,160
<img src='https://avalong-analytics.org' style='visibility: hidden' />,avalong-analytics.org,addition,"current,2022-02-01T22:23,2022-02-01T23:07,2022-02-02T20:37,2022-02-02T23:57,2022-02-03T00:11,2022-02-13T19:21,2022-02-27T23:19,2022-03-07T20:33",2022-02-01T22:23,161
<img src='https://communigate.icu' style='visibility: hidden' />,communigate.icu,addition,"current,2022-02-01T22:23,2022-02-01T23:07,2022-02-02T20:37,2022-02-02T23:57,2022-02-03T00:11,2022-02-13T19:21,2022-02-27T23:19,2022-03-07T20:33",2022-02-01T22:23,162
<img src='https://earlymorningcigarette.com' style='visibility: hidden' />,earlymorningcigarette.com,addition,"current,2022-02-01T22:23,2022-02-01T23:07,2022-02-02T20:37,2022-02-02T23:57,2022-02-03T00:11,2022-02-13T19:21,2022-02-27T23:19,2022-03-07T20:33",2022-02-01T22:23,163
<img src='https://golt.xyz' style='visibility: hidden' />,golt.xyz,addition,"current,2022-02-01T22:23,2022-02-01T23:07,2022-02-02T20:37,2022-02-02T23:57,2022-02-03T00:11,2022-02-13T19:21,2022-02-27T23:19,2022-03-07T20:33",2022-02-01T22:23,164
<img src='https://jquerymain.com' style='visibility: hidden' />,jquerymain.com,addition,"current,2022-02-01T22:23,2022-02-01T23:07,2022-02-02T20:37,2022-02-02T23:57,2022-02-03T00:11,2022-02-13T19:21,2022-02-27T23:19,2022-03-07T20:33",2022-02-01T22:23,165
<img src='https://recaptcha.cc' style='visibility: hidden' />,recaptcha.cc,addition,"current,2022-02-01T22:23,2022-02-01T23:07,2022-02-02T20:37,2022-02-02T23:57,2022-02-03T00:11,2022-02-13T19:21,2022-02-27T23:19,2022-03-07T20:33",2022-02-01T22:23,166
<img src='https://rxtds.com' style='visibility: hidden' />,rxtds.com,addition,"current,2022-02-01T22:23,2022-02-01T23:07,2022-02-02T20:37,2022-02-02T23:57,2022-02-03T00:11,2022-02-13T19:21,2022-02-27T23:19,2022-03-07T20:33",2022-02-01T22:23,167
<img src='https://yoursafepayments.com' style='visibility: hidden' />,yoursafepayments.com,addition,"current,2022-02-01T22:23,2022-02-01T23:07,2022-02-02T20:37,2022-02-02T23:57,2022-02-03T00:11,2022-02-13T19:21,2022-02-27T23:19,2022-03-07T20:33",2022-02-01T22:23,168
<img src='https:// Reference: https://twitter.com/AffableKraut/status/1488376093254029313' style='visibility: hidden' />,# Reference: https://twitter.com/AffableKraut/status/1488376093254029313,addition,,2022-02-01T22:08,169
<img src='http://185.4.65.144' style='visibility: hidden' />,http://185.4.65.144,addition,"current,2022-02-01T22:08,2022-02-01T22:23,2022-02-01T23:07,2022-02-02T20:37,2022-02-02T23:57,2022-02-03T00:11,2022-02-13T19:21,2022-02-27T23:19,2022-03-07T20:33",2022-02-01T22:08,170
<img src='http://37.1.211.211' style='visibility: hidden' />,http://37.1.211.211,addition,"current,2022-02-01T22:08,2022-02-01T22:23,2022-02-01T23:07,2022-02-02T20:37,2022-02-02T23:57,2022-02-03T00:11,2022-02-13T19:21,2022-02-27T23:19,2022-03-07T20:33",2022-02-01T22:08,171
<img src='http://37.1.217.23' style='visibility: hidden' />,http://37.1.217.23,addition,"current,2022-02-01T22:08,2022-02-01T22:23,2022-02-01T23:07,2022-02-02T20:37,2022-02-02T23:57,2022-02-03T00:11,2022-02-13T19:21,2022-02-27T23:19,2022-03-07T20:33",2022-02-01T22:08,172
<img src='http://5.45.83.223 ' style='visibility: hidden' />,http://5.45.83.223 ,addition,"current,2022-01-15T18:09,2022-01-15T18:23,2022-01-15T18:38,2022-01-17T19:51,2022-01-17T20:35,2022-01-23T16:30,2022-01-24T01:04,2022-01-24T14:09,2022-01-26T00:18,2022-01-26T10:21,2022-01-26T20:51,2022-01-27T12:07,2022-01-31T15:53,2022-01-31T21:38,2022-02-01T07:21,2022-02-01T22:08,2022-02-01T22:23,2022-02-01T23:07,2022-02-02T20:37,2022-02-02T23:57,2022-02-03T00:11,2022-02-13T19:21,2022-02-27T23:19,2022-03-07T20:33",2022-02-01T22:08,173
<img src='http://66.11.117.40' style='visibility: hidden' />,http://66.11.117.40,addition,"current,2022-02-01T22:08,2022-02-01T22:23,2022-02-01T23:07,2022-02-02T20:37,2022-02-02T23:57,2022-02-03T00:11,2022-02-13T19:21,2022-02-27T23:19,2022-03-07T20:33",2022-02-01T22:08,174
<img src='https://aqaja.com' style='visibility: hidden' />,aqaja.com,addition,"current,2022-02-01T22:08,2022-02-01T22:23,2022-02-01T23:07,2022-02-02T20:37,2022-02-02T23:57,2022-02-03T00:11,2022-02-13T19:21,2022-02-27T23:19,2022-03-07T20:33",2022-02-01T22:08,175
<img src='https://checkouts.best' style='visibility: hidden' />,checkouts.best,addition,"current,2022-02-01T22:08,2022-02-01T22:23,2022-02-01T23:07,2022-02-02T20:37,2022-02-02T23:57,2022-02-03T00:11,2022-02-13T19:21,2022-02-27T23:19,2022-03-07T20:33",2022-02-01T22:08,176
<img src='https:// Reference: https://twitter.com/AffableKraut/status/1488262668091805697' style='visibility: hidden' />,# Reference: https://twitter.com/AffableKraut/status/1488262668091805697,addition,,2022-02-01T07:21,177
<img src='https://brilliantclub.website' style='visibility: hidden' />,brilliantclub.website,addition,"current,2022-02-01T07:21,2022-02-01T22:08,2022-02-01T22:23,2022-02-01T23:07,2022-02-02T20:37,2022-02-02T23:57,2022-02-03T00:11,2022-02-13T19:21,2022-02-27T23:19,2022-03-07T20:33",2022-02-01T07:21,178
<img src='https:// Reference: https://twitter.com/AffableKraut/status/1488240428734365701' style='visibility: hidden' />,# Reference: https://twitter.com/AffableKraut/status/1488240428734365701,addition,,2022-01-31T21:38,179
<img src='https:// Reference: https://www.virustotal.com/gui/ip-address/185.234.247.55/relations' style='visibility: hidden' />,# Reference: https://www.virustotal.com/gui/ip-address/185.234.247.55/relations,addition,,2022-01-31T21:38,180
<img src='https:// Reference: https://urlscan.io/result/32d776df-c57e-492f-ac09-0f17f197059e/' style='visibility: hidden' />,# Reference: https://urlscan.io/result/32d776df-c57e-492f-ac09-0f17f197059e/,addition,,2022-01-31T21:38,181
<img src='https://bootstraplaver.online' style='visibility: hidden' />,bootstraplaver.online,addition,"current,2022-01-31T21:38,2022-02-01T07:21,2022-02-01T22:08,2022-02-01T22:23,2022-02-01T23:07,2022-02-02T20:37,2022-02-02T23:57,2022-02-03T00:11,2022-02-13T19:21,2022-02-27T23:19,2022-03-07T20:33",2022-01-31T21:38,182
<img src='https:// Reference: https://twitter.com/MBThreatIntel/status/1488241823378075649' style='visibility: hidden' />,# Reference: https://twitter.com/MBThreatIntel/status/1488241823378075649,addition,,2022-01-31T21:38,183
<img src='https://getfrontendlib7.xyz' style='visibility: hidden' />,getfrontendlib7.xyz,addition,"current,2022-01-31T21:38,2022-02-01T07:21,2022-02-01T22:08,2022-02-01T22:23,2022-02-01T23:07,2022-02-02T20:37,2022-02-02T23:57,2022-02-03T00:11,2022-02-13T19:21,2022-02-27T23:19,2022-03-07T20:33",2022-01-31T21:38,184
<img src='https:// Reference: https://www.virustotal.com/gui/domain/cdn-yahoo.com/relations' style='visibility: hidden' />,# Reference: https://www.virustotal.com/gui/domain/cdn-yahoo.com/relations,addition,"current,2022-02-03T00:11,2022-02-13T19:21,2022-02-27T23:19,2022-03-07T20:33",2022-02-03T00:11,185
<img src='https://cdn-yahoo.com' style='visibility: hidden' />,cdn-yahoo.com,addition,"current,2022-02-03T00:11,2022-02-13T19:21,2022-02-27T23:19,2022-03-07T20:33",2022-02-03T00:11,186
<img src='https://seostat.org' style='visibility: hidden' />,seostat.org,addition,"current,2022-02-13T19:21,2022-02-27T23:19,2022-03-07T20:33",2022-02-13T19:21,187
<img src='https:// Reference: https://twitter.com/felixaime/status/1498055426230738944' style='visibility: hidden' />,# Reference: https://twitter.com/felixaime/status/1498055426230738944,addition,,2022-02-27T23:19,188
<img src='https://tagmanagerstatic.com' style='visibility: hidden' />,tagmanagerstatic.com,addition,"current,2022-02-27T23:19,2022-03-07T20:33",2022-02-27T23:19,189
<img src='https:// Reference: https://twitter.com/felixaime/status/1500812201262829568' style='visibility: hidden' />,# Reference: https://twitter.com/felixaime/status/1500812201262829568,addition,,2022-03-07T20:33,190
<img src='https://633786e01e.nxcli.net' style='visibility: hidden' />,633786e01e.nxcli.net,addition,"current,2022-03-07T20:33",2022-03-07T20:33,191
