,list,path,output
0,2020-10-31T14:30,data_analysis/Anti-'Unnecessary_notification_counters'_List/2020-10-31T14:30,output/Anti-'Unnecessary_notification_counters'_List/2020-10-31T14:30
1,2020-11-08T16:16,data_analysis/Anti-'Unnecessary_notification_counters'_List/2020-11-08T16:16,output/Anti-'Unnecessary_notification_counters'_List/2020-11-08T16:16
2,2020-11-21T15:33,data_analysis/Anti-'Unnecessary_notification_counters'_List/2020-11-21T15:33,output/Anti-'Unnecessary_notification_counters'_List/2020-11-21T15:33
3,2021-02-12T01:05,data_analysis/Anti-'Unnecessary_notification_counters'_List/2021-02-12T01:05,output/Anti-'Unnecessary_notification_counters'_List/2021-02-12T01:05
4,2021-02-16T19:53,data_analysis/Anti-'Unnecessary_notification_counters'_List/2021-02-16T19:53,output/Anti-'Unnecessary_notification_counters'_List/2021-02-16T19:53
5,2021-04-02T22:44,data_analysis/Anti-'Unnecessary_notification_counters'_List/2021-04-02T22:44,output/Anti-'Unnecessary_notification_counters'_List/2021-04-02T22:44
6,2021-05-05T01:46,data_analysis/Anti-'Unnecessary_notification_counters'_List/2021-05-05T01:46,output/Anti-'Unnecessary_notification_counters'_List/2021-05-05T01:46
7,2021-06-08T12:41,data_analysis/Anti-'Unnecessary_notification_counters'_List/2021-06-08T12:41,output/Anti-'Unnecessary_notification_counters'_List/2021-06-08T12:41
8,2021-10-05T16:34,data_analysis/Anti-'Unnecessary_notification_counters'_List/2021-10-05T16:34,output/Anti-'Unnecessary_notification_counters'_List/2021-10-05T16:34
9,current,data_analysis/Anti-'Unnecessary_notification_counters'_List/current,output/Anti-'Unnecessary_notification_counters'_List/current
