,list,path,output
0,2021-02-21T16:28,data_analysis/Anti-'Powerpuff_Girls'_List/2021-02-21T16:28,output/Anti-'Powerpuff_Girls'_List/2021-02-21T16:28
1,2021-04-02T22:44,data_analysis/Anti-'Powerpuff_Girls'_List/2021-04-02T22:44,output/Anti-'Powerpuff_Girls'_List/2021-04-02T22:44
2,2021-04-04T00:26,data_analysis/Anti-'Powerpuff_Girls'_List/2021-04-04T00:26,output/Anti-'Powerpuff_Girls'_List/2021-04-04T00:26
3,2021-04-14T15:06,data_analysis/Anti-'Powerpuff_Girls'_List/2021-04-14T15:06,output/Anti-'Powerpuff_Girls'_List/2021-04-14T15:06
4,2021-04-17T10:37,data_analysis/Anti-'Powerpuff_Girls'_List/2021-04-17T10:37,output/Anti-'Powerpuff_Girls'_List/2021-04-17T10:37
5,2021-04-22T17:03,data_analysis/Anti-'Powerpuff_Girls'_List/2021-04-22T17:03,output/Anti-'Powerpuff_Girls'_List/2021-04-22T17:03
6,2021-05-05T01:46,data_analysis/Anti-'Powerpuff_Girls'_List/2021-05-05T01:46,output/Anti-'Powerpuff_Girls'_List/2021-05-05T01:46
7,2021-05-30T18:06,data_analysis/Anti-'Powerpuff_Girls'_List/2021-05-30T18:06,output/Anti-'Powerpuff_Girls'_List/2021-05-30T18:06
8,2021-06-08T12:26,data_analysis/Anti-'Powerpuff_Girls'_List/2021-06-08T12:26,output/Anti-'Powerpuff_Girls'_List/2021-06-08T12:26
9,2021-06-08T12:55,data_analysis/Anti-'Powerpuff_Girls'_List/2021-06-08T12:55,output/Anti-'Powerpuff_Girls'_List/2021-06-08T12:55
10,2021-07-05T06:33,data_analysis/Anti-'Powerpuff_Girls'_List/2021-07-05T06:33,output/Anti-'Powerpuff_Girls'_List/2021-07-05T06:33
11,2021-07-27T03:11,data_analysis/Anti-'Powerpuff_Girls'_List/2021-07-27T03:11,output/Anti-'Powerpuff_Girls'_List/2021-07-27T03:11
12,2021-07-30T04:59,data_analysis/Anti-'Powerpuff_Girls'_List/2021-07-30T04:59,output/Anti-'Powerpuff_Girls'_List/2021-07-30T04:59
13,2021-07-30T05:13,data_analysis/Anti-'Powerpuff_Girls'_List/2021-07-30T05:13,output/Anti-'Powerpuff_Girls'_List/2021-07-30T05:13
14,2021-08-18T13:54,data_analysis/Anti-'Powerpuff_Girls'_List/2021-08-18T13:54,output/Anti-'Powerpuff_Girls'_List/2021-08-18T13:54
15,2021-09-12T01:43,data_analysis/Anti-'Powerpuff_Girls'_List/2021-09-12T01:43,output/Anti-'Powerpuff_Girls'_List/2021-09-12T01:43
16,2021-09-14T02:01,data_analysis/Anti-'Powerpuff_Girls'_List/2021-09-14T02:01,output/Anti-'Powerpuff_Girls'_List/2021-09-14T02:01
17,2021-10-16T06:44,data_analysis/Anti-'Powerpuff_Girls'_List/2021-10-16T06:44,output/Anti-'Powerpuff_Girls'_List/2021-10-16T06:44
18,2021-10-18T20:03,data_analysis/Anti-'Powerpuff_Girls'_List/2021-10-18T20:03,output/Anti-'Powerpuff_Girls'_List/2021-10-18T20:03
19,2021-10-27T00:12,data_analysis/Anti-'Powerpuff_Girls'_List/2021-10-27T00:12,output/Anti-'Powerpuff_Girls'_List/2021-10-27T00:12
20,2021-11-12T14:01,data_analysis/Anti-'Powerpuff_Girls'_List/2021-11-12T14:01,output/Anti-'Powerpuff_Girls'_List/2021-11-12T14:01
21,2021-11-18T05:38,data_analysis/Anti-'Powerpuff_Girls'_List/2021-11-18T05:38,output/Anti-'Powerpuff_Girls'_List/2021-11-18T05:38
22,2021-11-23T02:47,data_analysis/Anti-'Powerpuff_Girls'_List/2021-11-23T02:47,output/Anti-'Powerpuff_Girls'_List/2021-11-23T02:47
23,2021-12-14T18:45,data_analysis/Anti-'Powerpuff_Girls'_List/2021-12-14T18:45,output/Anti-'Powerpuff_Girls'_List/2021-12-14T18:45
24,current,data_analysis/Anti-'Powerpuff_Girls'_List/current,output/Anti-'Powerpuff_Girls'_List/current
