test,entry,type,lists,name,id
,freshly.com#@#.social-button,addition,,current,0
,freshly.com#@#.social-nav,addition,,current,1
<div class='tab-bar-fixed' .c-tab-bar></div>,##.tab-bar-fixed.c-tab-bar,addition,,2021-08-09T18:22,2
<div class='c-tab-bar' ></div>,##.c-tab-bar,deletion,,2021-08-05T18:02,3
,"foxbusiness.com,foxnews.com,newengland.com#@#.social-icons",addition,,2021-08-04T22:51,4
,"foxbusiness.com,foxnews.com#@#.social-icons",deletion,,2021-08-04T22:51,5
,"enbridgegas.com,nature.com,toptenreviews.com#@##back-to-top",addition,,2021-08-04T18:53,6
,"nature.com,toptenreviews.com#@##back-to-top",deletion,,2021-08-04T18:53,7
,forums.whirlpool.net.au#@#.buttonbar,addition,,2021-07-27T16:32,8
,arstechnica.com#@##social-footer,addition,,2021-08-12T17:08,9
<div id='scroll-top' :not(html):not(body)></div>,###scroll-top:not(html):not(body),addition,,2021-08-17T19:43,10
<div id='scrollTop' :not(html):not(body)></div>,###scrollTop:not(html):not(body),addition,,2021-08-17T19:43,11
<div id='share' :not(html):not(body)></div>,###share:not(html):not(body),addition,,2021-08-17T19:43,12
,"medallia.com,theben.de#@##scrollTop",addition,,2021-08-17T19:43,13
<div id='scroll-top' ></div>,###scroll-top,deletion,,2021-08-17T19:43,14
<div id='scrollTop' ></div>,###scrollTop,deletion,,2021-08-17T19:43,15
<div id='share' ></div>,###share,deletion,,2021-08-17T19:43,16
,theben.de#@##scrollTop,deletion,,2021-08-17T19:43,17
<div id='BackToTop' :not(html):not(body)></div>,###BackToTop:not(html):not(body),addition,,2021-08-20T22:45,18
<div id='BackToTopBtn' :not(html):not(body)></div>,###BackToTopBtn:not(html):not(body),addition,,2021-08-20T22:45,19
<div id='BacktoTop' :not(html):not(body)></div>,###BacktoTop:not(html):not(body),addition,,2021-08-20T22:45,20
<div id='GoUpWrapper' :not(html):not(body)></div>,###GoUpWrapper:not(html):not(body),addition,,2021-08-20T22:45,21
<div id='ast-scroll-top' :not(html):not(body)></div>,###ast-scroll-top:not(html):not(body),addition,,2021-08-20T22:45,22
<div id='back-' :not(html):not(body)></div>,###back-:not(html):not(body),addition,,2021-08-20T22:45,23
<div id='back-to-top-button' :not(html):not(body)></div>,###back-to-top-button:not(html):not(body),addition,,2021-08-20T22:45,24
<div id='back-to-top-button_1-0' :not(html):not(body)></div>,###back-to-top-button_1-0:not(html):not(body),addition,,2021-08-20T22:45,25
<div id='back-to-top' :not(html):not(body)></div>,###back-to-top:not(html):not(body),addition,,2021-08-20T22:45,26
<div id='back2Top' :not(html):not(body)></div>,###back2Top:not(html):not(body),addition,,2021-08-20T22:45,27
<div id='backToTop' :not(html):not(body)></div>,###backToTop:not(html):not(body),addition,,2021-08-20T22:45,28
<div id='backToTopBtn' :not(html):not(body)></div>,###backToTopBtn:not(html):not(body),addition,,2021-08-20T22:45,29
<div id='backToTopDiv' :not(html):not(body)></div>,###backToTopDiv:not(html):not(body),addition,,2021-08-20T22:45,30
<div id='backTop' :not(html):not(body)></div>,###backTop:not(html):not(body),addition,,2021-08-20T22:45,31
<div id='back_to_top' :not(html):not(body)></div>,###back_to_top:not(html):not(body),addition,,2021-08-20T22:45,32
<div id='back_top' :not(html):not(body)></div>,###back_top:not(html):not(body),addition,,2021-08-20T22:45,33
<div id='backtoTop' :not(html):not(body)></div>,###backtoTop:not(html):not(body),addition,,2021-08-20T22:45,34
<div id='backtop' :not(html):not(body)></div>,###backtop:not(html):not(body),addition,,2021-08-20T22:45,35
<div id='backtotop-scroll' :not(html):not(body)></div>,###backtotop-scroll:not(html):not(body),addition,,2021-08-20T22:45,36
<div id='backtotop' :not(html):not(body)></div>,###backtotop:not(html):not(body),addition,,2021-08-20T22:45,37
<div id='backtotopinnercontainer' :not(html):not(body)></div>,###backtotopinnercontainer:not(html):not(body),addition,,2021-08-20T22:45,38
<div id='go-to-top' :not(html):not(body)></div>,###go-to-top:not(html):not(body),addition,,2021-08-20T22:45,39
<div id='go-top-button' :not(html):not(body)></div>,###go-top-button:not(html):not(body),addition,,2021-08-20T22:45,40
<div id='go-top' :not(html):not(body)></div>,###go-top:not(html):not(body),addition,,2021-08-20T22:45,41
<div id='goToTop' :not(html):not(body)></div>,###goToTop:not(html):not(body),addition,,2021-08-20T22:45,42
<div id='goTop' :not(html):not(body)></div>,###goTop:not(html):not(body),addition,,2021-08-20T22:45,43
<div id='go_top' :not(html):not(body)></div>,###go_top:not(html):not(body),addition,,2021-08-20T22:45,44
<div id='gotoTop' :not(html):not(body)></div>,###gotoTop:not(html):not(body),addition,,2021-08-20T22:45,45
<div id='gotop' :not(html):not(body)></div>,###gotop:not(html):not(body),addition,,2021-08-20T22:45,46
<div id='gototop' :not(html):not(body)></div>,###gototop:not(html):not(body),addition,,2021-08-20T22:45,47
<div id='gp-to-top' :not(html):not(body)></div>,###gp-to-top:not(html):not(body),addition,,2021-08-20T22:45,48
<div id='jGoTop' :not(html):not(body)></div>,###jGoTop:not(html):not(body),addition,,2021-08-20T22:45,49
<div class='get-to-top' :not(html):not(body)></div>,##.get-to-top:not(html):not(body),addition,,2021-08-20T22:45,50
<div class='go-to-top' :not(html):not(body)></div>,##.go-to-top:not(html):not(body),addition,,2021-08-20T22:45,51
<div class='go-top' :not(html):not(body)></div>,##.go-top:not(html):not(body),addition,,2021-08-20T22:45,52
<div class='go-up' :not(html):not(body)></div>,##.go-up:not(html):not(body),addition,,2021-08-20T22:45,53
<div class='goToTop' :not(html):not(body)></div>,##.goToTop:not(html):not(body),addition,,2021-08-20T22:45,54
<div class='gotop-btn' :not(html):not(body)></div>,##.gotop-btn:not(html):not(body),addition,,2021-08-20T22:45,55
<div class='gotop' :not(html):not(body)></div>,##.gotop:not(html):not(body),addition,,2021-08-20T22:45,56
<div class='gototop' :not(html):not(body)></div>,##.gototop:not(html):not(body),addition,,2021-08-20T22:45,57
<div id='BackToTop' ></div>,###BackToTop,deletion,,2021-08-20T22:45,58
<div id='BackToTopBtn' ></div>,###BackToTopBtn,deletion,,2021-08-20T22:45,59
<div id='BacktoTop' ></div>,###BacktoTop,deletion,,2021-08-20T22:45,60
<div id='GoUpWrapper' ></div>,###GoUpWrapper,deletion,,2021-08-20T22:45,61
<div id='ast-scroll-top' ></div>,###ast-scroll-top,deletion,,2021-08-20T22:45,62
<div id='back-to-top' ></div>,###back-to-top,deletion,,2021-08-20T22:45,63
<div id='back-to-top-button' ></div>,###back-to-top-button,deletion,,2021-08-20T22:45,64
<div id='back-to-top-button_1-0' ></div>,###back-to-top-button_1-0,deletion,,2021-08-20T22:45,65
<div id='back-top' ></div>,###back-top,deletion,,2021-08-20T22:45,66
<div id='back2Top' ></div>,###back2Top,deletion,,2021-08-20T22:45,67
<div id='backToTop' ></div>,###backToTop,deletion,,2021-08-20T22:45,68
<div id='backToTopBtn' ></div>,###backToTopBtn,deletion,,2021-08-20T22:45,69
<div id='backToTopDiv' ></div>,###backToTopDiv,deletion,,2021-08-20T22:45,70
<div id='backTop' ></div>,###backTop,deletion,,2021-08-20T22:45,71
<div id='back_to_top' ></div>,###back_to_top,deletion,,2021-08-20T22:45,72
<div id='back_top' ></div>,###back_top,deletion,,2021-08-20T22:45,73
<div id='backtoTop' ></div>,###backtoTop,deletion,,2021-08-20T22:45,74
<div id='backtop' ></div>,###backtop,deletion,,2021-08-20T22:45,75
<div id='backtotop' ></div>,###backtotop,deletion,,2021-08-20T22:45,76
<div id='backtotop-scroll' ></div>,###backtotop-scroll,deletion,,2021-08-20T22:45,77
<div id='backtotopinnercontainer' ></div>,###backtotopinnercontainer,deletion,,2021-08-20T22:45,78
<div id='go-to-top' ></div>,###go-to-top,deletion,,2021-08-20T22:45,79
<div id='go-top' ></div>,###go-top,deletion,,2021-08-20T22:45,80
<div id='go-top-button' ></div>,###go-top-button,deletion,,2021-08-20T22:45,81
<div id='goToTop' ></div>,###goToTop,deletion,,2021-08-20T22:45,82
<div id='goTop' ></div>,###goTop,deletion,,2021-08-20T22:45,83
<div id='go_top' ></div>,###go_top,deletion,,2021-08-20T22:45,84
<div id='gotoTop' ></div>,###gotoTop,deletion,,2021-08-20T22:45,85
<div id='gotop' ></div>,###gotop,deletion,,2021-08-20T22:45,86
<div id='gototop' ></div>,###gototop,deletion,,2021-08-20T22:45,87
<div id='gp-to-top' ></div>,###gp-to-top,deletion,,2021-08-20T22:45,88
<div id='jGoTop' ></div>,###jGoTop,deletion,,2021-08-20T22:45,89
<div class='get-to-top' ></div>,##.get-to-top,deletion,,2021-08-20T22:45,90
<div class='go-to-top' ></div>,##.go-to-top,deletion,,2021-08-20T22:45,91
<div class='go-top' ></div>,##.go-top,deletion,,2021-08-20T22:45,92
<div class='go-up' ></div>,##.go-up,deletion,,2021-08-20T22:45,93
<div class='goToTop' ></div>,##.goToTop,deletion,,2021-08-20T22:45,94
<div class='gotop' ></div>,##.gotop,deletion,,2021-08-20T22:45,95
<div class='gotop-btn' ></div>,##.gotop-btn,deletion,,2021-08-20T22:45,96
<div class='gototop' ></div>,##.gototop,deletion,,2021-08-20T22:45,97
,pocketnet.app#@#.shares,addition,,2021-08-26T19:41,98
,deadline.com#@#.social-share,addition,,2021-09-14T22:24,99
,codelearn.io#@#.sharing,addition,,2021-09-07T15:09,100
,"gcnlive.com,guildwars2.com#@##backtotop:not(html):not(body)",addition,,2021-09-21T23:09,101
,ysl.com#@##backToTop:not(html):not(body),addition,,2021-09-21T23:09,102
,gcnlive.com#@##backtotop,deletion,,2021-09-21T23:09,103
,ysl.com#@##backToTop,deletion,,2021-09-21T23:09,104
,"birminghammail.co.uk,bristolpost.co.uk,business-live.co.uk,chroniclelive.co.uk,coventrytelegraph.net,dailypost.co.uk,dailyrecord.co.uk,dailystar.co.uk,derbytelegraph.co.uk,devonlive.com,examinerlive.co.uk,gazettelive.co.uk,glasgowlive.co.uk,hulldailymail.co.uk,lancs.live,leicestermercury.co.uk,liverpoolecho.co.uk,manchestereveningnews.co.uk,mirror.co.uk,mylondon.news,nottinghampost.com,plymouthherald.co.uk,walesonline.co.uk#@##share-top",addition,,2021-09-15T17:50,105
<div id='scroll-to-top' :not(html):not(body)></div>,###scroll-to-top:not(html):not(body),addition,,2021-09-21T23:24,106
<div id='scroll-top-btn' :not(html):not(body)></div>,###scroll-top-btn:not(html):not(body),addition,,2021-09-21T23:24,107
<div id='scroll-top-link' :not(html):not(body)></div>,###scroll-top-link:not(html):not(body),addition,,2021-09-21T23:24,108
<div id='scroll-up' :not(html):not(body)></div>,###scroll-up:not(html):not(body),addition,,2021-09-21T23:24,109
<div id='scrollToTop' :not(html):not(body)></div>,###scrollToTop:not(html):not(body),addition,,2021-09-21T23:24,110
<div id='scrollToTopBtn' :not(html):not(body)></div>,###scrollToTopBtn:not(html):not(body),addition,,2021-09-21T23:24,111
<div id='scrollTopBtn' :not(html):not(body)></div>,###scrollTopBtn:not(html):not(body),addition,,2021-09-21T23:24,112
<div id='scrollUp' :not(html):not(body)></div>,###scrollUp:not(html):not(body),addition,,2021-09-21T23:24,113
<div id='scroll_to_top' :not(html):not(body)></div>,###scroll_to_top:not(html):not(body),addition,,2021-09-21T23:24,114
<div id='scroll_totop' :not(html):not(body)></div>,###scroll_totop:not(html):not(body),addition,,2021-09-21T23:24,115
<div id='scrolltop' :not(html):not(body)></div>,###scrolltop:not(html):not(body),addition,,2021-09-21T23:24,116
<div id='scrolltotop' :not(html):not(body)></div>,###scrolltotop:not(html):not(body),addition,,2021-09-21T23:24,117
<div id='scrollup' :not(html):not(body)></div>,###scrollup:not(html):not(body),addition,,2021-09-21T23:24,118
<div class='arrow-up' :not(html):not(body)></div>,##.arrow-up:not(html):not(body),addition,,2021-09-21T23:24,119
<div class='pageup-btn' :not(html):not(body)></div>,##.pageup-btn:not(html):not(body),addition,,2021-09-21T23:24,120
<div class='scroll-to-bottom' :not(html):not(body)></div>,##.scroll-to-bottom:not(html):not(body),addition,,2021-09-21T23:24,121
<div class='scroll-to-top-btn' :not(html):not(body)></div>,##.scroll-to-top-btn:not(html):not(body),addition,,2021-09-21T23:24,122
<div class='scroll-to-top' :not(html):not(body)></div>,##.scroll-to-top:not(html):not(body),addition,,2021-09-21T23:24,123
<div class='scroll-top-action' :not(html):not(body)></div>,##.scroll-top-action:not(html):not(body),addition,,2021-09-21T23:24,124
<div class='scroll-top-link' :not(html):not(body)></div>,##.scroll-top-link:not(html):not(body),addition,,2021-09-21T23:24,125
<div class='scroll-top-wrapper' :not(html):not(body)></div>,##.scroll-top-wrapper:not(html):not(body),addition,,2021-09-21T23:24,126
<div class='scroll-up-btn' :not(html):not(body)></div>,##.scroll-up-btn:not(html):not(body),addition,,2021-09-21T23:24,127
<div class='scrollToTop' :not(html):not(body)></div>,##.scrollToTop:not(html):not(body),addition,,2021-09-21T23:24,128
<div class='scrollTo_top' :not(html):not(body)></div>,##.scrollTo_top:not(html):not(body),addition,,2021-09-21T23:24,129
<div class='scrollTop-btn' :not(html):not(body)></div>,##.scrollTop-btn:not(html):not(body),addition,,2021-09-21T23:24,130
<div class='scrollTop' :not(html):not(body)></div>,##.scrollTop:not(html):not(body),addition,,2021-09-21T23:24,131
<div class='scroll_to_top' :not(html):not(body)></div>,##.scroll_to_top:not(html):not(body),addition,,2021-09-21T23:24,132
<div class='scrolltofixed' :not(html):not(body)></div>,##.scrolltofixed:not(html):not(body),addition,,2021-09-21T23:24,133
<div class='scrolltop' :not(html):not(body)></div>,##.scrolltop:not(html):not(body),addition,,2021-09-21T23:24,134
<div class='scrolltotop' :not(html):not(body)></div>,##.scrolltotop:not(html):not(body),addition,,2021-09-21T23:24,135
<div class='to-top-arrow' :not(html):not(body)></div>,##.to-top-arrow:not(html):not(body),addition,,2021-09-21T23:24,136
<div class='to-top-container' :not(html):not(body)></div>,##.to-top-container:not(html):not(body),addition,,2021-09-21T23:24,137
<div class='to-top-nav' :not(html):not(body)></div>,##.to-top-nav:not(html):not(body),addition,,2021-09-21T23:24,138
<div class='to-top' :not(html):not(body)></div>,##.to-top:not(html):not(body),addition,,2021-09-21T23:24,139
<div class='up-btn' :not(html):not(body)></div>,##.up-btn:not(html):not(body),addition,,2021-09-21T23:24,140
,brockhaus.de#@#.scrollup:not(html):not(body),addition,,2021-09-21T23:24,141
,"businessinsider.com,ruqqus.com,williamhill.com#@#.arrow-up:not(html):not(body)",addition,,2021-09-21T23:24,142
,"congee.pl,domenasportowa.pl#@#.scrollTop:not(html):not(body)",addition,,2021-09-21T23:24,143
,disconnect.me#@#.go-top:not(html):not(body),addition,,2021-09-21T23:24,144
,elmir.ua#@#.to-top:not(html):not(body),addition,,2021-09-21T23:24,145
,"enbridgegas.com,nature.com,toptenreviews.com#@##back-to-top:not(html):not(body)",addition,,2021-09-21T23:24,146
,finanzen100.de#@##scroll-top:not(html):not(body),addition,,2021-09-21T23:24,147
,hotdeals.com#@##go_top:not(html):not(body),addition,,2021-09-21T23:24,148
,"medallia.com,theben.de#@##scrollTop:not(html):not(body)",addition,,2021-09-21T23:24,149
,mercopress.com#@##goToTop:not(html):not(body),addition,,2021-09-21T23:24,150
,naver.com#@##goTop:not(html):not(body),addition,,2021-09-21T23:24,151
,readmng.com#@#.scroll_to_top:not(html):not(body),addition,,2021-09-21T23:24,152
,rmf24.pl#@##backTop:not(html):not(body),addition,,2021-09-21T23:24,153
,tampabay.com#@#.scrolltop:not(html):not(body),addition,,2021-09-21T23:24,154
,upwork.com#@#.up-btn:not(html):not(body),addition,,2021-09-21T23:24,155
<div id='scroll-to-top' ></div>,###scroll-to-top,deletion,,2021-09-21T23:24,156
<div id='scroll-top-btn' ></div>,###scroll-top-btn,deletion,,2021-09-21T23:24,157
<div id='scroll-top-link' ></div>,###scroll-top-link,deletion,,2021-09-21T23:24,158
<div id='scroll-up' ></div>,###scroll-up,deletion,,2021-09-21T23:24,159
<div id='scrollToTop' ></div>,###scrollToTop,deletion,,2021-09-21T23:24,160
<div id='scrollToTopBtn' ></div>,###scrollToTopBtn,deletion,,2021-09-21T23:24,161
<div id='scrollTopBtn' ></div>,###scrollTopBtn,deletion,,2021-09-21T23:24,162
<div id='scrollUp' ></div>,###scrollUp,deletion,,2021-09-21T23:24,163
<div id='scroll_to_top' ></div>,###scroll_to_top,deletion,,2021-09-21T23:24,164
<div id='scroll_totop' ></div>,###scroll_totop,deletion,,2021-09-21T23:24,165
<div id='scrolltop' ></div>,###scrolltop,deletion,,2021-09-21T23:24,166
<div id='scrolltotop' ></div>,###scrolltotop,deletion,,2021-09-21T23:24,167
<div id='scrollup' ></div>,###scrollup,deletion,,2021-09-21T23:24,168
<div class='arrow-up' ></div>,##.arrow-up,deletion,,2021-09-21T23:24,169
<div class='pageup-btn' ></div>,##.pageup-btn,deletion,,2021-09-21T23:24,170
<div class='scroll-to-bottom' ></div>,##.scroll-to-bottom,deletion,,2021-09-21T23:24,171
<div class='scroll-to-top' ></div>,##.scroll-to-top,deletion,,2021-09-21T23:24,172
<div class='scroll-to-top-btn' ></div>,##.scroll-to-top-btn,deletion,,2021-09-21T23:24,173
<div class='scroll-top-action' ></div>,##.scroll-top-action,deletion,,2021-09-21T23:24,174
<div class='scroll-top-link' ></div>,##.scroll-top-link,deletion,,2021-09-21T23:24,175
<div class='scroll-top-wrapper' ></div>,##.scroll-top-wrapper,deletion,,2021-09-21T23:24,176
<div class='scroll-up-btn' ></div>,##.scroll-up-btn,deletion,,2021-09-21T23:24,177
<div class='scrollToTop' ></div>,##.scrollToTop,deletion,,2021-09-21T23:24,178
<div class='scrollTo_top' ></div>,##.scrollTo_top,deletion,,2021-09-21T23:24,179
<div class='scrollTop' ></div>,##.scrollTop,deletion,,2021-09-21T23:24,180
<div class='scrollTop-btn' ></div>,##.scrollTop-btn,deletion,,2021-09-21T23:24,181
<div class='scroll_to_top' ></div>,##.scroll_to_top,deletion,,2021-09-21T23:24,182
<div class='scrolltofixed' ></div>,##.scrolltofixed,deletion,,2021-09-21T23:24,183
<div class='scrolltop' ></div>,##.scrolltop,deletion,,2021-09-21T23:24,184
<div class='scrolltotop' ></div>,##.scrolltotop,deletion,,2021-09-21T23:24,185
<div class='to-top' ></div>,##.to-top,deletion,,2021-09-21T23:24,186
<div class='to-top-arrow' ></div>,##.to-top-arrow,deletion,,2021-09-21T23:24,187
<div class='to-top-container' ></div>,##.to-top-container,deletion,,2021-09-21T23:24,188
<div class='to-top-nav' ></div>,##.to-top-nav,deletion,,2021-09-21T23:24,189
<div class='up-btn' ></div>,##.up-btn,deletion,,2021-09-21T23:24,190
,brockhaus.de#@#.scrollup,deletion,,2021-09-21T23:24,191
,"businessinsider.com,ruqqus.com,williamhill.com#@#.arrow-up",deletion,,2021-09-21T23:24,192
,"congee.pl,domenasportowa.pl#@#.scrollTop",deletion,,2021-09-21T23:24,193
,disconnect.me#@#.go-top,deletion,,2021-09-21T23:24,194
,elmir.ua#@#.to-top,deletion,,2021-09-21T23:24,195
,"enbridgegas.com,nature.com,toptenreviews.com#@##back-to-top",deletion,,2021-09-21T23:24,196
,finanzen100.de#@##scroll-top,deletion,,2021-09-21T23:24,197
,google.com#@#.top-link,deletion,,2021-09-21T23:24,198
,hotdeals.com#@##go_top,deletion,,2021-09-21T23:24,199
,"medallia.com,theben.de#@##scrollTop",deletion,,2021-09-21T23:24,200
,mercopress.com#@##goToTop,deletion,,2021-09-21T23:24,201
,naver.com#@##goTop,deletion,,2021-09-21T23:24,202
,readmng.com#@#.scroll_to_top,deletion,,2021-09-21T23:24,203
,rmf24.pl#@##backTop,deletion,,2021-09-21T23:24,204
,tampabay.com#@#.scrolltop,deletion,,2021-09-21T23:24,205
,upwork.com#@#.up-btn,deletion,,2021-09-21T23:24,206
,"mindmeister.com,researchgate.net,yelp.com#@#.signup-wrapper",addition,,2021-09-28T16:38,207
,"researchgate.net,yelp.com#@#.signup-wrapper",deletion,,2021-09-28T16:38,208
,"metro.co.uk,moneyunder30.com#@#.social-media-buttons",addition,,2021-10-21T18:24,209
,moneyunder30.com#@#.social-media-buttons,deletion,,2021-10-21T18:24,210
<div id='auto-top-link' :not(html):not(body)></div>,###auto-top-link:not(html):not(body),addition,,2021-10-27T20:11,211
<div id='cb-to-top' :not(html):not(body)></div>,###cb-to-top:not(html):not(body),addition,,2021-10-27T20:11,212
<div id='dynamic-to-top' :not(html):not(body)></div>,###dynamic-to-top:not(html):not(body),addition,,2021-10-27T20:11,213
<div id='eltd-back-to-top' :not(html):not(body)></div>,###eltd-back-to-top:not(html):not(body),addition,,2021-10-27T20:11,214
<div id='fl-to-top' :not(html):not(body)></div>,###fl-to-top:not(html):not(body),addition,,2021-10-27T20:11,215
<div id='gb-button-to-top' :not(html):not(body)></div>,###gb-button-to-top:not(html):not(body),addition,,2021-10-27T20:11,216
<div id='js-back-to-top' :not(html):not(body)></div>,###js-back-to-top:not(html):not(body),addition,,2021-10-27T20:11,217
<div id='js-page-to-top' :not(html):not(body)></div>,###js-page-to-top:not(html):not(body),addition,,2021-10-27T20:11,218
<div id='mkdf-back-to-top' :not(html):not(body)></div>,###mkdf-back-to-top:not(html):not(body),addition,,2021-10-27T20:11,219
<div id='mod-back-to-top-1' :not(html):not(body)></div>,###mod-back-to-top-1:not(html):not(body),addition,,2021-10-27T20:11,220
<div id='move-to-top' :not(html):not(body)></div>,###move-to-top:not(html):not(body),addition,,2021-10-27T20:11,221
<div id='moveToTop' :not(html):not(body)></div>,###moveToTop:not(html):not(body),addition,,2021-10-27T20:11,222
<div id='responsive-back-to-top' :not(html):not(body)></div>,###responsive-back-to-top:not(html):not(body),addition,,2021-10-27T20:11,223
<div id='return-to-top' :not(html):not(body)></div>,###return-to-top:not(html):not(body),addition,,2021-10-27T20:11,224
<div class='b-back-to-top' :not(html):not(body)></div>,##.b-back-to-top:not(html):not(body),addition,,2021-10-27T20:11,225
<div class='back-to-top-is-visible' :not(html):not(body)></div>,##.back-to-top-is-visible:not(html):not(body),addition,,2021-10-27T20:11,226
<div class='back-to-top-outer' :not(html):not(body)></div>,##.back-to-top-outer:not(html):not(body),addition,,2021-10-27T20:11,227
<div class='back-to-top-theme' :not(html):not(body)></div>,##.back-to-top-theme:not(html):not(body),addition,,2021-10-27T20:11,228
<div class='back-to-top-wrapper' :not(html):not(body)></div>,##.back-to-top-wrapper:not(html):not(body),addition,,2021-10-27T20:11,229
<div class='back-to-top' :not(html):not(body)></div>,##.back-to-top:not(html):not(body),addition,,2021-10-27T20:11,230
<div class='back-to-top_button' :not(html):not(body)></div>,##.back-to-top_button:not(html):not(body),addition,,2021-10-27T20:11,231
<div class='back-top' :not(html):not(body)></div>,##.back-top:not(html):not(body),addition,,2021-10-27T20:11,232
<div class='back2top' :not(html):not(body)></div>,##.back2top:not(html):not(body),addition,,2021-10-27T20:11,233
<div class='backToTop' :not(html):not(body)></div>,##.backToTop:not(html):not(body),addition,,2021-10-27T20:11,234
<div class='backToTopButton' :not(html):not(body)></div>,##.backToTopButton:not(html):not(body),addition,,2021-10-27T20:11,235
<div class='backToTopContainer' :not(html):not(body)></div>,##.backToTopContainer:not(html):not(body),addition,,2021-10-27T20:11,236
<div class='back_to_top' :not(html):not(body)></div>,##.back_to_top:not(html):not(body),addition,,2021-10-27T20:11,237
<div class='backtop' :not(html):not(body)></div>,##.backtop:not(html):not(body),addition,,2021-10-27T20:11,238
<div class='backtopbutton' :not(html):not(body)></div>,##.backtopbutton:not(html):not(body),addition,,2021-10-27T20:11,239
<div class='backtotop' :not(html):not(body)></div>,##.backtotop:not(html):not(body),addition,,2021-10-27T20:11,240
<div class='body-btn-top' :not(html):not(body)></div>,##.body-btn-top:not(html):not(body),addition,,2021-10-27T20:11,241
<div class='btn--move-to-top' :not(html):not(body)></div>,##.btn--move-to-top:not(html):not(body),addition,,2021-10-27T20:11,242
<div class='btn-backtop' :not(html):not(body)></div>,##.btn-backtop:not(html):not(body),addition,,2021-10-27T20:11,243
<div class='btn-go-top' :not(html):not(body)></div>,##.btn-go-top:not(html):not(body),addition,,2021-10-27T20:11,244
<div class='btnUp' :not(html):not(body)></div>,##.btnUp:not(html):not(body),addition,,2021-10-27T20:11,245
<div class='corner-to-top' :not(html):not(body)></div>,##.corner-to-top:not(html):not(body),addition,,2021-10-27T20:11,246
<div class='g1-back-to-top' :not(html):not(body)></div>,##.g1-back-to-top:not(html):not(body),addition,,2021-10-27T20:11,247
<div class='generate-back-to-top' :not(html):not(body)></div>,##.generate-back-to-top:not(html):not(body),addition,,2021-10-27T20:11,248
<div class='hestia-scroll-to-top' :not(html):not(body)></div>,##.hestia-scroll-to-top:not(html):not(body),addition,,2021-10-27T20:11,249
<div class='js-back-to-top' :not(html):not(body)></div>,##.js-back-to-top:not(html):not(body),addition,,2021-10-27T20:11,250
<div class='js-go-to-top-wrap' :not(html):not(body)></div>,##.js-go-to-top-wrap:not(html):not(body),addition,,2021-10-27T20:11,251
<div class='js-scroll-to-top-button' :not(html):not(body)></div>,##.js-scroll-to-top-button:not(html):not(body),addition,,2021-10-27T20:11,252
<div class='js-scroll-top' :not(html):not(body)></div>,##.js-scroll-top:not(html):not(body),addition,,2021-10-27T20:11,253
<div class='jscroll-to-top_link' :not(html):not(body)></div>,##.jscroll-to-top_link:not(html):not(body),addition,,2021-10-27T20:11,254
<div class='jump-to-top' :not(html):not(body)></div>,##.jump-to-top:not(html):not(body),addition,,2021-10-27T20:11,255
<div class='mh-back-to-top' :not(html):not(body)></div>,##.mh-back-to-top:not(html):not(body),addition,,2021-10-27T20:11,256
<div class='mvp-to-top' .back-to-top.mvp-fly-top:not(html):not(body)></div>,##.mvp-to-top.back-to-top.mvp-fly-top:not(html):not(body),addition,,2021-10-27T20:11,257
<div class='mvp-to-top' :not(html):not(body)></div>,##.mvp-to-top:not(html):not(body),addition,,2021-10-27T20:11,258
<div class='penci-go-to-top-floating' :not(html):not(body)></div>,##.penci-go-to-top-floating:not(html):not(body),addition,,2021-10-27T20:11,259
<div class='rm-to-top' :not(html):not(body)></div>,##.rm-to-top:not(html):not(body),addition,,2021-10-27T20:11,260
<div class='scroll-back-to-top-wrapper' :not(html):not(body)></div>,##.scroll-back-to-top-wrapper:not(html):not(body),addition,,2021-10-27T20:11,261
<div class='sf-back-to-top' :not(html):not(body)></div>,##.sf-back-to-top:not(html):not(body),addition,,2021-10-27T20:11,262
<div class='sg-back-to-top' :not(html):not(body)></div>,##.sg-back-to-top:not(html):not(body),addition,,2021-10-27T20:11,263
<div class='sh-back-to-top' :not(html):not(body)></div>,##.sh-back-to-top:not(html):not(body),addition,,2021-10-27T20:11,264
<div class='sp-back-to-top' :not(html):not(body)></div>,##.sp-back-to-top:not(html):not(body),addition,,2021-10-27T20:11,265
<div class='ui-to-top' :not(html):not(body)></div>,##.ui-to-top:not(html):not(body),addition,,2021-10-27T20:11,266
<div class='wa-back-to-top' :not(html):not(body)></div>,##.wa-back-to-top:not(html):not(body),addition,,2021-10-27T20:11,267
<ss-scroll-to-top:not(html):not(body)></ss-scroll-to-top>,##ss-scroll-to-top:not(html):not(body),addition,,2021-10-27T20:11,268
<div id='auto-top-link' ></div>,###auto-top-link,deletion,,2021-10-27T20:11,269
<div id='cb-to-top' ></div>,###cb-to-top,deletion,,2021-10-27T20:11,270
<div id='dynamic-to-top' ></div>,###dynamic-to-top,deletion,,2021-10-27T20:11,271
<div id='eltd-back-to-top' ></div>,###eltd-back-to-top,deletion,,2021-10-27T20:11,272
<div id='fl-to-top' ></div>,###fl-to-top,deletion,,2021-10-27T20:11,273
<div id='gb-button-to-top' ></div>,###gb-button-to-top,deletion,,2021-10-27T20:11,274
<div id='js-back-to-top' ></div>,###js-back-to-top,deletion,,2021-10-27T20:11,275
<div id='js-page-to-top' ></div>,###js-page-to-top,deletion,,2021-10-27T20:11,276
<div id='mkdf-back-to-top' ></div>,###mkdf-back-to-top,deletion,,2021-10-27T20:11,277
<div id='mod-back-to-top-1' ></div>,###mod-back-to-top-1,deletion,,2021-10-27T20:11,278
<div id='move-to-top' ></div>,###move-to-top,deletion,,2021-10-27T20:11,279
<div id='moveToTop' ></div>,###moveToTop,deletion,,2021-10-27T20:11,280
<div id='responsive-back-to-top' ></div>,###responsive-back-to-top,deletion,,2021-10-27T20:11,281
<div id='return-to-top' ></div>,###return-to-top,deletion,,2021-10-27T20:11,282
<div class='b-back-to-top' ></div>,##.b-back-to-top,deletion,,2021-10-27T20:11,283
<div class='back-to-top' ></div>,##.back-to-top,deletion,,2021-10-27T20:11,284
<div class='back-to-top-is-visible' ></div>,##.back-to-top-is-visible,deletion,,2021-10-27T20:11,285
<div class='back-to-top-outer' ></div>,##.back-to-top-outer,deletion,,2021-10-27T20:11,286
<div class='back-to-top-theme' ></div>,##.back-to-top-theme,deletion,,2021-10-27T20:11,287
<div class='back-to-top-wrapper' ></div>,##.back-to-top-wrapper,deletion,,2021-10-27T20:11,288
<div class='back-to-top_button' ></div>,##.back-to-top_button,deletion,,2021-10-27T20:11,289
<div class='back-top' ></div>,##.back-top,deletion,,2021-10-27T20:11,290
<div class='back2top' ></div>,##.back2top,deletion,,2021-10-27T20:11,291
<div class='backToTop' ></div>,##.backToTop,deletion,,2021-10-27T20:11,292
<div class='backToTopButton' ></div>,##.backToTopButton,deletion,,2021-10-27T20:11,293
<div class='backToTopContainer' ></div>,##.backToTopContainer,deletion,,2021-10-27T20:11,294
<div class='back_to_top' ></div>,##.back_to_top,deletion,,2021-10-27T20:11,295
<div class='backtop' ></div>,##.backtop,deletion,,2021-10-27T20:11,296
<div class='backtopbutton' ></div>,##.backtopbutton,deletion,,2021-10-27T20:11,297
<div class='backtotop' ></div>,##.backtotop,deletion,,2021-10-27T20:11,298
<div class='body-btn-top' ></div>,##.body-btn-top,deletion,,2021-10-27T20:11,299
<div class='btn--move-to-top' ></div>,##.btn--move-to-top,deletion,,2021-10-27T20:11,300
<div class='btn-backtop' ></div>,##.btn-backtop,deletion,,2021-10-27T20:11,301
<div class='btn-go-top' ></div>,##.btn-go-top,deletion,,2021-10-27T20:11,302
<div class='btnUp' ></div>,##.btnUp,deletion,,2021-10-27T20:11,303
<div class='corner-to-top' ></div>,##.corner-to-top,deletion,,2021-10-27T20:11,304
<div class='g1-back-to-top' ></div>,##.g1-back-to-top,deletion,,2021-10-27T20:11,305
<div class='generate-back-to-top' ></div>,##.generate-back-to-top,deletion,,2021-10-27T20:11,306
<div class='hestia-scroll-to-top' ></div>,##.hestia-scroll-to-top,deletion,,2021-10-27T20:11,307
<div class='js-back-to-top' ></div>,##.js-back-to-top,deletion,,2021-10-27T20:11,308
<div class='js-go-to-top-wrap' ></div>,##.js-go-to-top-wrap,deletion,,2021-10-27T20:11,309
<div class='js-scroll-to-top-button' ></div>,##.js-scroll-to-top-button,deletion,,2021-10-27T20:11,310
<div class='js-scroll-top' ></div>,##.js-scroll-top,deletion,,2021-10-27T20:11,311
<div class='jscroll-to-top_link' ></div>,##.jscroll-to-top_link,deletion,,2021-10-27T20:11,312
<div class='jump-to-top' ></div>,##.jump-to-top,deletion,,2021-10-27T20:11,313
<div class='mh-back-to-top' ></div>,##.mh-back-to-top,deletion,,2021-10-27T20:11,314
<div class='mvp-to-top' ></div>,##.mvp-to-top,deletion,,2021-10-27T20:11,315
<div class='mvp-to-top' .back-to-top.mvp-fly-top></div>,##.mvp-to-top.back-to-top.mvp-fly-top,deletion,,2021-10-27T20:11,316
<div class='penci-go-to-top-floating' ></div>,##.penci-go-to-top-floating,deletion,,2021-10-27T20:11,317
<div class='rm-to-top' ></div>,##.rm-to-top,deletion,,2021-10-27T20:11,318
<div class='scroll-back-to-top-wrapper' ></div>,##.scroll-back-to-top-wrapper,deletion,,2021-10-27T20:11,319
<div class='sf-back-to-top' ></div>,##.sf-back-to-top,deletion,,2021-10-27T20:11,320
<div class='sg-back-to-top' ></div>,##.sg-back-to-top,deletion,,2021-10-27T20:11,321
<div class='sh-back-to-top' ></div>,##.sh-back-to-top,deletion,,2021-10-27T20:11,322
<div class='sp-back-to-top' ></div>,##.sp-back-to-top,deletion,,2021-10-27T20:11,323
<div class='wa-back-to-top' ></div>,##.wa-back-to-top,deletion,,2021-10-27T20:11,324
<ss-scroll-to-top></ss-scroll-to-top>,##ss-scroll-to-top,deletion,,2021-10-27T20:11,325
,aegeanair.com#@#.js-scroll-top:not(html):not(body),addition,,2021-12-01T20:15,326
,qq.com#@#.scroll-to-top:not(html):not(body),addition,,2021-12-01T20:15,327
,adobe.com#@#.SocialButtons,addition,,2021-12-10T19:27,328
,instapaper.com#@#.fa-facebook,addition,,2021-12-10T19:27,329
,instapaper.com#@#.fa-twitter,addition,,2021-12-10T19:27,330
,instapaper.com#@#.top_button,addition,,2021-12-10T19:27,331
,"cfx.re,discourse.pi-hole.net,flatlooker.com,hub.filterlists.com,onehack.us,pgportal.gov.in#@#.btn-social",addition,,2021-12-07T18:42,332
,"cfx.re,hub.filterlists.com,onehack.us,pgportal.gov.in#@#.btn-social",deletion,,2021-12-07T18:42,333
,discourse.pi-hole.net#@#.btn-social,deletion,,2021-12-07T18:42,334
<div class='mvp-alp-soc-fb' ></div>,##.mvp-alp-soc-fb,addition,,2021-12-13T22:36,335
<div class='mvp-alp-soc-pin' ></div>,##.mvp-alp-soc-pin,addition,,2021-12-13T22:36,336
<div class='mvp-alp-soc-twit' ></div>,##.mvp-alp-soc-twit,addition,,2021-12-13T22:36,337
,"jobstreet.co.id,sorryantivaxxer.com,wix.com#@#.social-login",addition,,2021-12-30T17:34,338
,jobstreet.co.id#@#.social-login,deletion,,2021-12-30T17:34,339
<div class='smart-banner' :not(html):not(body)></div>,##.smart-banner:not(html):not(body),addition,,2022-01-20T19:01,340
<div class='smartbanner' :not(html):not(body)></div>,##.smartbanner:not(html):not(body),addition,,2022-01-20T19:01,341
,"closermag.fr,mbank.cz,obi.ru#@#.smartbanner:not(html):not(body)",addition,,2022-01-20T19:01,342
<div class='smart-banner' ></div>,##.smart-banner,deletion,,2022-01-20T19:01,343
<div class='smartbanner' ></div>,##.smartbanner,deletion,,2022-01-20T19:01,344
,"mbank.cz,obi.ru#@#.smartbanner",deletion,,2022-01-20T19:01,345
