,list,path,output
0,2020-10-07T17:58,data_analysis/Anti-'Christmas_carols'_list/2020-10-07T17:58,output/Anti-'Christmas_carols'_list/2020-10-07T17:58
1,2020-10-07T18:29,data_analysis/Anti-'Christmas_carols'_list/2020-10-07T18:29,output/Anti-'Christmas_carols'_list/2020-10-07T18:29
2,2020-10-07T23:45,data_analysis/Anti-'Christmas_carols'_list/2020-10-07T23:45,output/Anti-'Christmas_carols'_list/2020-10-07T23:45
3,2020-10-31T14:30,data_analysis/Anti-'Christmas_carols'_list/2020-10-31T14:30,output/Anti-'Christmas_carols'_list/2020-10-31T14:30
4,2020-11-08T16:16,data_analysis/Anti-'Christmas_carols'_list/2020-11-08T16:16,output/Anti-'Christmas_carols'_list/2020-11-08T16:16
5,2020-11-25T17:17,data_analysis/Anti-'Christmas_carols'_list/2020-11-25T17:17,output/Anti-'Christmas_carols'_list/2020-11-25T17:17
6,2020-11-25T17:32,data_analysis/Anti-'Christmas_carols'_list/2020-11-25T17:32,output/Anti-'Christmas_carols'_list/2020-11-25T17:32
7,2020-11-25T17:47,data_analysis/Anti-'Christmas_carols'_list/2020-11-25T17:47,output/Anti-'Christmas_carols'_list/2020-11-25T17:47
8,2020-11-26T08:12,data_analysis/Anti-'Christmas_carols'_list/2020-11-26T08:12,output/Anti-'Christmas_carols'_list/2020-11-26T08:12
9,2020-11-26T08:25,data_analysis/Anti-'Christmas_carols'_list/2020-11-26T08:25,output/Anti-'Christmas_carols'_list/2020-11-26T08:25
10,2020-11-26T08:40,data_analysis/Anti-'Christmas_carols'_list/2020-11-26T08:40,output/Anti-'Christmas_carols'_list/2020-11-26T08:40
11,2020-11-26T08:54,data_analysis/Anti-'Christmas_carols'_list/2020-11-26T08:54,output/Anti-'Christmas_carols'_list/2020-11-26T08:54
12,2020-11-26T09:21,data_analysis/Anti-'Christmas_carols'_list/2020-11-26T09:21,output/Anti-'Christmas_carols'_list/2020-11-26T09:21
13,2021-02-12T01:05,data_analysis/Anti-'Christmas_carols'_list/2021-02-12T01:05,output/Anti-'Christmas_carols'_list/2021-02-12T01:05
14,2021-04-02T22:44,data_analysis/Anti-'Christmas_carols'_list/2021-04-02T22:44,output/Anti-'Christmas_carols'_list/2021-04-02T22:44
15,2021-04-04T00:26,data_analysis/Anti-'Christmas_carols'_list/2021-04-04T00:26,output/Anti-'Christmas_carols'_list/2021-04-04T00:26
16,2021-05-05T01:46,data_analysis/Anti-'Christmas_carols'_list/2021-05-05T01:46,output/Anti-'Christmas_carols'_list/2021-05-05T01:46
17,2021-06-02T11:16,data_analysis/Anti-'Christmas_carols'_list/2021-06-02T11:16,output/Anti-'Christmas_carols'_list/2021-06-02T11:16
18,2021-06-08T12:41,data_analysis/Anti-'Christmas_carols'_list/2021-06-08T12:41,output/Anti-'Christmas_carols'_list/2021-06-08T12:41
19,2021-10-06T15:38,data_analysis/Anti-'Christmas_carols'_list/2021-10-06T15:38,output/Anti-'Christmas_carols'_list/2021-10-06T15:38
20,current,data_analysis/Anti-'Christmas_carols'_list/current,output/Anti-'Christmas_carols'_list/current
