,list,path,output
0,2022-03-07T08:15,data_analysis/Liste_FR/2022-03-07T08:15,output/Liste_FR/2022-03-07T08:15
1,2022-03-07T08:29,data_analysis/Liste_FR/2022-03-07T08:29,output/Liste_FR/2022-03-07T08:29
2,2022-03-07T22:13,data_analysis/Liste_FR/2022-03-07T22:13,output/Liste_FR/2022-03-07T22:13
3,2022-03-08T06:31,data_analysis/Liste_FR/2022-03-08T06:31,output/Liste_FR/2022-03-08T06:31
4,2022-03-08T18:31,data_analysis/Liste_FR/2022-03-08T18:31,output/Liste_FR/2022-03-08T18:31
5,2022-03-08T18:45,data_analysis/Liste_FR/2022-03-08T18:45,output/Liste_FR/2022-03-08T18:45
6,2022-03-08T19:42,data_analysis/Liste_FR/2022-03-08T19:42,output/Liste_FR/2022-03-08T19:42
7,2022-03-09T03:15,data_analysis/Liste_FR/2022-03-09T03:15,output/Liste_FR/2022-03-09T03:15
8,2022-03-09T10:03,data_analysis/Liste_FR/2022-03-09T10:03,output/Liste_FR/2022-03-09T10:03
9,2022-03-09T10:17,data_analysis/Liste_FR/2022-03-09T10:17,output/Liste_FR/2022-03-09T10:17
10,2022-03-09T20:27,data_analysis/Liste_FR/2022-03-09T20:27,output/Liste_FR/2022-03-09T20:27
11,2022-03-09T20:42,data_analysis/Liste_FR/2022-03-09T20:42,output/Liste_FR/2022-03-09T20:42
12,2022-03-09T20:56,data_analysis/Liste_FR/2022-03-09T20:56,output/Liste_FR/2022-03-09T20:56
13,2022-03-11T00:44,data_analysis/Liste_FR/2022-03-11T00:44,output/Liste_FR/2022-03-11T00:44
14,2022-03-11T01:27,data_analysis/Liste_FR/2022-03-11T01:27,output/Liste_FR/2022-03-11T01:27
15,2022-03-11T02:37,data_analysis/Liste_FR/2022-03-11T02:37,output/Liste_FR/2022-03-11T02:37
16,2022-03-11T02:51,data_analysis/Liste_FR/2022-03-11T02:51,output/Liste_FR/2022-03-11T02:51
17,2022-03-11T03:05,data_analysis/Liste_FR/2022-03-11T03:05,output/Liste_FR/2022-03-11T03:05
18,2022-03-11T09:11,data_analysis/Liste_FR/2022-03-11T09:11,output/Liste_FR/2022-03-11T09:11
19,2022-03-11T10:06,data_analysis/Liste_FR/2022-03-11T10:06,output/Liste_FR/2022-03-11T10:06
20,2022-03-11T10:21,data_analysis/Liste_FR/2022-03-11T10:21,output/Liste_FR/2022-03-11T10:21
21,2022-03-11T18:55,data_analysis/Liste_FR/2022-03-11T18:55,output/Liste_FR/2022-03-11T18:55
22,2022-03-11T19:23,data_analysis/Liste_FR/2022-03-11T19:23,output/Liste_FR/2022-03-11T19:23
23,2022-03-14T04:17,data_analysis/Liste_FR/2022-03-14T04:17,output/Liste_FR/2022-03-14T04:17
24,current,data_analysis/Liste_FR/current,output/Liste_FR/current
