,list,path,output
0,2020-10-18T01:07,data_analysis/Magno's_Adblock_List/2020-10-18T01:07,output/Magno's_Adblock_List/2020-10-18T01:07
1,2021-02-02T19:31,data_analysis/Magno's_Adblock_List/2021-02-02T19:31,output/Magno's_Adblock_List/2021-02-02T19:31
2,2021-02-10T03:20,data_analysis/Magno's_Adblock_List/2021-02-10T03:20,output/Magno's_Adblock_List/2021-02-10T03:20
3,2021-07-06T00:12,data_analysis/Magno's_Adblock_List/2021-07-06T00:12,output/Magno's_Adblock_List/2021-07-06T00:12
4,current,data_analysis/Magno's_Adblock_List/current,output/Magno's_Adblock_List/current
