,list,path,output
0,2021-06-08T12:29,data_analysis/Nano_Defender_Integration/2021-06-08T12:29,output/Nano_Defender_Integration/2021-06-08T12:29
1,2021-06-08T12:58,data_analysis/Nano_Defender_Integration/2021-06-08T12:58,output/Nano_Defender_Integration/2021-06-08T12:58
2,2021-10-15T08:04,data_analysis/Nano_Defender_Integration/2021-10-15T08:04,output/Nano_Defender_Integration/2021-10-15T08:04
3,current,data_analysis/Nano_Defender_Integration/current,output/Nano_Defender_Integration/current
