,list,path,output
0,2020-10-06T15:07,data_analysis/Anti-Skype_List_for_Office_Online/2020-10-06T15:07,output/Anti-Skype_List_for_Office_Online/2020-10-06T15:07
1,2020-10-14T22:42,data_analysis/Anti-Skype_List_for_Office_Online/2020-10-14T22:42,output/Anti-Skype_List_for_Office_Online/2020-10-14T22:42
2,2020-10-31T14:30,data_analysis/Anti-Skype_List_for_Office_Online/2020-10-31T14:30,output/Anti-Skype_List_for_Office_Online/2020-10-31T14:30
3,2020-11-08T16:16,data_analysis/Anti-Skype_List_for_Office_Online/2020-11-08T16:16,output/Anti-Skype_List_for_Office_Online/2020-11-08T16:16
4,2021-02-12T01:05,data_analysis/Anti-Skype_List_for_Office_Online/2021-02-12T01:05,output/Anti-Skype_List_for_Office_Online/2021-02-12T01:05
5,2021-04-02T22:44,data_analysis/Anti-Skype_List_for_Office_Online/2021-04-02T22:44,output/Anti-Skype_List_for_Office_Online/2021-04-02T22:44
6,2021-05-05T01:46,data_analysis/Anti-Skype_List_for_Office_Online/2021-05-05T01:46,output/Anti-Skype_List_for_Office_Online/2021-05-05T01:46
7,2021-06-08T12:55,data_analysis/Anti-Skype_List_for_Office_Online/2021-06-08T12:55,output/Anti-Skype_List_for_Office_Online/2021-06-08T12:55
8,current,data_analysis/Anti-Skype_List_for_Office_Online/current,output/Anti-Skype_List_for_Office_Online/current
