,list,path,output
0,2020-11-20T01:02,data_analysis/Haykam's_MMO_List/2020-11-20T01:02,output/Haykam's_MMO_List/2020-11-20T01:02
1,2021-06-08T12:57,data_analysis/Haykam's_MMO_List/2021-06-08T12:57,output/Haykam's_MMO_List/2021-06-08T12:57
2,2021-10-15T08:04,data_analysis/Haykam's_MMO_List/2021-10-15T08:04,output/Haykam's_MMO_List/2021-10-15T08:04
3,current,data_analysis/Haykam's_MMO_List/current,output/Haykam's_MMO_List/current
