test,entry,type,lists,name,id
,gelbooru.com##.contain-push a[href*='tdForward.php'],addition,,2020-11-04T07:58,0
,gelbooru.com##.contain-push a:has(img[src*='thedoujin']),addition,,2020-11-04T07:58,1
,"||gelbooru.com/thedoujin*$image,other",addition,,2020-11-04T07:58,2
,"@@/script/application.js?$script,domain=gelbooru.com",addition,,2020-11-04T07:58,3
,"@@/script/application.js|$script,domain=gelbooru.com",addition,,2020-11-04T07:58,4
,"@@/script/application3.js?$script,domain=gelbooru.com",addition,,2020-11-04T07:58,5
,"@@/script/application3.js|$script,domain=gelbooru.com",addition,,2020-11-04T07:58,6
,"@@/script/autocomplete.*.js?$script,domain=gelbooru.com",addition,,2020-11-04T07:58,7
,"@@/script/autocomplete.*.js|$script,domain=gelbooru.com",addition,,2020-11-04T07:58,8
,"@@/script/miscJs.js?$script,domain=gelbooru.com",addition,,2020-11-04T07:58,9
,"@@/script/miscJs.js|$script,domain=gelbooru.com",addition,,2020-11-04T07:58,10
,"@@||*/script/autocomplete.*.js?$script,domain=gelbooru.com",deletion,,2020-11-04T07:58,11
,"@@||*/script/autocomplete.*.js|$script,domain=gelbooru.com",deletion,,2020-11-04T07:58,12
,"@@||*/script/miscJs.js?$script,domain=gelbooru.com",deletion,,2020-11-04T07:58,13
,"@@||*/script/miscJs.js|$script,domain=gelbooru.com",deletion,,2020-11-04T07:58,14
<img src='https://[uBlock Origin 1.37.0]' style='visibility: hidden' />,[uBlock Origin 1.37.0],addition,,2021-07-28T17:50,15
,"gelbooru.com##+js(acs, AddZone, idzone)",addition,,2021-07-28T17:50,16
,"gelbooru.com##+js(acs, ImplicityBreakingSite)",addition,,2021-07-28T17:50,17
,"gelbooru.com##+js(acs, adtoniq)",addition,,2021-07-28T17:50,18
,"gelbooru.com##+js(acs, domain_base, exosrv.com)",addition,,2021-07-28T17:50,19
,"gelbooru.com##+js(acs, serve, script_url)",addition,,2021-07-28T17:50,20
,"gelbooru.com##+js(acs, window.dataLayer, gtag)",addition,,2021-07-28T17:50,21
<img src='https://[uBlock Origin 1.28.0]' style='visibility: hidden' />,[uBlock Origin 1.28.0],deletion,,2021-07-28T17:50,22
,"gelbooru.com##+js(acis, AddZone, idzone)",deletion,,2021-07-28T17:50,23
,"gelbooru.com##+js(acis, ImplicityBreakingSite)",deletion,,2021-07-28T17:50,24
,"gelbooru.com##+js(acis, adtoniq)",deletion,,2021-07-28T17:50,25
,"gelbooru.com##+js(acis, domain_base, exosrv.com)",deletion,,2021-07-28T17:50,26
,"gelbooru.com##+js(acis, serve, script_url)",deletion,,2021-07-28T17:50,27
,"gelbooru.com##+js(acis, window.dataLayer, gtag)",deletion,,2021-07-28T17:50,28
