,list,path,output
0,2020-10-02T03:13,data_analysis/Cybo's_Anti_Nightcore/2020-10-02T03:13,output/Cybo's_Anti_Nightcore/2020-10-02T03:13
1,2020-10-31T14:30,data_analysis/Cybo's_Anti_Nightcore/2020-10-31T14:30,output/Cybo's_Anti_Nightcore/2020-10-31T14:30
