,list,path,output
0,current,data_analysis/X_Files:_HWS_Harmful_WebSites/current,output/X_Files:_HWS_Harmful_WebSites/current
1,2022-01-21T03:56,data_analysis/X_Files:_HWS_Harmful_WebSites/2022-01-21T03:56,output/X_Files:_HWS_Harmful_WebSites/2022-01-21T03:56
2,2022-01-24T03:56,data_analysis/X_Files:_HWS_Harmful_WebSites/2022-01-24T03:56,output/X_Files:_HWS_Harmful_WebSites/2022-01-24T03:56
3,2022-01-26T03:49,data_analysis/X_Files:_HWS_Harmful_WebSites/2022-01-26T03:49,output/X_Files:_HWS_Harmful_WebSites/2022-01-26T03:49
4,2022-01-28T03:55,data_analysis/X_Files:_HWS_Harmful_WebSites/2022-01-28T03:55,output/X_Files:_HWS_Harmful_WebSites/2022-01-28T03:55
5,2022-01-31T03:54,data_analysis/X_Files:_HWS_Harmful_WebSites/2022-01-31T03:54,output/X_Files:_HWS_Harmful_WebSites/2022-01-31T03:54
6,2022-02-02T03:51,data_analysis/X_Files:_HWS_Harmful_WebSites/2022-02-02T03:51,output/X_Files:_HWS_Harmful_WebSites/2022-02-02T03:51
7,2022-02-04T03:51,data_analysis/X_Files:_HWS_Harmful_WebSites/2022-02-04T03:51,output/X_Files:_HWS_Harmful_WebSites/2022-02-04T03:51
8,2022-02-05T17:33,data_analysis/X_Files:_HWS_Harmful_WebSites/2022-02-05T17:33,output/X_Files:_HWS_Harmful_WebSites/2022-02-05T17:33
9,2022-02-07T03:52,data_analysis/X_Files:_HWS_Harmful_WebSites/2022-02-07T03:52,output/X_Files:_HWS_Harmful_WebSites/2022-02-07T03:52
10,2022-02-07T14:39,data_analysis/X_Files:_HWS_Harmful_WebSites/2022-02-07T14:39,output/X_Files:_HWS_Harmful_WebSites/2022-02-07T14:39
11,2022-02-09T03:51,data_analysis/X_Files:_HWS_Harmful_WebSites/2022-02-09T03:51,output/X_Files:_HWS_Harmful_WebSites/2022-02-09T03:51
12,2022-02-14T03:51,data_analysis/X_Files:_HWS_Harmful_WebSites/2022-02-14T03:51,output/X_Files:_HWS_Harmful_WebSites/2022-02-14T03:51
13,2022-02-16T03:56,data_analysis/X_Files:_HWS_Harmful_WebSites/2022-02-16T03:56,output/X_Files:_HWS_Harmful_WebSites/2022-02-16T03:56
14,2022-02-18T04:00,data_analysis/X_Files:_HWS_Harmful_WebSites/2022-02-18T04:00,output/X_Files:_HWS_Harmful_WebSites/2022-02-18T04:00
15,2022-02-23T03:50,data_analysis/X_Files:_HWS_Harmful_WebSites/2022-02-23T03:50,output/X_Files:_HWS_Harmful_WebSites/2022-02-23T03:50
16,2022-02-25T03:54,data_analysis/X_Files:_HWS_Harmful_WebSites/2022-02-25T03:54,output/X_Files:_HWS_Harmful_WebSites/2022-02-25T03:54
17,2022-02-28T03:54,data_analysis/X_Files:_HWS_Harmful_WebSites/2022-02-28T03:54,output/X_Files:_HWS_Harmful_WebSites/2022-02-28T03:54
18,2022-03-02T03:58,data_analysis/X_Files:_HWS_Harmful_WebSites/2022-03-02T03:58,output/X_Files:_HWS_Harmful_WebSites/2022-03-02T03:58
19,2022-03-04T03:52,data_analysis/X_Files:_HWS_Harmful_WebSites/2022-03-04T03:52,output/X_Files:_HWS_Harmful_WebSites/2022-03-04T03:52
20,2022-03-07T03:49,data_analysis/X_Files:_HWS_Harmful_WebSites/2022-03-07T03:49,output/X_Files:_HWS_Harmful_WebSites/2022-03-07T03:49
21,2022-03-09T03:58,data_analysis/X_Files:_HWS_Harmful_WebSites/2022-03-09T03:58,output/X_Files:_HWS_Harmful_WebSites/2022-03-09T03:58
22,2022-03-11T03:53,data_analysis/X_Files:_HWS_Harmful_WebSites/2022-03-11T03:53,output/X_Files:_HWS_Harmful_WebSites/2022-03-11T03:53
23,2022-03-14T03:50,data_analysis/X_Files:_HWS_Harmful_WebSites/2022-03-14T03:50,output/X_Files:_HWS_Harmful_WebSites/2022-03-14T03:50
24,2022-03-16T03:50,data_analysis/X_Files:_HWS_Harmful_WebSites/2022-03-16T03:50,output/X_Files:_HWS_Harmful_WebSites/2022-03-16T03:50
