,list,path,output
0,2021-03-12T19:53,data_analysis/SyndicationBlock/2021-03-12T19:53,output/SyndicationBlock/2021-03-12T19:53
1,2021-06-08T12:58,data_analysis/SyndicationBlock/2021-06-08T12:58,output/SyndicationBlock/2021-06-08T12:58
2,2021-10-15T08:05,data_analysis/SyndicationBlock/2021-10-15T08:05,output/SyndicationBlock/2021-10-15T08:05
3,current,data_analysis/SyndicationBlock/current,output/SyndicationBlock/current
