test,entry,type,lists,name,id
,/images/social.$domain=clicknupload.co|erodan.net|hexupload.net|katfile.com|sakurafile.com|uploader.link|uploadflix.org|uploadhub.*|uploadmoon.com|uploadmx.com|uploadraja.com|uppboom.com|uptomega.me|vkupload.com|wupfile.com,addition,,current,0
,/images/social.$domain=clicknupload.co|erodan.net|hexupload.net|katfile.com|sakurafile.com|uploader.link|uploadflix.org|uploadhub.club|uploadhub.ws|uploadmoon.com|uploadraja.com|uppboom.com|uptomega.me|vkupload.com|wupfile.com,deletion,,current,1
,/images/social.$domain=clicknupload.co|erodan.net|hexupload.net|katfile.com|sakurafile.com|uploader.link|uploadhub.club|uploadmoon.com|uploadraja.com|uppom.live|uppoom.com|uptomega.me,addition,,2021-04-01T11:38,2
,/images/social.$domain=clicknupload.co|erodan.net|hexupload.net|katfile.com|sakurafile.com|uploader.link|uploadhub.club|uploadraja.com|uppom.live|uptomega.me,deletion,,2021-04-01T11:38,3
<img src='https://mshare.xyz/images/icons/facebook.' style='visibility: hidden' />,||mshare.xyz/images/icons/facebook.,addition,"2021-03-01T18:54,2021-04-01T11:38,2021-04-07T19:40,2021-04-24T12:55,2021-04-28T19:06,2021-05-05T01:46,2021-05-23T19:40,2021-05-25T20:28,2021-06-02T11:16,2021-06-08T12:55,2021-06-10T16:36,2021-06-21T13:11,2021-07-01T13:32,2021-07-22T20:27,2021-08-04T20:21,2021-09-18T20:38,current",2021-03-01T18:54,4
<img src='https://mshare.xyz/images/icons/twitter.' style='visibility: hidden' />,||mshare.xyz/images/icons/twitter.,addition,"2021-03-01T18:54,2021-04-01T11:38,2021-04-07T19:40,2021-04-24T12:55,2021-04-28T19:06,2021-05-05T01:46,2021-05-23T19:40,2021-05-25T20:28,2021-06-02T11:16,2021-06-08T12:55,2021-06-10T16:36,2021-06-21T13:11,2021-07-01T13:32,2021-07-22T20:27,2021-08-04T20:21,2021-09-18T20:38,current",2021-03-01T18:54,5
<img src='https://mshare.xyz/images/icons/vk.' style='visibility: hidden' />,||mshare.xyz/images/icons/vk.,addition,"2021-03-01T18:54,2021-04-01T11:38,2021-04-07T19:40,2021-04-24T12:55,2021-04-28T19:06,2021-05-05T01:46,2021-05-23T19:40,2021-05-25T20:28,2021-06-02T11:16,2021-06-08T12:55,2021-06-10T16:36,2021-06-21T13:11,2021-07-01T13:32,2021-07-22T20:27,2021-08-04T20:21,2021-09-18T20:38,current",2021-03-01T18:54,6
<img src='https://pasty.info/images/facebook.' style='visibility: hidden' />,||pasty.info/images/facebook.,addition,"2021-01-15T18:27,2021-02-12T01:04,2021-03-01T18:54,2021-04-01T11:38,2021-04-07T19:40,2021-04-24T12:55,2021-04-28T19:06,2021-05-05T01:46,2021-05-23T19:40,2021-05-25T20:28,2021-06-02T11:16,2021-06-08T12:55,2021-06-10T16:36,2021-06-21T13:11,2021-07-01T13:32,2021-07-22T20:27,2021-08-04T20:21,2021-09-18T20:38,current",2021-01-15T18:27,7
<img src='https://pasty.info/images/email.' style='visibility: hidden' />,||pasty.info/images/email.,addition,"2021-01-15T18:27,2021-02-12T01:04,2021-03-01T18:54,2021-04-01T11:38,2021-04-07T19:40,2021-04-24T12:55,2021-04-28T19:06,2021-05-05T01:46,2021-05-23T19:40,2021-05-25T20:28,2021-06-02T11:16,2021-06-08T12:55,2021-06-10T16:36,2021-06-21T13:11,2021-07-01T13:32,2021-07-22T20:27,2021-08-04T20:21,2021-09-18T20:38,current",2021-01-15T18:27,8
<img src='https://pasty.info/images/telegram.' style='visibility: hidden' />,||pasty.info/images/telegram.,addition,"2021-01-15T18:27,2021-02-12T01:04,2021-03-01T18:54,2021-04-01T11:38,2021-04-07T19:40,2021-04-24T12:55,2021-04-28T19:06,2021-05-05T01:46,2021-05-23T19:40,2021-05-25T20:28,2021-06-02T11:16,2021-06-08T12:55,2021-06-10T16:36,2021-06-21T13:11,2021-07-01T13:32,2021-07-22T20:27,2021-08-04T20:21,2021-09-18T20:38,current",2021-01-15T18:27,9
<img src='https://pasty.info/images/whatsapp.' style='visibility: hidden' />,||pasty.info/images/whatsapp.,addition,"2021-01-15T18:27,2021-02-12T01:04,2021-03-01T18:54,2021-04-01T11:38,2021-04-07T19:40,2021-04-24T12:55,2021-04-28T19:06,2021-05-05T01:46,2021-05-23T19:40,2021-05-25T20:28,2021-06-02T11:16,2021-06-08T12:55,2021-06-10T16:36,2021-06-21T13:11,2021-07-01T13:32,2021-07-22T20:27,2021-08-04T20:21,2021-09-18T20:38,current",2021-01-15T18:27,10
,/images/social.$domain=clicknupload.co|erodan.net|hexupload.net|katfile.com|sakurafile.com|uploader.link|uploadhub.club|uploadraja.com|uppom.live|uptomega.me,addition,,2020-12-20T18:04,11
,/images/social.$domain=clicknupload.co|erodan.net|hexupload.net|uploader.link|uploadhub.club|uploadraja.com|uppom.live|uptomega.me,deletion,,2020-12-20T18:04,12
<img src='https://katfile.com/images/social.jpg' style='visibility: hidden' />,||katfile.com/images/social.jpg,deletion,2020-12-17T18:29,2020-12-20T18:04,13
<img src='https://katfile.com/images/social.jpg' style='visibility: hidden' />,||katfile.com/images/social.jpg,addition,2020-12-17T18:29,2020-12-17T18:29,14
,@@||apis.google.com/js/plusone.js$domain=abcnews.go.com,addition,,2020-12-05T14:45,15
<img src='https://test.com/plugins/social-media-feather/aa' style='visibility: hidden' />,/plugins/social-media-feather/*,addition,"2021-04-07T19:40,2021-04-24T12:55,2021-04-28T19:06,2021-05-05T01:46,2021-05-23T19:40,2021-05-25T20:28,2021-06-02T11:16,2021-06-08T12:55,2021-06-10T16:36,2021-06-21T13:11,2021-07-01T13:32,2021-07-22T20:27,2021-08-04T20:21,2021-09-18T20:38,current",2021-04-07T19:40,16
,"/share_link_$image,~third-party,domain=gogoanime.ai|gogoanime.so|gogoanime.video|gogoanimehub.tv|gogoanimes.tv",addition,,2021-04-24T12:55,17
,"/share_link_$image,~third-party,domain=gogoanime.so|gogoanime.video|gogoanimehub.tv|gogoanimes.tv",deletion,,2021-04-24T12:55,18
,"/share_link_$image,~third-party,domain=123moviesg.com|gogoanime.ai|gogoanime.lol|gogoanime.so|gogoanime.video|gogoanimehub.tv|gogoanimes.tv",addition,,2021-07-01T13:32,19
,"/share_link_$image,~third-party,domain=123moviesg.com|gogoanime.ai|gogoanime.so|gogoanime.video|gogoanimehub.tv|gogoanimes.tv",deletion,,2021-07-01T13:32,20
,"/share_link_$image,~third-party,domain=123moviesg.com|gogoanime.ai|gogoanime.so|gogoanime.video|gogoanimehub.tv|gogoanimes.tv",addition,,2021-06-21T13:11,21
,"/share_link_$image,~third-party,domain=gogoanime.ai|gogoanime.so|gogoanime.video|gogoanimehub.tv|gogoanimes.tv",deletion,,2021-06-21T13:11,22
<img src='https://platform.tumblr.com/v1/share' style='visibility: hidden' />,||platform.tumblr.com/v1/share,deletion,"2020-10-31T14:30,2020-11-01T18:18,2020-11-08T16:16,2020-12-05T14:45,2020-12-17T18:29,2020-12-20T18:04,2021-01-15T18:27,2021-02-12T01:04,2021-03-01T18:54,2021-04-01T11:38,2021-04-07T19:40,2021-04-24T12:55,2021-04-28T19:06,2021-05-05T01:46,2021-05-23T19:40,2021-05-25T20:28,2021-06-02T11:16,2021-06-08T12:55",2021-06-10T16:36,23
,/images/social.$domain=clicknupload.co|erodan.net|hexupload.net|katfile.com|sakurafile.com|uploader.link|uploadflix.org|uploadhub.club|uploadhub.ws|uploadmoon.com|uploadraja.com|uppom.live|uppoom.com|uptomega.me|vkupload.com|wupfile.com,addition,,2021-05-25T20:28,24
,/images/social.$domain=clicknupload.co|erodan.net|hexupload.net|katfile.com|sakurafile.com|uploader.link|uploadhub.club|uploadhub.ws|uploadmoon.com|uploadraja.com|uppom.live|uppoom.com|uptomega.me|vkupload.com|wupfile.com,deletion,,2021-05-25T20:28,25
,/images/social.$domain=clicknupload.co|erodan.net|hexupload.net|katfile.com|sakurafile.com|uploader.link|uploadhub.club|uploadhub.ws|uploadmoon.com|uploadraja.com|uppom.live|uppoom.com|uptomega.me|vkupload.com|wupfile.com,addition,,2021-05-23T19:40,26
,/images/social.$domain=clicknupload.co|erodan.net|hexupload.net|katfile.com|sakurafile.com|uploader.link|uploadhub.club|uploadhub.ws|uploadmoon.com|uploadraja.com|uppom.live|uppoom.com|uptomega.me|vkupload.com,deletion,,2021-05-23T19:40,27
,/images/social.$domain=clicknupload.co|erodan.net|hexupload.net|katfile.com|sakurafile.com|uploader.link|uploadflix.org|uploadhub.club|uploadhub.ws|uploadmoon.com|uploadraja.com|uppboom.com|uptomega.me|vkupload.com|wupfile.com,addition,,2021-07-22T20:27,28
,/images/social.$domain=clicknupload.co|erodan.net|hexupload.net|katfile.com|sakurafile.com|uploader.link|uploadflix.org|uploadhub.club|uploadhub.ws|uploadmoon.com|uploadraja.com|uppom.live|uppoom.com|uptomega.me|vkupload.com|wupfile.com,deletion,,2021-07-22T20:27,29
,"/share_link_$image,~third-party,domain=123moviesg.com|9anime.work|gogoanime.ai|gogoanime.lol|gogoanime.so|gogoanime.video|gogoanimehub.tv|gogoanimes.tv",addition,,2021-08-04T20:21,30
,"/share_link_$image,~third-party,domain=123moviesg.com|gogoanime.ai|gogoanime.lol|gogoanime.so|gogoanime.video|gogoanimehub.tv|gogoanimes.tv",deletion,,2021-08-04T20:21,31
,/images/social.$domain=clicknupload.co|erodan.net|hexupload.net|katfile.com|sakurafile.com|uploader.link|uploadhub.club|uploadhub.ws|uploadmoon.com|uploadraja.com|uppom.live|uppoom.com|uptomega.me|vkupload.com,addition,,2021-04-28T19:06,32
,/images/social.$domain=clicknupload.co|erodan.net|hexupload.net|katfile.com|sakurafile.com|uploader.link|uploadhub.club|uploadmoon.com|uploadraja.com|uppom.live|uppoom.com|uptomega.me,deletion,,2021-04-28T19:06,33
<img src='https://test.com/themes/snow-monkey/vendor/aa/wp-share-buttons/aa' style='visibility: hidden' />,/themes/snow-monkey/vendor/*/wp-share-buttons/*,addition,"2020-11-01T18:18,2020-11-08T16:16,2020-12-05T14:45,2020-12-17T18:29,2020-12-20T18:04,2021-01-15T18:27,2021-02-12T01:04,2021-03-01T18:54,2021-04-01T11:38,2021-04-07T19:40,2021-04-24T12:55,2021-04-28T19:06,2021-05-05T01:46,2021-05-23T19:40,2021-05-25T20:28,2021-06-02T11:16,2021-06-08T12:55,2021-06-10T16:36,2021-06-21T13:11,2021-07-01T13:32,2021-07-22T20:27,2021-08-04T20:21,2021-09-18T20:38,current",2020-11-01T18:18,34
,"/share_link_$image,~third-party,domain=123moviesg.com|9anime.work|gogoanime.ai|gogoanime.lol|gogoanime.so|gogoanime.video|gogoanimehub.tv|gogoanimes.tv|kissanime.rest",addition,,2021-09-18T20:38,35
,"/share_link_$image,~third-party,domain=123moviesg.com|9anime.work|gogoanime.ai|gogoanime.lol|gogoanime.so|gogoanime.video|gogoanimehub.tv|gogoanimes.tv",deletion,,2021-09-18T20:38,36
