test,entry,type,lists,name,id
,"||images2.imgbox.com$image,domain=ktxtorrent38.com",addition,,current,0
,"||images2.imgbox.com^$image,domain=torrentsir51.com",addition,,current,1
<img src='https://manatoki124.net/tokinbtoki/' style='visibility: hidden' />,||manatoki124.net/tokinbtoki^$image,addition,current,current,2
,"||images2.imgbox.com$image,domain=ktxtorrent36.com",deletion,,current,3
,"||images2.imgbox.com^$image,domain=torrentsir49.com",deletion,,current,4
<img src='https://manatoki119.net/tokinbtoki/' style='visibility: hidden' />,||manatoki119.net/tokinbtoki^$image,deletion,"2022-01-15T14:19,2022-01-15T14:33,2022-01-16T16:05,2022-01-21T16:58,2022-01-24T10:48,2022-01-25T10:08,2022-01-26T16:03,2022-02-01T17:20,2022-02-01T17:35,2022-02-03T08:24,2022-02-04T16:06,2022-02-08T12:07,2022-02-10T16:11,2022-02-14T12:26,2022-02-14T12:58,2022-02-19T18:36,2022-02-22T13:54,2022-02-23T16:35,2022-02-24T12:04,2022-02-24T12:33,2022-02-28T02:26,2022-03-10T10:01,2022-03-10T14:47,2022-03-13T03:09",current,5
<img src='https://manatoki120.net/tokinbtoki/' style='visibility: hidden' />,||manatoki120.net/tokinbtoki^$image,deletion,"2022-01-24T10:48,2022-01-25T10:08,2022-01-26T16:03,2022-02-01T17:20,2022-02-01T17:35,2022-02-03T08:24,2022-02-04T16:06,2022-02-08T12:07,2022-02-10T16:11,2022-02-14T12:26,2022-02-14T12:58,2022-02-19T18:36,2022-02-22T13:54,2022-02-23T16:35,2022-02-24T12:04,2022-02-24T12:33,2022-02-28T02:26,2022-03-10T10:01,2022-03-10T14:47,2022-03-13T03:09",current,6
,dak.gg##.pa_top4,addition,,2022-01-15T14:33,7
,dak.gg##div[id^='google_ads_iframe'],addition,,2022-01-15T14:33,8
<img src='https://manatoki119.net/tokinbtoki/' style='visibility: hidden' />,||manatoki119.net/tokinbtoki^$image,addition,"2022-01-15T14:19,2022-01-15T14:33,2022-01-16T16:05,2022-01-21T16:58,2022-01-24T10:48,2022-01-25T10:08,2022-01-26T16:03,2022-02-01T17:20,2022-02-01T17:35,2022-02-03T08:24,2022-02-04T16:06,2022-02-08T12:07,2022-02-10T16:11,2022-02-14T12:26,2022-02-14T12:58,2022-02-19T18:36,2022-02-22T13:54,2022-02-23T16:35,2022-02-24T12:04,2022-02-24T12:33,2022-02-28T02:26,2022-03-10T10:01,2022-03-10T14:47,2022-03-13T03:09",2022-01-15T14:19,9
,"||i.imgur.com^$image,domain=torrentview50.com",addition,,2022-01-21T16:58,10
,"||imgcloud*.net^$image,domain=wtwt115.com",addition,,2022-01-21T16:58,11
,"||i.imgur.com$image,domain=torrentgram33.com",addition,,2022-01-21T16:58,12
,"||saveimg.net/images^$image,domain=torrentgram33.com",addition,,2022-01-21T16:58,13
,"||images2.imgbox.com$image,domain=ktxtorrent34.com",addition,,2022-01-21T16:58,14
,"||images2.imgbox.com^$image,domain=torrentsir47.com",addition,,2022-01-21T16:58,15
,"||i.imgur.com^$image,domain=torrentview49.com",deletion,,2022-01-21T16:58,16
,"||imgcloud*.net^$image,domain=wtwt112.com",deletion,,2022-01-21T16:58,17
,"||i.imgur.com$image,domain=torrentgram29.com",deletion,,2022-01-21T16:58,18
,"||saveimg.net/images^$image,domain=torrentgram29.com",deletion,,2022-01-21T16:58,19
,"||images2.imgbox.com$image,domain=ktxtorrent32.com",deletion,,2022-01-21T16:58,20
,"||images2.imgbox.com$image,domain=ktxtorrent33.com",deletion,,2022-01-21T16:58,21
,"||images2.imgbox.com^$image,domain=torrentsir43.com",deletion,,2022-01-21T16:58,22
,"||i.imgur.com^$image,domain=torrentqq126.com",addition,,2022-01-16T16:05,23
,"||i.imgur.com^$image,domain=torrentqq115.com",deletion,,2022-01-16T16:05,24
,jujutorrent45.com##.npia-board-gallery,addition,,2022-01-25T10:08,25
,torrentsee77.com##a[href^='/go/'],addition,,2022-01-25T10:08,26
,jujutorrent44.com##.npia-board-gallery,deletion,,2022-01-25T10:08,27
,torrentsee75.com##a[href^='/go/'],deletion,,2022-01-25T10:08,28
<img src='https://manatoki120.net/tokinbtoki/' style='visibility: hidden' />,||manatoki120.net/tokinbtoki^$image,addition,"2022-01-24T10:48,2022-01-25T10:08,2022-01-26T16:03,2022-02-01T17:20,2022-02-01T17:35,2022-02-03T08:24,2022-02-04T16:06,2022-02-08T12:07,2022-02-10T16:11,2022-02-14T12:26,2022-02-14T12:58,2022-02-19T18:36,2022-02-22T13:54,2022-02-23T16:35,2022-02-24T12:04,2022-02-24T12:33,2022-02-28T02:26,2022-03-10T10:01,2022-03-10T14:47,2022-03-13T03:09",2022-01-24T10:48,29
,"manatoki120.net,torrentgaja.com###hd_pop",addition,,2022-01-24T10:48,30
,torrentgaja.com###hd_pop,deletion,,2022-01-24T10:48,31
,"||images2.imgbox.com^$image,domain=torrentsir48.com",addition,,2022-02-01T17:35,32
,"||images2.imgbox.com^$image,domain=torrentsir47.com",deletion,,2022-02-01T17:35,33
,"||images2.imgbox.com$image,domain=ktxtorrent35.com",addition,,2022-02-01T17:20,34
,"||images2.imgbox.com$image,domain=ktxtorrent34.com",deletion,,2022-02-01T17:20,35
,gukjenews.com##.banner_box,addition,,2022-01-26T16:03,36
,ygosu.com##div[style='text-align: center; position: relative; z-index: 101;'],addition,,2022-02-04T16:06,37
,ygosu.com###right_nav,addition,,2022-02-04T16:06,38
,ygosu.com##.left_ban,addition,,2022-02-04T16:06,39
,namu.wiki###D7bCic0bB,addition,,2022-02-03T08:24,40
,jujutorrent46.com##.npia-board-gallery,addition,,2022-02-08T12:07,41
,jujutorrent45.com##.npia-board-gallery,deletion,,2022-02-08T12:07,42
,ygosu.com###right_nav,deletion,,2022-02-14T12:26,43
,ygosu.com##.left_ban,deletion,,2022-02-14T12:26,44
,ygosu.com##div[style='text-align: center; position: relative; z-index: 101;'],deletion,,2022-02-10T16:11,45
,bbs.ruliweb.com###ad_main_ti_new,addition,,2022-02-14T12:58,46
<img src='https://linkbaroaa.net/ad/banner/' style='visibility: hidden' />,||linkbaro*.net/ad/banner^$image,addition,"current,2022-02-24T12:04,2022-02-24T12:33,2022-02-28T02:26,2022-03-10T10:01,2022-03-10T14:47,2022-03-13T03:09",2022-02-24T12:04,47
,"||bestadp.com^$image,subdocument",addition,,2022-02-23T16:35,48
<img src='https://a5.avpong.net/ad/banner' style='visibility: hidden' />,||a5.avpong.net/ad/banner,addition,"current,2022-02-23T16:35,2022-02-24T12:04,2022-02-24T12:33,2022-02-28T02:26,2022-03-10T10:01,2022-03-10T14:47,2022-03-13T03:09",2022-02-23T16:35,49
,a5.avpong.net##.s_body_top,addition,,2022-02-23T16:35,50
,"||images2.imgbox.com$image,domain=ktxtorrent36.com",addition,,2022-02-22T13:54,51
,"||images2.imgbox.com^$image,domain=torrentsir49.com",addition,,2022-02-22T13:54,52
,"||images2.imgbox.com$image,domain=ktxtorrent35.com",deletion,,2022-02-22T13:54,53
,"||images2.imgbox.com^$image,domain=torrentsir48.com",deletion,,2022-02-22T13:54,54
,"||live.staticflickr.com$image,domain=platum.kr",addition,,2022-02-19T18:36,55
,"||kindtoon.com/ad/banner$image,$subdocument",addition,,2022-02-24T12:33,56
,cafe24.com##a[href^='https://open.kakao.com/'],addition,,2022-03-10T10:01,57
,cafe24.com##.pum-close,addition,,2022-03-10T10:01,58
,m.newspic.kr/###dionAdArea2,deletion,,2022-02-28T02:26,59
,"||imgcloud*.net^$image,domain=wtwt124.com",addition,,2022-03-13T03:09,60
,"||imgcloud*.net^$image,domain=wtwt115.com",deletion,,2022-03-13T03:09,61
,"||i.imgur.com^$image,domain=buzztoon156.com",addition,,2022-03-10T14:47,62
,"||i.imgur.com^$image,domain=buzztoon79.com",deletion,,2022-03-10T14:47,63
