test,entry,type,lists,name,id
,@@||apiservices.krxd.net*utm_source=billiger.de,addition,,2021-03-03T17:23,0
,@@||apiservices.krxd.net*utm_source=g%c3%bcnstiger.de,addition,,2021-03-03T17:23,1
<img src='https://auto-online.ch/lightboxAds.php' style='visibility: hidden' />,||auto-online.ch/lightboxAds.php,addition,"2021-03-03T17:23,2021-04-05T00:24,2021-05-11T01:07,2021-06-08T12:29,2021-08-01T15:11,2021-10-15T08:04,2021-10-30T23:19,2021-11-27T17:31,current",2021-03-03T17:23,2
,otto.de##.av_anchor,addition,,2021-03-03T17:23,3
,@@||googletagservices.com/tag/js/gpt.js$domain=~zdnet.com,deletion,,2021-03-03T17:23,4
,@@||notebooksbilliger.de,deletion,,2021-03-03T17:23,5
,@@||youtube.com/api/stats/playback?$image,addition,,2021-02-09T15:38,6
<img src='https://youtube.com/api/stats' style='visibility: hidden' />,||youtube.com/api/stats,addition,"2021-02-09T15:38,2021-03-03T17:23,2021-04-05T00:24,2021-05-11T01:07,2021-06-08T12:29,2021-08-01T15:11,2021-10-15T08:04,2021-10-30T23:19,2021-11-27T17:31,current",2021-02-09T15:38,7
,@@||computeruniverse.net/Scripts/wt/webtrekk_v*.js$script,addition,,2021-02-09T15:38,8
,guru99.com##.top-ads-boxes,addition,,2021-02-09T15:38,9
,||youtube.com/api/stats$xmlhttprequest,deletion,,2021-02-09T14:55,10
<img src='https://youtube.com/youtubei/aa/log_event?' style='visibility: hidden' />,||youtube.com/youtubei/*/log_event?,deletion,"2020-09-21T19:18,2020-09-22T19:03,2020-11-20T01:02,2020-12-07T19:24,2021-01-01T10:33,2021-01-30T18:53,2021-02-03T23:36",2021-02-09T14:55,11
,techradar.com##.region_redirect_popup_asset,addition,,2021-02-03T23:36,12
,cpu-monkey.com##.werb,addition,,2021-01-30T18:53,13
,get.adobe.com##.ContentColumn1BottomOverlayBg,addition,,2021-01-30T18:53,14
,suchen.mobile.de##.cBox-body--topInCategory,addition,,2021-01-30T18:53,15
,suchen.mobile.de##hr.topresult:nth-of-type(1),addition,,2021-01-01T10:33,16
,suchen.mobile.de##.cBox-body--similarSellerAds,addition,,2021-01-01T10:33,17
,suchen.mobile.de##.rbt-top.dealerAd,addition,,2021-01-01T10:33,18
,politico.eu##.ad__card,addition,,2020-12-07T19:24,19
,blockonomi.com##.sponbot,addition,,2021-05-11T01:07,20
,businessinsider.com##.htl-ad,addition,,2021-05-11T01:07,21
,ghacks.net##.home-posts:has-text(SPONSORED CONTENT),addition,,2021-05-11T01:07,22
,pons.com##[id^='pons-ad'],addition,,2021-05-11T01:07,23
,root-nation.com##.backstretch,addition,,2021-05-11T01:07,24
,root-nation.com##[href^='https://gtly.to/'],addition,,2021-05-11T01:07,25
,businessinsider.com###main-content > .container > .siteskin-dropshadow > .primary-row.row > .span8 > .post.content > .clear-both.clearfix.bottom-share-module,deletion,,2021-05-11T01:07,26
<img src='https://allkeyshop.com/blog/wp-content/uploads/Outridersaa.jpg' style='visibility: hidden' />,||allkeyshop.com/blog/wp-content/uploads/Outriders*.jpg,addition,"2021-04-05T00:24,2021-05-11T01:07,2021-06-08T12:29,2021-08-01T15:11,2021-10-15T08:04,2021-10-30T23:19,2021-11-27T17:31,current",2021-04-05T00:24,27
<img src='https://gstatic.com/youtube/img/promos/growth/aa.png' style='visibility: hidden' />,||gstatic.com/youtube/img/promos/growth/*.png,addition,"2021-04-05T00:24,2021-05-11T01:07,2021-06-08T12:29,2021-08-01T15:11,2021-10-15T08:04,2021-10-30T23:19,2021-11-27T17:31,current",2021-04-05T00:24,28
,allkeyshop.com##.bg-link-left,addition,,2021-04-05T00:24,29
,allkeyshop.com##.bg-link-right,addition,,2021-04-05T00:24,30
,hrkgame.com##.page_background,addition,,2021-04-05T00:24,31
,petguide.com##.ad,addition,,2021-04-05T00:24,32
,techradar.com##.dfp-leaderboard-container,addition,,2021-08-01T15:11,33
,youtube.com##.ytd-rich-metadata-row-renderer.style-scope,addition,,2021-08-01T15:11,34
,translate.google.*##.notification-area,addition,,2020-09-22T19:03,35
,translate.google.*##.notification-container.tlid-notification-container,deletion,,2020-09-22T19:03,36
,techspot.com##.billboard_placeholder_home,addition,,2020-09-21T19:18,37
,translate.google.*##.notification-container.tlid-notification-container,addition,,2020-09-21T19:18,38
,wsws.org##.engagement-widget,addition,,2020-09-21T19:18,39
,youtube.com###dialog,addition,,2020-09-21T19:18,40
,autotrader.ca##.relatedArticles,addition,,2021-10-30T23:19,41
,carsguide.com.au##.read-more--container,addition,,2021-10-30T23:19,42
,pcgamer.com##body > div:nth-of-type(2),deletion,,2021-11-27T17:31,43
