,list,path,output
0,2021-03-12T19:54,data_analysis/jwinnie_Acceptable_Ads/2021-03-12T19:54,output/jwinnie_Acceptable_Ads/2021-03-12T19:54
1,2021-06-08T12:59,data_analysis/jwinnie_Acceptable_Ads/2021-06-08T12:59,output/jwinnie_Acceptable_Ads/2021-06-08T12:59
2,2021-10-15T08:05,data_analysis/jwinnie_Acceptable_Ads/2021-10-15T08:05,output/jwinnie_Acceptable_Ads/2021-10-15T08:05
3,current,data_analysis/jwinnie_Acceptable_Ads/current,output/jwinnie_Acceptable_Ads/current
