,list,path,output
0,current,data_analysis/Anti-scam_enhancer_for_280blocker_ABP_format_list/current,output/Anti-scam_enhancer_for_280blocker_ABP_format_list/current
1,2022-02-02T16:17,data_analysis/Anti-scam_enhancer_for_280blocker_ABP_format_list/2022-02-02T16:17,output/Anti-scam_enhancer_for_280blocker_ABP_format_list/2022-02-02T16:17
2,2022-02-03T18:34,data_analysis/Anti-scam_enhancer_for_280blocker_ABP_format_list/2022-02-03T18:34,output/Anti-scam_enhancer_for_280blocker_ABP_format_list/2022-02-03T18:34
3,2022-02-04T18:27,data_analysis/Anti-scam_enhancer_for_280blocker_ABP_format_list/2022-02-04T18:27,output/Anti-scam_enhancer_for_280blocker_ABP_format_list/2022-02-04T18:27
4,2022-02-07T18:53,data_analysis/Anti-scam_enhancer_for_280blocker_ABP_format_list/2022-02-07T18:53,output/Anti-scam_enhancer_for_280blocker_ABP_format_list/2022-02-07T18:53
5,2022-02-08T19:03,data_analysis/Anti-scam_enhancer_for_280blocker_ABP_format_list/2022-02-08T19:03,output/Anti-scam_enhancer_for_280blocker_ABP_format_list/2022-02-08T19:03
6,2022-02-09T17:57,data_analysis/Anti-scam_enhancer_for_280blocker_ABP_format_list/2022-02-09T17:57,output/Anti-scam_enhancer_for_280blocker_ABP_format_list/2022-02-09T17:57
7,2022-02-10T18:47,data_analysis/Anti-scam_enhancer_for_280blocker_ABP_format_list/2022-02-10T18:47,output/Anti-scam_enhancer_for_280blocker_ABP_format_list/2022-02-10T18:47
8,2022-02-11T18:31,data_analysis/Anti-scam_enhancer_for_280blocker_ABP_format_list/2022-02-11T18:31,output/Anti-scam_enhancer_for_280blocker_ABP_format_list/2022-02-11T18:31
9,2022-02-12T19:29,data_analysis/Anti-scam_enhancer_for_280blocker_ABP_format_list/2022-02-12T19:29,output/Anti-scam_enhancer_for_280blocker_ABP_format_list/2022-02-12T19:29
10,2022-02-13T17:25,data_analysis/Anti-scam_enhancer_for_280blocker_ABP_format_list/2022-02-13T17:25,output/Anti-scam_enhancer_for_280blocker_ABP_format_list/2022-02-13T17:25
11,2022-02-15T17:53,data_analysis/Anti-scam_enhancer_for_280blocker_ABP_format_list/2022-02-15T17:53,output/Anti-scam_enhancer_for_280blocker_ABP_format_list/2022-02-15T17:53
12,2022-02-17T19:00,data_analysis/Anti-scam_enhancer_for_280blocker_ABP_format_list/2022-02-17T19:00,output/Anti-scam_enhancer_for_280blocker_ABP_format_list/2022-02-17T19:00
13,2022-02-18T18:54,data_analysis/Anti-scam_enhancer_for_280blocker_ABP_format_list/2022-02-18T18:54,output/Anti-scam_enhancer_for_280blocker_ABP_format_list/2022-02-18T18:54
14,2022-02-19T19:16,data_analysis/Anti-scam_enhancer_for_280blocker_ABP_format_list/2022-02-19T19:16,output/Anti-scam_enhancer_for_280blocker_ABP_format_list/2022-02-19T19:16
15,2022-02-23T16:03,data_analysis/Anti-scam_enhancer_for_280blocker_ABP_format_list/2022-02-23T16:03,output/Anti-scam_enhancer_for_280blocker_ABP_format_list/2022-02-23T16:03
16,2022-02-25T19:38,data_analysis/Anti-scam_enhancer_for_280blocker_ABP_format_list/2022-02-25T19:38,output/Anti-scam_enhancer_for_280blocker_ABP_format_list/2022-02-25T19:38
17,2022-02-27T15:11,data_analysis/Anti-scam_enhancer_for_280blocker_ABP_format_list/2022-02-27T15:11,output/Anti-scam_enhancer_for_280blocker_ABP_format_list/2022-02-27T15:11
18,2022-03-01T18:47,data_analysis/Anti-scam_enhancer_for_280blocker_ABP_format_list/2022-03-01T18:47,output/Anti-scam_enhancer_for_280blocker_ABP_format_list/2022-03-01T18:47
19,2022-03-03T18:56,data_analysis/Anti-scam_enhancer_for_280blocker_ABP_format_list/2022-03-03T18:56,output/Anti-scam_enhancer_for_280blocker_ABP_format_list/2022-03-03T18:56
20,2022-03-04T18:08,data_analysis/Anti-scam_enhancer_for_280blocker_ABP_format_list/2022-03-04T18:08,output/Anti-scam_enhancer_for_280blocker_ABP_format_list/2022-03-04T18:08
21,2022-03-05T19:09,data_analysis/Anti-scam_enhancer_for_280blocker_ABP_format_list/2022-03-05T19:09,output/Anti-scam_enhancer_for_280blocker_ABP_format_list/2022-03-05T19:09
22,2022-03-07T19:20,data_analysis/Anti-scam_enhancer_for_280blocker_ABP_format_list/2022-03-07T19:20,output/Anti-scam_enhancer_for_280blocker_ABP_format_list/2022-03-07T19:20
23,2022-03-10T19:33,data_analysis/Anti-scam_enhancer_for_280blocker_ABP_format_list/2022-03-10T19:33,output/Anti-scam_enhancer_for_280blocker_ABP_format_list/2022-03-10T19:33
24,2022-03-12T19:00,data_analysis/Anti-scam_enhancer_for_280blocker_ABP_format_list/2022-03-12T19:00,output/Anti-scam_enhancer_for_280blocker_ABP_format_list/2022-03-12T19:00
