,list,path,output
0,2022-03-05T21:06,data_analysis/uAssets_Annoyances/2022-03-05T21:06,output/uAssets_Annoyances/2022-03-05T21:06
1,2022-03-05T21:20,data_analysis/uAssets_Annoyances/2022-03-05T21:20,output/uAssets_Annoyances/2022-03-05T21:20
2,2022-03-05T21:35,data_analysis/uAssets_Annoyances/2022-03-05T21:35,output/uAssets_Annoyances/2022-03-05T21:35
3,2022-03-05T22:17,data_analysis/uAssets_Annoyances/2022-03-05T22:17,output/uAssets_Annoyances/2022-03-05T22:17
4,2022-03-06T07:54,data_analysis/uAssets_Annoyances/2022-03-06T07:54,output/uAssets_Annoyances/2022-03-06T07:54
5,2022-03-07T12:59,data_analysis/uAssets_Annoyances/2022-03-07T12:59,output/uAssets_Annoyances/2022-03-07T12:59
6,2022-03-08T15:29,data_analysis/uAssets_Annoyances/2022-03-08T15:29,output/uAssets_Annoyances/2022-03-08T15:29
7,2022-03-09T16:25,data_analysis/uAssets_Annoyances/2022-03-09T16:25,output/uAssets_Annoyances/2022-03-09T16:25
8,2022-03-09T23:21,data_analysis/uAssets_Annoyances/2022-03-09T23:21,output/uAssets_Annoyances/2022-03-09T23:21
9,2022-03-10T18:36,data_analysis/uAssets_Annoyances/2022-03-10T18:36,output/uAssets_Annoyances/2022-03-10T18:36
10,2022-03-10T20:25,data_analysis/uAssets_Annoyances/2022-03-10T20:25,output/uAssets_Annoyances/2022-03-10T20:25
11,2022-03-10T21:11,data_analysis/uAssets_Annoyances/2022-03-10T21:11,output/uAssets_Annoyances/2022-03-10T21:11
12,2022-03-10T21:27,data_analysis/uAssets_Annoyances/2022-03-10T21:27,output/uAssets_Annoyances/2022-03-10T21:27
13,2022-03-12T09:04,data_analysis/uAssets_Annoyances/2022-03-12T09:04,output/uAssets_Annoyances/2022-03-12T09:04
14,2022-03-12T12:37,data_analysis/uAssets_Annoyances/2022-03-12T12:37,output/uAssets_Annoyances/2022-03-12T12:37
15,2022-03-12T19:47,data_analysis/uAssets_Annoyances/2022-03-12T19:47,output/uAssets_Annoyances/2022-03-12T19:47
16,2022-03-15T17:52,data_analysis/uAssets_Annoyances/2022-03-15T17:52,output/uAssets_Annoyances/2022-03-15T17:52
17,2022-03-15T18:07,data_analysis/uAssets_Annoyances/2022-03-15T18:07,output/uAssets_Annoyances/2022-03-15T18:07
18,2022-03-17T03:20,data_analysis/uAssets_Annoyances/2022-03-17T03:20,output/uAssets_Annoyances/2022-03-17T03:20
19,2022-03-17T10:21,data_analysis/uAssets_Annoyances/2022-03-17T10:21,output/uAssets_Annoyances/2022-03-17T10:21
20,2022-03-17T12:14,data_analysis/uAssets_Annoyances/2022-03-17T12:14,output/uAssets_Annoyances/2022-03-17T12:14
21,2022-03-17T22:20,data_analysis/uAssets_Annoyances/2022-03-17T22:20,output/uAssets_Annoyances/2022-03-17T22:20
22,2022-03-17T22:34,data_analysis/uAssets_Annoyances/2022-03-17T22:34,output/uAssets_Annoyances/2022-03-17T22:34
23,2022-03-17T22:48,data_analysis/uAssets_Annoyances/2022-03-17T22:48,output/uAssets_Annoyances/2022-03-17T22:48
24,current,data_analysis/uAssets_Annoyances/current,output/uAssets_Annoyances/current
