,list,path,output
0,2020-11-14T06:39,data_analysis/Thai_Annoyance_Filters/2020-11-14T06:39,output/Thai_Annoyance_Filters/2020-11-14T06:39
1,2021-06-08T12:30,data_analysis/Thai_Annoyance_Filters/2021-06-08T12:30,output/Thai_Annoyance_Filters/2021-06-08T12:30
2,2021-06-08T12:58,data_analysis/Thai_Annoyance_Filters/2021-06-08T12:58,output/Thai_Annoyance_Filters/2021-06-08T12:58
3,2021-11-27T22:14,data_analysis/Thai_Annoyance_Filters/2021-11-27T22:14,output/Thai_Annoyance_Filters/2021-11-27T22:14
4,current,data_analysis/Thai_Annoyance_Filters/current,output/Thai_Annoyance_Filters/current
