test,entry,type,lists,name,id
,"twitter.com,nitter.net#?#article,.timeline-item:-abp-contains(/ dems /i)",deletion,,2020-09-22T01:12,0
,"twitter.com,nitter.net#?#article,.timeline-item:-abp-contains( liberals )",deletion,,2020-09-22T01:12,1
,"twitter.com,nitter.net#?#article,.timeline-item:-abp-contains( racism )",deletion,,2020-09-22T01:12,2
,"twitter.com,nitter.net#?#article,.timeline-item:-abp-contains(#Free)",deletion,,2020-09-22T01:12,3
,"twitter.com,nitter.net#?#article,.timeline-item:-abp-contains(/ conservative /i):not(:-abp-contains(/estimates /i))",deletion,,2020-09-22T01:12,4
,"twitter.com,nitter.net#?#article,.timeline-item:-abp-contains(/ deprogram/i)",deletion,,2020-09-22T01:12,5
,"twitter.com,nitter.net#?#article,.timeline-item:-abp-contains(/ electoral/i)",deletion,,2020-09-22T01:12,6
,"twitter.com,nitter.net#?#article,.timeline-item:-abp-contains(/ far-left /i)",deletion,,2020-09-22T01:12,7
,"twitter.com,nitter.net#?#article,.timeline-item:-abp-contains(/ far-right /i)",deletion,,2020-09-22T01:12,8
,"twitter.com,nitter.net#?#article,.timeline-item:-abp-contains(/ goy[ ,.!?']/i)",deletion,,2020-09-22T01:12,9
,"twitter.com,nitter.net#?#article,.timeline-item:-abp-contains(/ jewery/i)",deletion,,2020-09-22T01:12,10
,"twitter.com,nitter.net#?#article,.timeline-item:-abp-contains(/ jewing/i)",deletion,,2020-09-22T01:12,11
,"twitter.com,nitter.net#?#article,.timeline-item:-abp-contains(/ Opuke /i)",deletion,,2020-09-22T01:12,12
,"twitter.com,nitter.net#?#article,.timeline-item:-abp-contains(/ Q[.,!]/)",deletion,,2020-09-22T01:12,13
,"twitter.com,nitter.net#?#article,.timeline-item:-abp-contains(/ Tory[ .,?!']/i)",deletion,,2020-09-22T01:12,14
,"twitter.com,nitter.net#?#article,.timeline-item:-abp-contains(/ Trudeau/i)",deletion,,2020-09-22T01:12,15
,"twitter.com,nitter.net#?#article,.timeline-item:-abp-contains(/#2A /i)",deletion,,2020-09-22T01:12,16
,"twitter.com,nitter.net#?#article,.timeline-item:-abp-contains(/\(\(\([a-z0-9]/)",deletion,,2020-09-22T01:12,17
,"twitter.com,nitter.net#?#article,.timeline-item:-abp-contains(/2nd[ ]?Amendment/i)",deletion,,2020-09-22T01:12,18
,"twitter.com,nitter.net#?#article,.timeline-item:-abp-contains(/Marxis/i)",deletion,,2020-09-22T01:12,19
,"twitter.com,nitter.net#?#article,.timeline-item:-abp-contains(/[# ]KAG$/)",deletion,,2020-09-22T01:12,20
,"twitter.com,nitter.net#?#article,.timeline-item:-abp-contains(/[# ]KAG[2 ]/)",deletion,,2020-09-22T01:12,21
,"twitter.com,nitter.net#?#article,.timeline-item:-abp-contains(/[.!?] Fact!/i)",deletion,,2020-09-22T01:12,22
,"twitter.com,nitter.net#?#article,.timeline-item:-abp-contains(/[.!?] Truth!/i)",deletion,,2020-09-22T01:12,23
,"twitter.com,nitter.net#?#article,.timeline-item:-abp-contains(/A[n]?drenochro[nm]e/i)",deletion,,2020-09-22T01:12,24
,"twitter.com,nitter.net#?#article,.timeline-item:-abp-contains(/agenda/i):not(:-abp-contains(SVT))",deletion,,2020-09-22T01:12,25
,"twitter.com,nitter.net#?#article,.timeline-item:-abp-contains(/Al[ ]?Gore/)",deletion,,2020-09-22T01:12,26
,"twitter.com,nitter.net#?#article,.timeline-item:-abp-contains(/anti[ -]?Semiti/i)",deletion,,2020-09-22T01:12,27
,"twitter.com,nitter.net#?#article,.timeline-item:-abp-contains(/Antifa /i)",deletion,,2020-09-22T01:12,28
,"twitter.com,nitter.net#?#article,.timeline-item:-abp-contains(/Bernie[ -]/)",deletion,,2020-09-22T01:12,29
,"twitter.com,nitter.net#?#article,.timeline-item:-abp-contains(/Beto[ .,!?]/)",deletion,,2020-09-22T01:12,30
,"twitter.com,nitter.net#?#article,.timeline-item:-abp-contains(/Biden[ .,!=']/)",deletion,,2020-09-22T01:12,31
,"twitter.com,nitter.net#?#article,.timeline-item:-abp-contains(/Blackpill/i)",deletion,,2020-09-22T01:12,32
,"twitter.com,nitter.net#?#article,.timeline-item:-abp-contains(/bluepilled/i)",deletion,,2020-09-22T01:12,33
,"twitter.com,nitter.net#?#article,.timeline-item:-abp-contains(/Bolsonaro/i)",deletion,,2020-09-22T01:12,34
,"twitter.com,nitter.net#?#article,.timeline-item:-abp-contains(/Boris[ ]?Johnson/i)",deletion,,2020-09-22T01:12,35
,"twitter.com,nitter.net#?#article,.timeline-item:-abp-contains(/Build[ _]?The[ _]?Wall/i)",deletion,,2020-09-22T01:12,36
,"twitter.com,nitter.net#?#article,.timeline-item:-abp-contains(/Centrist/i)",deletion,,2020-09-22T01:12,37
,"twitter.com,nitter.net#?#article,.timeline-item:-abp-contains(/Commie/i)",deletion,,2020-09-22T01:12,38
,"twitter.com,nitter.net#?#article,.timeline-item:-abp-contains(/Communis/i)",deletion,,2020-09-22T01:12,39
,"twitter.com,nitter.net#?#article,.timeline-item:-abp-contains(/Congress[w]?[o]?m[ae]n/i)",deletion,,2020-09-22T01:12,40
,"twitter.com,nitter.net#?#article,.timeline-item:-abp-contains(/conservatism/i)",deletion,,2020-09-22T01:12,41
,"twitter.com,nitter.net#?#article,.timeline-item:-abp-contains(/Corbyn/i)",deletion,,2020-09-22T01:12,42
,"twitter.com,nitter.net#?#article,.timeline-item:-abp-contains(/crisis actor/i)",deletion,,2020-09-22T01:12,43
,"twitter.com,nitter.net#?#article,.timeline-item:-abp-contains(/de[er]p[ ]?state/i)",deletion,,2020-09-22T01:12,44
,"twitter.com,nitter.net#?#article,.timeline-item:-abp-contains(/Degenerate/i)",deletion,,2020-09-22T01:12,45
,"twitter.com,nitter.net#?#article,.timeline-item:-abp-contains(/DemDebate/i)",deletion,,2020-09-22T01:12,46
,"twitter.com,nitter.net#?#article,.timeline-item:-abp-contains(/Demo[n]?crap/i)",deletion,,2020-09-22T01:12,47
,"twitter.com,nitter.net#?#article,.timeline-item:-abp-contains(/Democrat[. s]/i)",deletion,,2020-09-22T01:12,48
,"twitter.com,nitter.net#?#article,.timeline-item:-abp-contains(/Democratic Party/i)",deletion,,2020-09-22T01:12,49
,"twitter.com,nitter.net#?#article,.timeline-item:-abp-contains(/Demon[c]?rat/i)",deletion,,2020-09-22T01:12,50
,"twitter.com,nitter.net#?#article,.timeline-item:-abp-contains(/Demorat/i)",deletion,,2020-09-22T01:12,51
,"twitter.com,nitter.net#?#article,.timeline-item:-abp-contains(/Deplorables/i)",deletion,,2020-09-22T01:12,52
,"twitter.com,nitter.net#?#article,.timeline-item:-abp-contains(/do your own research/i)",deletion,,2020-09-22T01:12,53
,"twitter.com,nitter.net#?#article,.timeline-item:-abp-contains(/drain[ ]?the[ ]?swamp/i)",deletion,,2020-09-22T01:12,54
,"twitter.com,nitter.net#?#article,.timeline-item:-abp-contains(/Dumbocrat/i)",deletion,,2020-09-22T01:12,55
,"twitter.com,nitter.net#?#article,.timeline-item:-abp-contains(/dumbonut/i)",deletion,,2020-09-22T01:12,56
,"twitter.com,nitter.net#?#article,.timeline-item:-abp-contains(/Elizabeth[ ]Warren/i)",deletion,,2020-09-22T01:12,57
,"twitter.com,nitter.net#?#article,.timeline-item:-abp-contains(/Emmanuel[ ]?Macron/i)",deletion,,2020-09-22T01:12,58
,"twitter.com,nitter.net#?#article,.timeline-item:-abp-contains(/faggotry/i)",deletion,,2020-09-22T01:12,59
,"twitter.com,nitter.net#?#article,.timeline-item:-abp-contains(/false flag/i)",deletion,,2020-09-22T01:12,60
,"twitter.com,nitter.net#?#article,.timeline-item:-abp-contains(/Fascis[tm]/i)",deletion,,2020-09-22T01:12,61
,"twitter.com,nitter.net#?#article,.timeline-item:-abp-contains(/globohomo/i)",deletion,,2020-09-22T01:12,62
,"twitter.com,nitter.net#?#article,.timeline-item:-abp-contains(/Goyim/i)",deletion,,2020-09-22T01:12,63
,"twitter.com,nitter.net#?#article,.timeline-item:-abp-contains(/Great[ ]?Replacement/i)",deletion,,2020-09-22T01:12,64
,"twitter.com,nitter.net#?#article,.timeline-item:-abp-contains(/GreatAwakening/i)",deletion,,2020-09-22T01:12,65
,"twitter.com,nitter.net#?#article,.timeline-item:-abp-contains(/Green[ ]?Party/i)",deletion,,2020-09-22T01:12,66
,"twitter.com,nitter.net#?#article,.timeline-item:-abp-contains(/Greenpill/i)",deletion,,2020-09-22T01:12,67
,"twitter.com,nitter.net#?#article,.timeline-item:-abp-contains(/Honk[ ]?Honk/i)",deletion,,2020-09-22T01:12,68
,"twitter.com,nitter.net#?#article,.timeline-item:-abp-contains(/Ilhan[ ]?Omar/i)",deletion,,2020-09-22T01:12,69
,"twitter.com,nitter.net#?#article,.timeline-item:-abp-contains(/impeach/i)",deletion,,2020-09-22T01:12,70
,"twitter.com,nitter.net#?#article,.timeline-item:-abp-contains(/Islamic/i):not(:-abp-contains(/pilgrim/i))",deletion,,2020-09-22T01:12,71
,"twitter.com,nitter.net#?#article,.timeline-item:-abp-contains(/Jewish banker/i)",deletion,,2020-09-22T01:12,72
,"twitter.com,nitter.net#?#article,.timeline-item:-abp-contains(/jewnited/i)",deletion,,2020-09-22T01:12,73
,"twitter.com,nitter.net#?#article,.timeline-item:-abp-contains(/Kamala[ ,.!?']/)",deletion,,2020-09-22T01:12,74
,"twitter.com,nitter.net#?#article,.timeline-item:-abp-contains(/Labo[u]?r Party/i)",deletion,,2020-09-22T01:12,75
,"twitter.com,nitter.net#?#article,.timeline-item:-abp-contains(/left-leaning/i)",deletion,,2020-09-22T01:12,76
,"twitter.com,nitter.net#?#article,.timeline-item:-abp-contains(/left[- ]?wing/i):not(:-abp-contains(/plane/i))",deletion,,2020-09-22T01:12,77
,"twitter.com,nitter.net#?#article,.timeline-item:-abp-contains(/left[-]?tard/i)",deletion,,2020-09-22T01:12,78
,"twitter.com,nitter.net#?#article,.timeline-item:-abp-contains(/Leftist/i)",deletion,,2020-09-22T01:12,79
,"twitter.com,nitter.net#?#article,.timeline-item:-abp-contains(/liberal/i):-abp-contains(/mental illness/i)",deletion,,2020-09-22T01:12,80
,"twitter.com,nitter.net#?#article,.timeline-item:-abp-contains(/liberals want/i)",deletion,,2020-09-22T01:12,81
,"twitter.com,nitter.net#?#article,.timeline-item:-abp-contains(/Libt[au]rd/i)",deletion,,2020-09-22T01:12,82
,"twitter.com,nitter.net#?#article,.timeline-item:-abp-contains(/Merkel[ ,.!?']/)",deletion,,2020-09-22T01:12,83
,"twitter.com,nitter.net#?#article,.timeline-item:-abp-contains(/multiculturalis/i)",deletion,,2020-09-22T01:12,84
,"twitter.com,nitter.net#?#article,.timeline-item:-abp-contains(/nationalis[tm]/i)",deletion,,2020-09-22T01:12,85
,"twitter.com,nitter.net#?#article,.timeline-item:-abp-contains(/neo[-]?liberal/i)",deletion,,2020-09-22T01:12,86
,"twitter.com,nitter.net#?#article,.timeline-item:-abp-contains(/Netanyahu/i)",deletion,,2020-09-22T01:12,87
,"twitter.com,nitter.net#?#article,.timeline-item:-abp-contains(/O[']?bama/i)",deletion,,2020-09-22T01:12,88
,"twitter.com,nitter.net#?#article,.timeline-item:-abp-contains(/Oh no[,]? it[']?s retarded/i)",deletion,,2020-09-22T01:12,89
,"twitter.com,nitter.net#?#article,.timeline-item:-abp-contains(/Pizzagate/i)",deletion,,2020-09-22T01:12,90
,"twitter.com,nitter.net#?#article,.timeline-item:-abp-contains(/political/i):not(:-abp-contains(/correctness/i))",deletion,,2020-09-22T01:12,91
,"twitter.com,nitter.net#?#article,.timeline-item:-abp-contains(/PragerU/i)",deletion,,2020-09-22T01:12,92
,"twitter.com,nitter.net#?#article,.timeline-item:-abp-contains(/President/i)",deletion,,2020-09-22T01:12,93
,"twitter.com,nitter.net#?#article,.timeline-item:-abp-contains(/Primaries/i)",deletion,,2020-09-22T01:12,94
,"twitter.com,nitter.net#?#article,.timeline-item:-abp-contains(/Pro-life/i)",deletion,,2020-09-22T01:12,95
,"twitter.com,nitter.net#?#article,.timeline-item:-abp-contains(/Q[aA]non/)",deletion,,2020-09-22T01:12,96
,"twitter.com,nitter.net#?#article,.timeline-item:-abp-contains(/redpill/i):not(:-abp-contains(Matrix))",deletion,,2020-09-22T01:12,97
,"twitter.com,nitter.net#?#article,.timeline-item:-abp-contains(/Republi[ck]an/i)",deletion,,2020-09-22T01:12,98
,"twitter.com,nitter.net#?#article,.timeline-item:-abp-contains(/right-leaning/i)",deletion,,2020-09-22T01:12,99
,"twitter.com,nitter.net#?#article,.timeline-item:-abp-contains(/right[- ]?wing/i):not(:-abp-contains(/plane/i))",deletion,,2020-09-22T01:12,100
,"twitter.com,nitter.net#?#article,.timeline-item:-abp-contains(/Rightist/i)",deletion,,2020-09-22T01:12,101
,"twitter.com,nitter.net#?#article,.timeline-item:-abp-contains(/Salvini[ ,.!?']/)",deletion,,2020-09-22T01:12,102
,"twitter.com,nitter.net#?#article,.timeline-item:-abp-contains(/Sean[ ]?Hannity/i)",deletion,,2020-09-22T01:12,103
,"twitter.com,nitter.net#?#article,.timeline-item:-abp-contains(/Second Amendment/i)",deletion,,2020-09-22T01:12,104
,"twitter.com,nitter.net#?#article,.timeline-item:-abp-contains(/Sheeple/i)",deletion,,2020-09-22T01:12,105
,"twitter.com,nitter.net#?#article,.timeline-item:-abp-contains(/snowflake/i):not(:-abp-contains(/weather/i)):not(:-abp-contains(/winter/i)):not(:-abp-contains(/fall/i))",deletion,,2020-09-22T01:12,106
,"twitter.com,nitter.net#?#article,.timeline-item:-abp-contains(/So[cs]ialis[tm]/i)",deletion,,2020-09-22T01:12,107
,"twitter.com,nitter.net#?#article,.timeline-item:-abp-contains(/Soytard/i)",deletion,,2020-09-22T01:12,108
,"twitter.com,nitter.net#?#article,.timeline-item:-abp-contains(/Tories[ .,?!']/)",deletion,,2020-09-22T01:12,109
,"twitter.com,nitter.net#?#article,.timeline-item:-abp-contains(/Trump/i):not(:-abp-contains(Twitch)):not(:-abp-contains(Judd)):not(:-abp-contains(/Snooker/i)):not(:-abp-contains(/trumpet/i)):not(:-abp-contains(/trumping/i))",deletion,,2020-09-22T01:12,110
,"twitter.com,nitter.net#?#article,.timeline-item:-abp-contains(/Truth Seeker/i)",deletion,,2020-09-22T01:12,111
,"twitter.com,nitter.net#?#article,.timeline-item:-abp-contains(/Warren[ ,.!?']/):not(:-abp-contains(/buffett/i))",deletion,,2020-09-22T01:12,112
,"twitter.com,nitter.net#?#article,.timeline-item:-abp-contains(/White[ ]?Genocide/i)",deletion,,2020-09-22T01:12,113
,"twitter.com,nitter.net#?#article,.timeline-item:-abp-contains(@ewarren)",deletion,,2020-09-22T01:12,114
,"twitter.com,nitter.net#?#article,.timeline-item:-abp-contains(Conservative)",deletion,,2020-09-22T01:12,115
,"twitter.com,nitter.net#?#article,.timeline-item:-abp-contains(conservatives)",deletion,,2020-09-22T01:12,116
,"twitter.com,nitter.net#?#article,.timeline-item:-abp-contains(Degenerative)",deletion,,2020-09-22T01:12,117
,"twitter.com,nitter.net#?#article,.timeline-item:-abp-contains(Electoral)",deletion,,2020-09-22T01:12,118
,"twitter.com,nitter.net#?#article,.timeline-item:-abp-contains(Farage)",deletion,,2020-09-22T01:12,119
,"twitter.com,nitter.net#?#article,.timeline-item:-abp-contains(feminist)",deletion,,2020-09-22T01:12,120
,"twitter.com,nitter.net#?#article,.timeline-item:-abp-contains(GOP)",deletion,,2020-09-22T01:12,121
,"twitter.com,nitter.net#?#article,.timeline-item:-abp-contains(imperialist)",deletion,,2020-09-22T01:12,122
,"twitter.com,nitter.net#?#article,.timeline-item:-abp-contains(Israeli occupation)",deletion,,2020-09-22T01:12,123
,"twitter.com,nitter.net#?#article,.timeline-item:-abp-contains(MAGA)",deletion,,2020-09-22T01:12,124
,"twitter.com,nitter.net#?#article,.timeline-item:-abp-contains(migrants)",deletion,,2020-09-22T01:12,125
,"twitter.com,nitter.net#?#article,.timeline-item:-abp-contains(migration):not(:-abp-contains(/server/i)):not(:-abp-contains(/bird/i))",deletion,,2020-09-22T01:12,126
,"twitter.com,nitter.net#?#article,.timeline-item:-abp-contains(Moslem)",deletion,,2020-09-22T01:12,127
,"twitter.com,nitter.net#?#article,.timeline-item:-abp-contains(NRA)",deletion,,2020-09-22T01:12,128
,"twitter.com,nitter.net#?#article,.timeline-item:-abp-contains(Obummer)",deletion,,2020-09-22T01:12,129
,"twitter.com,nitter.net#?#article,.timeline-item:-abp-contains(Patriot):not(:-abp-contains(New England)):not(:-abp-contains(Metal Gear Solid)):not(:-abp-contains(UQTR)):not(:-abp-contains(MGS))",deletion,,2020-09-22T01:12,130
,"twitter.com,nitter.net#?#article,.timeline-item:-abp-contains(POTUS)",deletion,,2020-09-22T01:12,131
,"twitter.com,nitter.net#?#article,.timeline-item:-abp-contains(progressive):not(:-abp-contains(progressively)):not(:-abp-contains(glass)):not(:-abp-contains(lens))",deletion,,2020-09-22T01:12,132
,"twitter.com,nitter.net#?#article,.timeline-item:-abp-contains(SenWarren)",deletion,,2020-09-22T01:12,133
,"twitter.com,nitter.net#?#article,.timeline-item:-abp-contains(Sharia)",deletion,,2020-09-22T01:12,134
,"twitter.com,nitter.net#?#article,.timeline-item:-abp-contains(Soetoro)",deletion,,2020-09-22T01:12,135
,"twitter.com,nitter.net#?#article,.timeline-item:-abp-contains(Soros )",deletion,,2020-09-22T01:12,136
,"twitter.com,nitter.net#?#article,.timeline-item:-abp-contains(/Soyboy/i)",deletion,,2020-09-22T01:12,137
,"twitter.com,nitter.net#?#article,.timeline-item:-abp-contains(Truther)",deletion,,2020-09-22T01:12,138
,"twitter.com,nitter.net#?#article,.timeline-item:-abp-contains(WAKE UP):not(:-abp-contains(/morning/i)):not(:-abp-contains(/makeup/i)):not(:-abp-contains(/bed/i))",deletion,,2020-09-22T01:12,139
,"twitter.com,nitter.net#?#article,.timeline-item:-abp-contains(/WW[G]?1WGA/)",deletion,,2020-09-22T01:12,140
,"twitter.com,nitter.net#?#article,.timeline-item:-abp-contains(☭)",deletion,,2020-09-22T01:12,141
,"twitter.com,nitter.net#?#article,.timeline-item:-abp-contains(卍):not(:-abp-contains(Hindu)):not(:-abp-contains(/Buddhis/i))",deletion,,2020-09-22T01:12,142
,"twitter.com,nitter.net#?#article,.timeline-item:-abp-contains(卐):not(:-abp-contains(Hindu)):not(:-abp-contains(/Buddhis/i))",deletion,,2020-09-22T01:12,143
,"twitter.com,nitter.net#?#article,.timeline-item:-abp-contains(/cuck/i):not(:-abp-contains(/cuckoo/i))",deletion,,2020-09-22T01:12,144
,"twitter.com,nitter.net#?#article,.timeline-item:-abp-contains(/Stonetoss/i)",deletion,,2020-09-22T01:12,145
,"twitter.com,nitter.net#?#article,.timeline-item:-abp-contains(/jewtard/i)",deletion,,2020-09-22T01:12,146
,"twitter.com,nitter.net#?#article,.timeline-item:-abp-contains(/13[/]?50/)",deletion,,2020-09-22T01:12,147
,"twitter.com,nitter.net#?#article,.timeline-item:-abp-contains(GEOTUS)",deletion,,2020-09-22T01:12,148
,"twitter.com,nitter.net#?#article,.timeline-item:-abp-contains(/Intifada/i)",deletion,,2020-09-22T01:12,149
,"twitter.com,nitter.net#?#article,.timeline-item:-abp-contains(/Pinkpill/i)",deletion,,2020-09-22T01:12,150
,"twitter.com,nitter.net#?#article,.timeline-item:-abp-contains(/Wrong[-]?think/i)",deletion,,2020-09-22T01:12,151
,"twitter.com,nitter.net#?#article,.timeline-item:-abp-contains(/the jq /i)",deletion,,2020-09-22T01:12,152
,"twitter.com,nitter.net#?#article,.timeline-item:-abp-contains(/miscegenat/i)",deletion,,2020-09-22T01:12,153
,"twitter.com,nitter.net#?#article,.timeline-item:-abp-contains(/wypipo/i)",deletion,,2020-09-22T01:12,154
,"twitter.com,nitter.net#?#article,.timeline-item:-abp-contains(/jewtube/i)",deletion,,2020-09-22T01:12,155
,"twitter.com,nitter.net#?#article,.timeline-item:-abp-contains(/judetube/i)",deletion,,2020-09-22T01:12,156
,"twitter.com,nitter.net#?#article,.timeline-item:-abp-contains(/race realis/i)",deletion,,2020-09-22T01:12,157
,"twitter.com,nitter.net#?#article,.timeline-item:-abp-contains(/reality of race/i)",deletion,,2020-09-22T01:12,158
,"twitter.com,nitter.net#?#article,.timeline-item:-abp-contains(//pol//)",deletion,,2020-09-22T01:12,159
,"twitter.com,nitter.net#?#article,.timeline-item:-abp-contains(/feminazi/i)",deletion,,2020-09-22T01:12,160
,"twitter.com,nitter.net#?#article,.timeline-item:-abp-contains(/caucus/i)",deletion,,2020-09-22T01:12,161
,"twitter.com,nitter.net#?#article,.timeline-item:-abp-contains(/demonazi/i)",deletion,,2020-09-22T01:12,162
,"twitter.com,nitter.net#?#article,.timeline-item:-abp-contains(PantherDen_)",deletion,,2020-09-22T01:12,163
,"twitter.com,nitter.net#?#article,.timeline-item:-abp-contains( MSM )",deletion,,2020-09-22T01:12,164
,"twitter.com,nitter.net#?#article,.timeline-item:-abp-contains(/Buttigieg/i)",deletion,,2020-09-22T01:12,165
,"twitter.com,nitter.net#?#article,.timeline-item:-abp-contains(/Hillary Cli[n]?ton/i)",deletion,,2020-09-22T01:12,166
,"twitter.com,nitter.net#?#article,.timeline-item:-abp-contains(/Killary/i)",deletion,,2020-09-22T01:12,167
,"twitter.com,nitter.net#?#article,.timeline-item:-abp-contains(/Hellary/i)",deletion,,2020-09-22T01:12,168
,"twitter.com,nitter.net#?#article,.timeline-item:-abp-contains(/Romney/i)",deletion,,2020-09-22T01:12,169
,"twitter.com,nitter.net#?#article,.timeline-item:-abp-contains(/riksrett/i)",deletion,,2020-09-22T01:12,170
,"twitter.com,nitter.net#?#article,.timeline-item:-abp-contains(/Fr[Pp]/)",deletion,,2020-09-22T01:12,171
,"twitter.com,nitter.net#?#article,.timeline-item:-abp-contains(/Listhaug/i)",deletion,,2020-09-22T01:12,172
,"twitter.com,nitter.net#?#article,.timeline-item:-abp-contains(/Limbaugh/i)",deletion,,2020-09-22T01:12,173
,"twitter.com,nitter.net#?#article,.timeline-item:-abp-contains(/ucker Carlson/i)",deletion,,2020-09-22T01:12,174
,"twitter.com,nitter.net#?#article,.timeline-item:-abp-contains(Klobuchar)",deletion,,2020-09-22T01:12,175
,"twitter.com,nitter.net#?#article,.timeline-item:-abp-contains(/Michael Bloomberg/i)",deletion,,2020-09-22T01:12,176
,"twitter.com,nitter.net#?#article,.timeline-item:-abp-contains(/Bernie[ ]?Bro/i)",deletion,,2020-09-22T01:12,177
,"twitter.com,nitter.net#?#article,.timeline-item:-abp-contains(Beta Male)",deletion,,2020-09-22T01:12,178
,"twitter.com,nitter.net#?#article,.timeline-item:-abp-contains('progressive')",deletion,,2020-09-22T01:12,179
,"twitter.com,nitter.net#?#article,.timeline-item:-abp-contains(/all cultures are equal/i)",deletion,,2020-09-22T01:12,180
,"twitter.com,nitter.net#?#article,.timeline-item:-abp-contains(/Bill of Rights/i)",deletion,,2020-09-22T01:12,181
,"twitter.com,nitter.net#?#article,.timeline-item:-abp-contains(/ alt[- ]left/i)",deletion,,2020-09-22T01:12,182
,"twitter.com,nitter.net#?#article,.timeline-item:-abp-contains(Honk):not(:-abp-contains(/goose/i)):not(:-abp-contains(/geese/i)):not(:-abp-contains(/Honkbal/i))",deletion,,2020-09-22T01:12,183
,"twitter.com,nitter.net#?#article,.timeline-item:-abp-contains(/election day/i)",deletion,,2020-09-22T01:12,184
,"twitter.com,nitter.net#?#article,.timeline-item:-abp-contains(/election night/i)",deletion,,2020-09-22T01:12,185
,"twitter.com,nitter.net#?#article,.timeline-item:-abp-contains(/rapefugee/i)",deletion,,2020-09-22T01:12,186
,"twitter.com,nitter.net#?#article,.timeline-item:-abp-contains(/chinaflu/i)",deletion,,2020-09-22T01:12,187
,"twitter.com,nitter.net#?#article,.timeline-item:-abp-contains(/china[ ]?virus/i)",deletion,,2020-09-22T01:12,188
,"twitter.com,nitter.net#?#article,.timeline-item:-abp-contains(/chinese[ ]?virus/i)",deletion,,2020-09-22T01:12,189
,"twitter.com,nitter.net#?#article,.timeline-item:-abp-contains(/CCP Virus/i)",deletion,,2020-09-22T01:12,190
,"twitter.com,nitter.net#?#article,.timeline-item:-abp-contains(/Pro[-]?2A/i)",deletion,,2020-09-22T01:12,191
,"twitter.com,nitter.net#?#article,.timeline-item:-abp-contains(/\(\(\(\S/)",deletion,,2020-09-22T01:12,192
,"twitter.com,nitter.net#?#article,.timeline-item:-abp-contains(/Berner[s]?[ ,.!?']/)",deletion,,2020-09-22T01:12,193
,"twitter.com,nitter.net#?#article,.timeline-item:-abp-contains(/Soy[ -]?chug/i)",deletion,,2020-09-22T01:12,194
,"twitter.com,nitter.net#?#article,.timeline-item:-abp-contains(/avocado[ -]eating/i)",deletion,,2020-09-22T01:12,195
,"twitter.com,nitter.net#?#article,.timeline-item:-abp-contains(/FauciFraud/i)",deletion,,2020-09-22T01:12,196
,"twitter.com,nitter.net#?#article,.timeline-item:-abp-contains(/Pedogate/i)",deletion,,2020-09-22T01:12,197
,"twitter.com,nitter.net#?#article,.timeline-item:-abp-contains(/Wuhan[ ]?virus/i)",deletion,,2020-09-22T01:12,198
,"twitter.com,nitter.net#?#article,.timeline-item:-abp-contains(Billary)",deletion,,2020-09-22T01:12,199
,"twitter.com,nitter.net#?#article,.timeline-item:-abp-contains(/Shillary/i)",deletion,,2020-09-22T01:12,200
,"twitter.com,nitter.net#?#article,.timeline-item:-abp-contains(/culture[ ]?war/i)",deletion,,2020-09-22T01:12,201
,"twitter.com,nitter.net#?#article,.timeline-item:-abp-contains(/soylet/i)",deletion,,2020-09-22T01:12,202
,"twitter.com,nitter.net#?#article,.timeline-item:-abp-contains(/Alinsky/i)",deletion,,2020-09-22T01:12,203
,"twitter.com,nitter.net#?#article,.timeline-item:-abp-contains( woke ):not(:-abp-contains( up))",deletion,,2020-09-22T01:12,204
,"twitter.com,nitter.net#?#article,.timeline-item:-abp-contains(Lamestream)",deletion,,2020-09-22T01:12,205
,"twitter.com,nitter.net#?#article,.timeline-item:-abp-contains(filmyourhospital)",deletion,,2020-09-22T01:12,206
,"twitter.com,nitter.net#?#article,.timeline-item:-abp-contains(/Freedom/i):-abp-contains(/Liberty/i)",deletion,,2020-09-22T01:12,207
,"twitter.com,nitter.net#?#article,.timeline-item:-abp-contains(CCP)",deletion,,2020-09-22T01:12,208
,"twitter.com,nitter.net#?#article,.timeline-item:-abp-contains(/ tankie/i)",deletion,,2020-09-22T01:12,209
,"twitter.com,nitter.net#?#article,.timeline-item:-abp-contains(/Sleepy[ ]?Joe/i)",deletion,,2020-09-22T01:12,210
,"twitter.com,nitter.net#?#article,.timeline-item:-abp-contains(1488):not(:-abp-contains(/Year/i))",deletion,,2020-09-22T01:12,211
,"twitter.com,nitter.net#?#article,.timeline-item:-abp-contains(/Radical Left/i)",deletion,,2020-09-22T01:12,212
,"twitter.com,nitter.net#?#article,.timeline-item:-abp-contains(Tom Cotton)",deletion,,2020-09-22T01:12,213
,"twitter.com,nitter.net#?#article,.timeline-item:-abp-contains(Crooked Hillary)",deletion,,2020-09-22T01:12,214
,"twitter.com,nitter.net#?#article,.timeline-item:-abp-contains(/soy latte/i)",deletion,,2020-09-22T01:12,215
,"twitter.com,nitter.net#?#article,.timeline-item:-abp-contains(/Kung Flu/i)",deletion,,2020-09-22T01:12,216
,"twitter.com,nitter.net#?#article,.timeline-item:-abp-contains(/killing unborn/i)",deletion,,2020-09-22T01:12,217
,"twitter.com,nitter.net#?#article,.timeline-item:-abp-contains(TRiUMPh)",deletion,,2020-09-22T01:12,218
,"twitter.com,nitter.net#?#article,.timeline-item:-abp-contains(Corrupt Joe)",deletion,,2020-09-22T01:12,219
,"twitter.com,nitter.net#?#article,.timeline-item:-abp-contains(SILENT MAJORITY)",deletion,,2020-09-22T01:12,220
,"twitter.com,nitter.net#?#article,.timeline-item:-abp-contains(western man):not(:-abp-contains(mansion))",deletion,,2020-09-22T01:12,221
,"twitter.com,nitter.net#?#article,.timeline-item:-abp-contains(/leftoid/i)",deletion,,2020-09-22T01:12,222
,"twitter.com,nitter.net#?#article,.timeline-item:-abp-contains(#Q ):not(:-abp-contains(BBC))",deletion,,2020-09-22T01:12,223
,"twitter.com,nitter.net#?#article,.timeline-item:-abp-contains(on Parler)",deletion,,2020-09-22T01:12,224
,"twitter.com,nitter.net#?#article,.timeline-item:-abp-contains(#RNC)",deletion,,2020-09-22T01:12,225
,"twitter.com,nitter.net#?#article,.timeline-item:-abp-contains(/federal government/i)",deletion,,2020-09-22T01:12,226
,"twitter.com,nitter.net#?#article,.timeline-item:-abp-contains(/Black[ ]?Lie/i)",deletion,,2020-09-22T01:12,227
,"twitter.com,nitter.net#?#article,.timeline-item:-abp-contains(#Rep):not(:-abp-contains(Replica))",deletion,,2020-09-22T01:12,228
,"twitter.com,nitter.net#?#article,.timeline-item:-abp-contains(Ian Miles)",deletion,,2020-09-22T01:12,229
,"twitter.com,nitter.net#?#article,.timeline-item:-abp-contains(/BLM[ ]?Lie/i)",deletion,,2020-09-22T01:12,230
,"twitter.com,nitter.net#?#article,.timeline-item:-abp-contains(/Senator/i)",deletion,,2020-09-22T01:12,231
,"twitter.com,nitter.net#?#article,.timeline-item:-abp-contains(✝)",deletion,,2020-09-22T01:12,232
,twitter.com#?#article:-abp-has(.r-dnmrzs:-abp-has([alt=🇺🇸])),deletion,,2020-09-22T01:12,233
,twitter.com#?#article:-abp-has(.r-dnmrzs:-abp-has([alt=🇺🇲])),deletion,,2020-09-22T01:12,234
,twitter.com#?#article:-abp-has(a[aria-haspopup=false] img[src$='/svg/1f1fa-1f1f8.svg']),deletion,,2020-09-22T01:12,235
,twitter.com#?#article:-abp-has(a[href^='/'] img[src$='/svg/1f1fa-1f1f8.svg']),deletion,,2020-09-22T01:12,236
,twitter.com#?#article:-abp-contains(tfw no gf),deletion,,2020-09-22T01:12,237
,twitter.com#?#article:-abp-contains( kosher),deletion,,2020-09-22T01:12,238
,*##.tweet:has-text(realDonaldTrump),deletion,,2020-09-22T01:12,239
,*##.tweet:has(a[href*='/realDonaldTrump/']),deletion,,2020-09-22T01:12,240
,*##^.twitter-tweet:has-text(realDonaldTrump),deletion,,2020-09-22T01:12,241
<iframe srcdoc=twitter-tweet srcdoc=realDonaldTrump></iframe>,##iframe[srcdoc*=twitter-tweet][srcdoc*=realDonaldTrump],deletion,,2020-09-22T01:12,242
<iframe srcdoc=EmbeddedTweet srcdoc=realDonaldTrump></iframe>,##iframe[srcdoc*=EmbeddedTweet][srcdoc*=realDonaldTrump],deletion,,2020-09-22T01:12,243
<figure><iframe srcdoc='\\/twitter.com\\/realDonaldTrump\\/'></iframe></figure>,##figure > iframe[srcdoc*='\\/twitter.com\\/realDonaldTrump\\/'],deletion,,2020-09-22T01:12,244
