,list,path,output
0,current,data_analysis/uAssets_Badware/current,output/uAssets_Badware/current
1,2022-02-20T13:33,data_analysis/uAssets_Badware/2022-02-20T13:33,output/uAssets_Badware/2022-02-20T13:33
2,2022-02-20T16:25,data_analysis/uAssets_Badware/2022-02-20T16:25,output/uAssets_Badware/2022-02-20T16:25
3,2022-02-21T17:10,data_analysis/uAssets_Badware/2022-02-21T17:10,output/uAssets_Badware/2022-02-21T17:10
4,2022-02-23T11:35,data_analysis/uAssets_Badware/2022-02-23T11:35,output/uAssets_Badware/2022-02-23T11:35
5,2022-02-23T15:37,data_analysis/uAssets_Badware/2022-02-23T15:37,output/uAssets_Badware/2022-02-23T15:37
6,2022-02-25T17:46,data_analysis/uAssets_Badware/2022-02-25T17:46,output/uAssets_Badware/2022-02-25T17:46
7,2022-02-25T18:00,data_analysis/uAssets_Badware/2022-02-25T18:00,output/uAssets_Badware/2022-02-25T18:00
8,2022-02-25T18:44,data_analysis/uAssets_Badware/2022-02-25T18:44,output/uAssets_Badware/2022-02-25T18:44
9,2022-02-27T07:46,data_analysis/uAssets_Badware/2022-02-27T07:46,output/uAssets_Badware/2022-02-27T07:46
10,2022-02-27T12:38,data_analysis/uAssets_Badware/2022-02-27T12:38,output/uAssets_Badware/2022-02-27T12:38
11,2022-02-27T15:14,data_analysis/uAssets_Badware/2022-02-27T15:14,output/uAssets_Badware/2022-02-27T15:14
12,2022-03-01T18:52,data_analysis/uAssets_Badware/2022-03-01T18:52,output/uAssets_Badware/2022-03-01T18:52
13,2022-03-03T14:15,data_analysis/uAssets_Badware/2022-03-03T14:15,output/uAssets_Badware/2022-03-03T14:15
14,2022-03-04T18:12,data_analysis/uAssets_Badware/2022-03-04T18:12,output/uAssets_Badware/2022-03-04T18:12
15,2022-03-06T19:39,data_analysis/uAssets_Badware/2022-03-06T19:39,output/uAssets_Badware/2022-03-06T19:39
16,2022-03-07T16:19,data_analysis/uAssets_Badware/2022-03-07T16:19,output/uAssets_Badware/2022-03-07T16:19
17,2022-03-08T17:34,data_analysis/uAssets_Badware/2022-03-08T17:34,output/uAssets_Badware/2022-03-08T17:34
18,2022-03-09T12:39,data_analysis/uAssets_Badware/2022-03-09T12:39,output/uAssets_Badware/2022-03-09T12:39
19,2022-03-09T18:06,data_analysis/uAssets_Badware/2022-03-09T18:06,output/uAssets_Badware/2022-03-09T18:06
20,2022-03-09T20:14,data_analysis/uAssets_Badware/2022-03-09T20:14,output/uAssets_Badware/2022-03-09T20:14
21,2022-03-09T22:38,data_analysis/uAssets_Badware/2022-03-09T22:38,output/uAssets_Badware/2022-03-09T22:38
22,2022-03-12T14:16,data_analysis/uAssets_Badware/2022-03-12T14:16,output/uAssets_Badware/2022-03-12T14:16
23,2022-03-12T18:06,data_analysis/uAssets_Badware/2022-03-12T18:06,output/uAssets_Badware/2022-03-12T18:06
24,2022-03-15T18:21,data_analysis/uAssets_Badware/2022-03-15T18:21,output/uAssets_Badware/2022-03-15T18:21
