test,entry,type,lists,name,id
,delfi.ee##.C-ad-block-layer,addition,,2021-11-15T09:34,0
,delfi.ee##.C-ad-block-layer-content,addition,,2021-11-15T09:34,1
,postimees.ee##.adblock-notif,addition,,2021-11-17T07:56,2
