test,entry,type,lists,name,id
,"twitter.com,twitter3e4tixl4xyajtrzo62zg5vztmjuricljdp2c5kshju4avyoid.onion#?#div[style*='position: absolute; ']:not([class]):-abp-contains(/Adoptable[s.!,;]/i)",addition,,current,0
,"twitter.com,twitter3e4tixl4xyajtrzo62zg5vztmjuricljdp2c5kshju4avyoid.onion#?#div[style*='position: absolute; ']:not([class]):-abp-contains(/ adopts?[ .!,;]/i):not(:-abp-contains(/child|kid|resolution/i))",addition,,current,1
,"twitter.com,twitter3e4tixl4xyajtrzo62zg5vztmjuricljdp2c5kshju4avyoid.onion#?#div[style*='position: absolute; ']:not([class]):-abp-contains(/sonicadopts/i)",addition,,current,2
,"twitter.com,twitter3e4tixl4xyajtrzo62zg5vztmjuricljdp2c5kshju4avyoid.onion#?#div[style*='position: absolute; ']:not([class]):-abp-has(div[style*='#hex-hw-shapeclip-'])",addition,,current,3
,"twitter.com,twitter3e4tixl4xyajtrzo62zg5vztmjuricljdp2c5kshju4avyoid.onion#?#div[style*='position: absolute; ']:not([class]):-abp-has(div[id] > div > div[dir=auto]:-abp-contains(.eth))",addition,,current,4
,"twitter.com,twitter3e4tixl4xyajtrzo62zg5vztmjuricljdp2c5kshju4avyoid.onion#?#div[style*='position: absolute; ']:not([class]):-abp-contains(opensea.)",addition,,current,5
,"twitter.com,twitter3e4tixl4xyajtrzo62zg5vztmjuricljdp2c5kshju4avyoid.onion#?#div[style*='position: absolute; ']:not([class]):-abp-contains(foundation.app)",addition,,current,6
,"twitter.com#?#div[style*='position: absolute; ']:not([class]):-abp-contains(/Adoptable[s.!,;]/i)",deletion,,current,7
,"twitter.com#?#div[style*='position: absolute; ']:not([class]):-abp-contains(/ adopts?[ .!,;]/i):not(:-abp-contains(/child|kid|resolution/i))",deletion,,current,8
,twitter.com#?#div[style*='position: absolute; ']:not([class]):-abp-contains(/sonicadopts/i),deletion,,current,9
,twitter.com#?#div[style*='position: absolute; ']:not([class]):-abp-has(div[style*='#hex-hw-shapeclip-']),deletion,,current,10
,twitter.com#?#div[style*='position: absolute; ']:not([class]):-abp-has(div[id] > div > div[dir=auto]:-abp-contains(.eth)),deletion,,current,11
,twitter.com#?#div[style*='position: absolute; ']:not([class]):-abp-contains(opensea.),deletion,,current,12
,twitter.com#?#div[style*='position: absolute; ']:not([class]):-abp-contains(foundation.app),deletion,,current,13
<img src='https://[Adblock Plus 3.6]' style='visibility: hidden' />,[Adblock Plus 3.6],addition,,2021-04-02T22:44,14
<img src='https://[Adblock Plus 3.4]' style='visibility: hidden' />,[Adblock Plus 3.4],deletion,,2021-04-02T22:44,15
,artstation.com#?#projects-list-item:-abp-contains(/slot symbol/i),addition,,2021-03-23T15:26,16
,artstation.com#?#projects-list-item:-abp-contains(/Keno[ .]/),addition,,2021-03-23T15:26,17
,artstation.com#?#projects-list-item:-abp-contains(/slot game/i),addition,,2021-03-23T15:26,18
,pixiv.net#?#li[class*=' ']:-abp-has(a[href*='/artworks/'] img[alt*=adoptable i]),addition,,2021-01-18T04:46,19
,pixiv.net#?#li[class*=' ']:-abp-has(a[href*='/artworks/'] img[alt*='[Open]' i]),addition,,2021-01-18T04:46,20
,pixiv.net#?#li[class*=' ']:-abp-has(a[href*='/artworks/'] img[alt*='[Closed]' i]),addition,,2021-01-18T04:46,21
,pixiv.net#?#li[class*=' ']:-abp-has(a[href*='/artworks/'] img[alt*=' adopts!' i]),addition,,2021-01-18T04:46,22
,pixiv.net#?#li[class*=' ']:-abp-has(a[href*='/artworks/'] img[alt*=closedspecies i]),addition,,2021-01-18T04:46,23
,pixiv.net#?#li[class*=' ']:-abp-has(a[href*='/artworks/'] img[alt*=closed_species i]),addition,,2021-01-18T04:46,24
,pixiv.net#?#li[class*=' ']:-abp-has(a[href*='/artworks/']:not([data-gtm-recommend-zone=discovery])):-abp-has(a[href$='users/37189328']),addition,,2021-01-18T04:46,25
,pixiv.net#?#li:-abp-has(a[href*='/artworks/'] img[alt*=adoptable i]),deletion,,2021-01-18T04:46,26
,pixiv.net#?#li:-abp-has(a[href*='/artworks/'] img[alt*='[Open]' i]),deletion,,2021-01-18T04:46,27
,pixiv.net#?#li:-abp-has(a[href*='/artworks/'] img[alt*='[Closed]' i]),deletion,,2021-01-18T04:46,28
,pixiv.net#?#li:-abp-has(a[href*='/artworks/'] img[alt*=' adopts!' i]),deletion,,2021-01-18T04:46,29
,pixiv.net#?#li:-abp-has(a[href*='/artworks/'] img[alt*=closedspecies i]),deletion,,2021-01-18T04:46,30
,pixiv.net#?#li:-abp-has(a[href*='/artworks/'] img[alt*=closed_species i]),deletion,,2021-01-18T04:46,31
,pixiv.net#?#li:-abp-has(a[href*='/artworks/']:not([data-gtm-recommend-zone=discovery])):-abp-has(a[href$='users/37189328']),deletion,,2021-01-18T04:46,32
,pixiv.net#?#li:-abp-has(a[href*='/artworks/'] img[alt*=closedspecies i]),addition,,2020-12-24T10:06,33
,pixiv.net#?#li:-abp-has(a[href*='/artworks/'] img[alt*=closed_species i]),addition,,2020-12-24T10:06,34
,pixiv.net#?#.works-item:-abp-has(img[alt*=closedspecies i]),addition,,2020-12-24T10:06,35
,pixiv.net#?#.works-item:-abp-has(img[alt*=closed_species i]),addition,,2020-12-24T10:06,36
,pixiv.net#?#li:-abp-has(a[href*='/artworks/'] img[alt*='closedspecies' i]),deletion,,2020-12-24T10:06,37
,pixiv.net#?#li:-abp-has(a[href*='/artworks/'] img[alt*='closed_species' i]),deletion,,2020-12-24T10:06,38
,pixiv.net#?#.works-item:-abp-has(img[alt*='closedspecies' i]),deletion,,2020-12-24T10:06,39
,pixiv.net#?#.works-item:-abp-has(img[alt*='closed_species' i]),deletion,,2020-12-24T10:06,40
,"twitter.com#?#article:-abp-contains(/ adopts?[ .!,;]/i):not(:-abp-contains(/child|kid|resolution/i))",addition,,2020-12-17T19:25,41
,"twitter.com#?#article:-abp-contains(/ adopts?[ .!,;]/i):not(:-abp-contains(/child|kid/i))",deletion,,2020-12-17T19:25,42
,"twitter.com#?#article:-abp-contains(/ adopts?[ .!,;]/i):not(:-abp-contains(/child|kid/i))",addition,,2020-12-16T22:52,43
,twitter.com#?#article:-abp-contains(/sonicadopts/i),addition,,2020-12-16T22:52,44
,"artstation.com#?#.gallery-grid-item,.project:-abp-contains(/(^| |\|)adopt/i)",addition,,2021-04-14T15:06,45
,"artstation.com#?#.gallery-grid-item,.project:-abp-contains(/auction/i)",addition,,2021-04-14T15:06,46
,"artstation.com#?#.gallery-grid-item,.project:-abp-contains(/slot machine/i)",addition,,2021-04-14T15:06,47
,"artstation.com#?#.gallery-grid-item,.project:-abp-contains(/video slot/i)",addition,,2021-04-14T15:06,48
,"artstation.com#?#.gallery-grid-item,.project:-abp-contains(/slot symbol/i)",addition,,2021-04-14T15:06,49
,"artstation.com#?#.gallery-grid-item,.project:-abp-contains(/Keno[ .]/)",addition,,2021-04-14T15:06,50
,"artstation.com#?#.gallery-grid-item,.project:-abp-contains(/slot game/i)",addition,,2021-04-14T15:06,51
,artstation.com#?#.gallery-grid-item:-abp-contains(/(^| |\|)adopt/i),deletion,,2021-04-14T15:06,52
,artstation.com#?#.gallery-grid-item:-abp-contains(/auction/i),deletion,,2021-04-14T15:06,53
,artstation.com#?#projects-list-item:-abp-contains(/slot machine/i),deletion,,2021-04-14T15:06,54
,artstation.com#?#projects-list-item:-abp-contains(/video slot/i),deletion,,2021-04-14T15:06,55
,artstation.com#?#projects-list-item:-abp-contains(/slot symbol/i),deletion,,2021-04-14T15:06,56
,artstation.com#?#projects-list-item:-abp-contains(/Keno[ .]/),deletion,,2021-04-14T15:06,57
,artstation.com#?#projects-list-item:-abp-contains(/slot game/i),deletion,,2021-04-14T15:06,58
,"tumblr.com#?#.post,div[tabindex]:-abp-contains(/adoptable/i)",addition,,2021-05-29T07:40,59
,"tumblr.com#?#.post,div[tabindex]:-abp-contains(/adopts/i)",addition,,2021-05-29T07:40,60
,pixiv.net#?#li[class*=' ']:-abp-has(a[href*='/artworks/'] img[alt*=Dopts]),addition,,2021-05-08T22:35,61
,pixiv.net#?#li[class*=' ']:-abp-has(a[href*='/artworks/'] img[alt*=Dopties]),addition,,2021-05-08T22:35,62
,pixiv.net#?#li[class*=' ']:-abp-has(a[href*='/artworks/'] img[alt*=ADOPTED]),addition,,2021-05-08T22:35,63
,pixiv.net#?#li[class*=' ']:-abp-has(a[href*='/artworks/']:not([data-gtm-recommend-zone=discovery])):-abp-has(a[href$='users/7857912']),addition,,2021-05-08T22:35,64
,pixiv.net#?#div[data-gtm-recommend-zone=discovery] > div:-abp-has(> figure[style] > figcaption > ul:-abp-contains(Dopts)),addition,,2021-05-08T22:35,65
,pixiv.net#?#div[data-gtm-recommend-zone=discovery] > div:-abp-has(> figure[style] > figcaption > ul:-abp-contains(Dopties)),addition,,2021-05-08T22:35,66
,pixiv.net#?#div[data-gtm-recommend-zone=discovery] > div:-abp-has(> figure[style] > figcaption > ul:-abp-contains(ADOPTED)),addition,,2021-05-08T22:35,67
,pixiv.net#?#div[data-gtm-recommend-zone=discovery] > div:-abp-has(> figure[style] > figcaption > ul a[href$='?id=7857912']),addition,,2021-05-08T22:35,68
,pixiv.net#?#.works-item:-abp-has(img[alt*=Dopts]),addition,,2021-05-08T22:35,69
,pixiv.net#?#.works-item:-abp-has(img[alt*=Dopties]),addition,,2021-05-08T22:35,70
,pixiv.net#?#.works-item:-abp-has(img[alt*=ADOPTED]),addition,,2021-05-08T22:35,71
,inkbunny.net#?#.widget_thumbnailLargeCompleteFromSubmission:-abp-has(img[title*=adopt]),addition,,2021-04-21T14:10,72
,furrynetwork.com#?#.media-grid__item:-abp-contains(/Adoptable/i),addition,,2021-07-05T06:33,73
,"twitter.com#?#div[style^='position: absolute; ']:not([class]):-abp-contains(/Adoptable[s.!,;]/i)",addition,,2021-08-18T13:54,74
,"twitter.com#?#div[style^='position: absolute; ']:not([class]):-abp-contains(/ adopts?[ .!,;]/i):not(:-abp-contains(/child|kid|resolution/i))",addition,,2021-08-18T13:54,75
,twitter.com#?#div[style^='position: absolute; ']:not([class]):-abp-contains(/sonicadopts/i),addition,,2021-08-18T13:54,76
,"twitter.com#?#article:-abp-contains(/Adoptable[s.!,;]/i)",deletion,,2021-08-18T13:54,77
,"twitter.com#?#article:-abp-contains(/ adopts?[ .!,;]/i):not(:-abp-contains(/child|kid|resolution/i))",deletion,,2021-08-18T13:54,78
,twitter.com#?#article:-abp-contains(/sonicadopts/i),deletion,,2021-08-18T13:54,79
,instagram.com#?#article > div > div[style^=flex-direction] > div[class] > div:-abp-has(img[alt*=' adops ' i]),addition,,2021-08-22T12:10,80
,instagram.com#?#article > div > div[style^=flex-direction] > div[class] > div:-abp-has(img[alt*=' adopt ' i]),addition,,2021-08-22T12:10,81
,"twitter.com#?#div[style*='position: absolute; ']:not([class]):-abp-contains(/Adoptable[s.!,;]/i)",addition,,2021-10-16T06:44,82
,"twitter.com#?#div[style*='position: absolute; ']:not([class]):-abp-contains(/ adopts?[ .!,;]/i):not(:-abp-contains(/child|kid|resolution/i))",addition,,2021-10-16T06:44,83
,twitter.com#?#div[style*='position: absolute; ']:not([class]):-abp-contains(/sonicadopts/i),addition,,2021-10-16T06:44,84
,"twitter.com#?#div[style^='position: absolute; ']:not([class]):-abp-contains(/Adoptable[s.!,;]/i)",deletion,,2021-10-16T06:44,85
,"twitter.com#?#div[style^='position: absolute; ']:not([class]):-abp-contains(/ adopts?[ .!,;]/i):not(:-abp-contains(/child|kid|resolution/i))",deletion,,2021-10-16T06:44,86
,twitter.com#?#div[style^='position: absolute; ']:not([class]):-abp-contains(/sonicadopts/i),deletion,,2021-10-16T06:44,87
,pixiv.net#?#li[class*=' ']:-abp-has(a[href*='/artworks/'] img[alt*='[adopt]' i]),addition,,2021-09-15T14:18,88
,pixiv.net#?#div[data-gtm-recommend-zone=discovery] > div:-abp-has(> figure[style] > figcaption > ul:-abp-contains(/Adoptable/i)),deletion,,2021-10-18T20:03,89
,pixiv.net#?#div[data-gtm-recommend-zone=discovery] > div:-abp-has(> figure[style] > figcaption > ul:-abp-contains(/\[Open\]/i)),deletion,,2021-10-18T20:03,90
,pixiv.net#?#div[data-gtm-recommend-zone=discovery] > div:-abp-has(> figure[style] > figcaption > ul:-abp-contains(/\[Closed\]/i)),deletion,,2021-10-18T20:03,91
,pixiv.net#?#div[data-gtm-recommend-zone=discovery] > div:-abp-has(> figure[style] > figcaption > ul:-abp-contains(/ adopts!/i)),deletion,,2021-10-18T20:03,92
,pixiv.net#?#div[data-gtm-recommend-zone=discovery] > div:-abp-has(> figure[style] > figcaption > ul:-abp-contains(Dopts)),deletion,,2021-10-18T20:03,93
,pixiv.net#?#div[data-gtm-recommend-zone=discovery] > div:-abp-has(> figure[style] > figcaption > ul:-abp-contains(Dopties)),deletion,,2021-10-18T20:03,94
,pixiv.net#?#div[data-gtm-recommend-zone=discovery] > div:-abp-has(> figure[style] > figcaption > ul:-abp-contains(ADOPTED)),deletion,,2021-10-18T20:03,95
,pixiv.net#?#div[data-gtm-recommend-zone=discovery] > div:-abp-has(> figure[style] > figcaption > ul a[href$='?id=37189328']),deletion,,2021-10-18T20:03,96
,pixiv.net#?#div[data-gtm-recommend-zone=discovery] > div:-abp-has(> figure[style] > figcaption > ul a[href$='?id=7857912']),deletion,,2021-10-18T20:03,97
,"twitter.com#?#div[style*='position: absolute; ']:not([class]):-abp-contains(/ nft[ .!,;_-]/i)",addition,,2022-01-21T04:21,98
,twitter.com#?#div[style*='position: absolute; ']:not([class]):-abp-has(div[style*='#hex-hw-shapeclip-']),addition,,2022-01-21T04:21,99
,furaffinity.net#?#figure:-abp-has(> figcaption > p > a[title*=OpenSea i]),addition,,2021-11-10T16:47,100
,furaffinity.net#?#figure:-abp-has(> figcaption > p > a[title*=NFT][title*=available i]),addition,,2021-11-10T16:47,101
,"artstation.com#?#.gallery-grid-item,.project:-abp-contains(/NF\.?T/)",addition,,2021-11-10T16:47,102
,"artstation.com#?#.gallery-grid-item,.project:-abp-contains(Andre-Lang Huynh)",addition,,2021-11-10T16:47,103
,"artstation.com#?#.gallery-grid-item,.project:-abp-contains(/rare/i):-abp-contains(/Pepe/i)",addition,,2021-11-10T16:47,104
,"artstation.com#?#.gallery-grid-item,.project:-abp-contains(Ether)",addition,,2021-11-10T16:47,105
,"artstation.com#?#.gallery-grid-item,.project:-abp-contains(Manolov)",addition,,2021-11-10T16:47,106
,"artstation.com#?#.gallery-grid-item,.project:-abp-contains(Noah's Ark)",addition,,2021-11-10T16:47,107
,"artstation.com#?#.gallery-grid-item,.project:-abp-contains(/Crypto[c ]/)",addition,,2021-11-10T16:47,108
,"artstation.com#?#.gallery-grid-item,.project:-abp-contains(Ξ)",addition,,2021-11-10T16:47,109
,"tumblr.com#?#.post,div[tabindex]:-abp-contains(/cryptoart/i)",addition,,2021-11-10T16:47,110
,"tumblr.com#?#.post,div[tabindex]:-abp-contains(NFT project)",addition,,2021-11-10T16:47,111
,"tumblr.com#?#.post,div[tabindex]:-abp-has(a[href*='foundation.app'])",addition,,2021-11-10T16:47,112
,"tumblr.com#?#.post,div[tabindex]:-abp-contains(/nftcommunity/i)",addition,,2021-11-10T16:47,113
,"tumblr.com#?#.post,div[tabindex]:-abp-has(a[href*='opensea.io'])",addition,,2021-11-10T16:47,114
,"tumblr.com#?#.post,div[tabindex]:-abp-contains(/nft ?collection/i)",addition,,2021-11-10T16:47,115
,"tumblr.com#?#.post,div[tabindex]:-abp-contains(/nft ?marketplace/i)",addition,,2021-11-10T16:47,116
,"tumblr.com#?#.post,div[tabindex]:-abp-contains(/nft ?art/)",addition,,2021-11-10T16:47,117
,"tumblr.com#?#.post,div[tabindex]:-abp-contains(/OpenSea/i)",addition,,2021-11-10T16:47,118
,"instagram.com#?#article > div > div[style^=flex-direction] > div[class] > div,ul > div[role=button]:first-of-type ~ ul[class$=' ']:-abp-has(img[alt*=NFT i])",addition,,2021-11-10T16:47,119
,||opensea.io^$document,addition,,2021-11-10T16:47,120
,||foundation.app^$document,addition,,2021-11-10T16:47,121
,||rarible.com^$document,addition,,2021-11-10T16:47,122
,||makersplace.com^$document,addition,,2021-11-10T16:47,123
,"twitter.com#?#div[style*='position: absolute; ']:not([class]):-abp-contains(/ nft[ .!,;'_-]/i):-abp-has(a[href*='/status/'] img)",addition,,2022-01-21T04:36,124
,"twitter.com#?#div[style*='position: absolute; ']:not([class]):-abp-contains(/ nft[ .!,;_-]/i)",deletion,,2022-01-21T04:36,125
,twitter.com#?#div[style*='position: absolute; ']:not([class]):-abp-has(div[id] > div > div[dir=auto]:-abp-contains(.eth)),addition,,2022-01-24T05:03,126
,twitter.com#?#div[style*='position: absolute; ']:not([class]):-abp-contains(opensea.),addition,,2022-01-24T05:03,127
,twitter.com#?#div[style*='position: absolute; ']:not([class]):-abp-contains(foundation.app),addition,,2022-01-24T05:03,128
,"twitter.com#?#div[style*='position: absolute; ']:not([class]):-abp-contains(/ nft[ .!,;'_-]/i):-abp-has(a[href*='/status/'] img)",deletion,,2022-01-24T05:03,129
