,list,path,output
0,2021-02-09T04:27,data_analysis/jiekouAD/2021-02-09T04:27,output/jiekouAD/2021-02-09T04:27
1,2021-02-16T11:02,data_analysis/jiekouAD/2021-02-16T11:02,output/jiekouAD/2021-02-16T11:02
2,2021-02-17T06:21,data_analysis/jiekouAD/2021-02-17T06:21,output/jiekouAD/2021-02-17T06:21
3,2021-02-17T07:44,data_analysis/jiekouAD/2021-02-17T07:44,output/jiekouAD/2021-02-17T07:44
4,2021-02-20T04:11,data_analysis/jiekouAD/2021-02-20T04:11,output/jiekouAD/2021-02-20T04:11
5,2021-02-20T04:39,data_analysis/jiekouAD/2021-02-20T04:39,output/jiekouAD/2021-02-20T04:39
6,2021-02-20T05:49,data_analysis/jiekouAD/2021-02-20T05:49,output/jiekouAD/2021-02-20T05:49
7,2021-02-20T06:03,data_analysis/jiekouAD/2021-02-20T06:03,output/jiekouAD/2021-02-20T06:03
8,2021-02-20T06:30,data_analysis/jiekouAD/2021-02-20T06:30,output/jiekouAD/2021-02-20T06:30
9,2021-02-20T11:08,data_analysis/jiekouAD/2021-02-20T11:08,output/jiekouAD/2021-02-20T11:08
10,2021-02-20T17:12,data_analysis/jiekouAD/2021-02-20T17:12,output/jiekouAD/2021-02-20T17:12
11,2021-02-21T06:00,data_analysis/jiekouAD/2021-02-21T06:00,output/jiekouAD/2021-02-21T06:00
12,2021-02-21T12:16,data_analysis/jiekouAD/2021-02-21T12:16,output/jiekouAD/2021-02-21T12:16
13,2021-02-22T13:33,data_analysis/jiekouAD/2021-02-22T13:33,output/jiekouAD/2021-02-22T13:33
14,2021-02-23T03:42,data_analysis/jiekouAD/2021-02-23T03:42,output/jiekouAD/2021-02-23T03:42
15,2021-02-23T04:53,data_analysis/jiekouAD/2021-02-23T04:53,output/jiekouAD/2021-02-23T04:53
16,2021-02-23T07:26,data_analysis/jiekouAD/2021-02-23T07:26,output/jiekouAD/2021-02-23T07:26
17,2021-02-24T11:00,data_analysis/jiekouAD/2021-02-24T11:00,output/jiekouAD/2021-02-24T11:00
18,2021-03-01T05:47,data_analysis/jiekouAD/2021-03-01T05:47,output/jiekouAD/2021-03-01T05:47
19,2022-03-18T05:22,data_analysis/jiekouAD/2022-03-18T05:22,output/jiekouAD/2022-03-18T05:22
20,2022-03-18T05:36,data_analysis/jiekouAD/2022-03-18T05:36,output/jiekouAD/2022-03-18T05:36
21,2022-03-18T05:50,data_analysis/jiekouAD/2022-03-18T05:50,output/jiekouAD/2022-03-18T05:50
22,2022-03-18T06:04,data_analysis/jiekouAD/2022-03-18T06:04,output/jiekouAD/2022-03-18T06:04
