,list,path,output
0,2022-02-18T18:12,data_analysis/EasyList_Italy/2022-02-18T18:12,output/EasyList_Italy/2022-02-18T18:12
1,2022-02-18T18:26,data_analysis/EasyList_Italy/2022-02-18T18:26,output/EasyList_Italy/2022-02-18T18:26
2,2022-02-18T18:41,data_analysis/EasyList_Italy/2022-02-18T18:41,output/EasyList_Italy/2022-02-18T18:41
3,2022-02-18T18:55,data_analysis/EasyList_Italy/2022-02-18T18:55,output/EasyList_Italy/2022-02-18T18:55
4,2022-02-23T15:33,data_analysis/EasyList_Italy/2022-02-23T15:33,output/EasyList_Italy/2022-02-23T15:33
5,2022-02-23T17:17,data_analysis/EasyList_Italy/2022-02-23T17:17,output/EasyList_Italy/2022-02-23T17:17
6,2022-02-23T18:14,data_analysis/EasyList_Italy/2022-02-23T18:14,output/EasyList_Italy/2022-02-23T18:14
7,2022-02-24T14:54,data_analysis/EasyList_Italy/2022-02-24T14:54,output/EasyList_Italy/2022-02-24T14:54
8,2022-02-24T15:22,data_analysis/EasyList_Italy/2022-02-24T15:22,output/EasyList_Italy/2022-02-24T15:22
9,2022-02-25T21:06,data_analysis/EasyList_Italy/2022-02-25T21:06,output/EasyList_Italy/2022-02-25T21:06
10,2022-03-01T15:51,data_analysis/EasyList_Italy/2022-03-01T15:51,output/EasyList_Italy/2022-03-01T15:51
11,2022-03-01T18:33,data_analysis/EasyList_Italy/2022-03-01T18:33,output/EasyList_Italy/2022-03-01T18:33
12,2022-03-02T20:31,data_analysis/EasyList_Italy/2022-03-02T20:31,output/EasyList_Italy/2022-03-02T20:31
13,2022-03-03T18:26,data_analysis/EasyList_Italy/2022-03-03T18:26,output/EasyList_Italy/2022-03-03T18:26
14,2022-03-04T20:32,data_analysis/EasyList_Italy/2022-03-04T20:32,output/EasyList_Italy/2022-03-04T20:32
15,2022-03-07T21:00,data_analysis/EasyList_Italy/2022-03-07T21:00,output/EasyList_Italy/2022-03-07T21:00
16,2022-03-08T17:16,data_analysis/EasyList_Italy/2022-03-08T17:16,output/EasyList_Italy/2022-03-08T17:16
17,2022-03-08T18:29,data_analysis/EasyList_Italy/2022-03-08T18:29,output/EasyList_Italy/2022-03-08T18:29
18,2022-03-09T20:26,data_analysis/EasyList_Italy/2022-03-09T20:26,output/EasyList_Italy/2022-03-09T20:26
19,2022-03-10T16:25,data_analysis/EasyList_Italy/2022-03-10T16:25,output/EasyList_Italy/2022-03-10T16:25
20,2022-03-11T20:19,data_analysis/EasyList_Italy/2022-03-11T20:19,output/EasyList_Italy/2022-03-11T20:19
21,2022-03-14T16:16,data_analysis/EasyList_Italy/2022-03-14T16:16,output/EasyList_Italy/2022-03-14T16:16
22,2022-03-14T16:30,data_analysis/EasyList_Italy/2022-03-14T16:30,output/EasyList_Italy/2022-03-14T16:30
23,2022-03-16T17:11,data_analysis/EasyList_Italy/2022-03-16T17:11,output/EasyList_Italy/2022-03-16T17:11
24,current,data_analysis/EasyList_Italy/current,output/EasyList_Italy/current
