,list,path,output
0,2020-11-19T01:18,data_analysis/Japanese_Text_Softener/2020-11-19T01:18,output/Japanese_Text_Softener/2020-11-19T01:18
1,2020-11-22T12:24,data_analysis/Japanese_Text_Softener/2020-11-22T12:24,output/Japanese_Text_Softener/2020-11-22T12:24
2,2021-01-11T15:13,data_analysis/Japanese_Text_Softener/2021-01-11T15:13,output/Japanese_Text_Softener/2021-01-11T15:13
3,2021-03-07T16:08,data_analysis/Japanese_Text_Softener/2021-03-07T16:08,output/Japanese_Text_Softener/2021-03-07T16:08
4,2021-03-20T12:45,data_analysis/Japanese_Text_Softener/2021-03-20T12:45,output/Japanese_Text_Softener/2021-03-20T12:45
5,2021-04-04T05:13,data_analysis/Japanese_Text_Softener/2021-04-04T05:13,output/Japanese_Text_Softener/2021-04-04T05:13
6,2021-04-10T23:52,data_analysis/Japanese_Text_Softener/2021-04-10T23:52,output/Japanese_Text_Softener/2021-04-10T23:52
7,2021-06-08T12:43,data_analysis/Japanese_Text_Softener/2021-06-08T12:43,output/Japanese_Text_Softener/2021-06-08T12:43
8,2021-06-30T01:40,data_analysis/Japanese_Text_Softener/2021-06-30T01:40,output/Japanese_Text_Softener/2021-06-30T01:40
9,2021-07-05T07:48,data_analysis/Japanese_Text_Softener/2021-07-05T07:48,output/Japanese_Text_Softener/2021-07-05T07:48
10,2021-07-08T20:55,data_analysis/Japanese_Text_Softener/2021-07-08T20:55,output/Japanese_Text_Softener/2021-07-08T20:55
11,2021-10-15T08:04,data_analysis/Japanese_Text_Softener/2021-10-15T08:04,output/Japanese_Text_Softener/2021-10-15T08:04
12,2021-10-23T22:36,data_analysis/Japanese_Text_Softener/2021-10-23T22:36,output/Japanese_Text_Softener/2021-10-23T22:36
13,2021-12-10T00:59,data_analysis/Japanese_Text_Softener/2021-12-10T00:59,output/Japanese_Text_Softener/2021-12-10T00:59
14,2022-01-12T03:36,data_analysis/Japanese_Text_Softener/2022-01-12T03:36,output/Japanese_Text_Softener/2022-01-12T03:36
15,2022-01-29T22:41,data_analysis/Japanese_Text_Softener/2022-01-29T22:41,output/Japanese_Text_Softener/2022-01-29T22:41
16,2022-02-07T12:59,data_analysis/Japanese_Text_Softener/2022-02-07T12:59,output/Japanese_Text_Softener/2022-02-07T12:59
17,current,data_analysis/Japanese_Text_Softener/current,output/Japanese_Text_Softener/current
